f59dd65ca1858641dc8fff4a5d28d23a0eb86de8 [FaultTracer] Extracted changes: 0 0 0 0 0 0 0 0 0 0 0 0 0 0 0 0 0 0 0 0 0 0 0 0 0 0 0 0
14b3d1ad8c5efc1f21c94e6d0f72635c374b2bb6 [FaultTracer] Extracted changes: 0 0 2 0 0 0 0 0 0 0 0 0 0 0 1 1 0 0 0 0 0 0 0 0 0 0 1 1
19a620c904587dc0397b43bfe9071ff60033c097 [FaultTracer] Extracted changes: 0 0 2 0 0 0 0 0 0 0 0 0 0 0 1 1 0 0 0 0 0 0 0 0 0 0 1 1
823cdee9b18508e9e51913d110a20a406f55582b [FaultTracer] Extracted changes: 0 0 0 0 0 0 0 0 0 0 0 0 0 0 0 0 0 0 0 0 0 0 0 0 0 0 0 0
f7cf7ab61242d464ddc6d055ec01359a31b5d86b [FaultTracer] Extracted changes: 0 0 1 0 0 0 0 0 0 0 0 0 0 0 0 1 0 0 0 0 0 0 0 0 0 0 0 1
ba6953cfed3b221f90d04d96fdf846f658989b2c [FaultTracer] Extracted changes: 0 0 0 0 0 0 0 0 0 0 0 0 0 0 0 0 0 0 0 0 0 0 0 0 0 0 0 0
cfd5387303b75b9a00f65449fc24abcc560dc763 [FaultTracer] Extracted changes: 0 1 2 0 0 0 0 0 1 1 0 0 0 0 1 1 0 0 0 0 1 1 0 0 0 0 1 1
18daf66b2ccf4c7df9618c9a7067ab56bfa96593 [FaultTracer] Extracted changes: 0 0 1 0 0 0 0 0 0 0 0 0 0 0 0 1 0 0 0 0 0 0 0 0 0 0 0 1
952a50372dea32e78800b5127ce3e969ce8ba5f0 [FaultTracer] Extracted changes: 0 0 0 0 0 0 0 0 0 0 0 0 0 0 0 0 0 0 0 0 0 0 0 0 0 0 0 0
57107c0192b3b4e279a3c7ddbce0234b71190266 [FaultTracer] Extracted changes: 0 0 0 0 0 0 0 0 0 0 0 0 0 0 0 0 0 0 0 0 0 0 0 0 0 0 0 0
593339ab62ce5db71fd42501a9ddea9fe698b9ca [FaultTracer] Extracted changes: 0 0 2 0 0 0 0 0 0 0 0 0 1 0 1 0 0 0 0 0 0 0 0 0 1 0 1 0
11840dfde044fec90b0cb4a715ce9d213acea3ca [FaultTracer] Extracted changes: 0 0 1 0 0 0 0 0 0 0 0 0 0 0 2 0 0 0 0 0 0 0 0 0 0 0 1 0
048b701a9e56755100a17bad712934c1003bbb25 [FaultTracer] Extracted changes: 0 0 1 0 0 0 0 0 0 0 0 0 0 0 0 3 0 0 0 0 0 0 0 0 0 0 0 1
b5071c2f8bcaa96cc9efb0214b2896cc26996ca9 [FaultTracer] Extracted changes: 0 0 0 0 0 0 0 0 0 0 0 0 0 0 0 0 0 0 0 0 0 0 0 0 0 0 0 0
c86cc39af6dcae9bb67e7015fa25f3469c7bcf02 [FaultTracer] Extracted changes: 0 0 0 0 0 0 0 0 0 0 0 0 0 0 0 0 0 0 0 0 0 0 0 0 0 0 0 0
1dc330f53dcec9661621ec2ff58abf50b7cd08b9 [FaultTracer] Extracted changes: 0 0 1 0 0 0 0 0 0 0 0 0 0 0 0 4 0 0 0 0 0 0 0 0 0 0 0 1
8769bb6980ea9d46f8fbec1fa1075128d6f61936 [FaultTracer] Extracted changes: 0 0 1 0 0 0 0 0 0 0 0 0 0 0 0 1 0 0 0 0 0 0 0 0 0 0 0 1
bdc5ad445101133b7c92f4b2efbad1993913e160 [FaultTracer] Extracted changes: 0 0 1 0 0 0 0 0 0 0 0 0 0 0 0 1 0 0 0 0 0 0 0 0 0 0 0 1
e9d6221823e2e0d731a11a8a8931db2e83ca6e5c [FaultTracer] Extracted changes: 0 0 1 0 0 0 0 0 0 0 0 0 0 0 0 4 0 0 0 0 0 0 0 0 0 0 0 1
f87a7ce9321b4901a77786387cfe8026f1249721 [FaultTracer] Extracted changes: 0 0 1 0 0 0 0 0 0 1 0 0 0 0 0 1 0 0 0 0 0 1 0 0 0 0 0 1
abc2d23900ff5adeef648879af6bc4d2f79c261e [FaultTracer] Extracted changes: 0 0 1 0 0 0 0 0 0 1 0 0 0 0 0 5 0 0 0 0 0 1 0 0 0 0 0 1
2424036c286f0b3dfc280f00a1e835cb52e39375 [FaultTracer] Extracted changes: 0 0 0 0 0 0 0 0 0 0 0 0 0 0 0 0 0 0 0 0 0 0 0 0 0 0 0 0
712e7c106d43b920399c0c909ca4d5fa3e51c384 [FaultTracer] Extracted changes: 0 0 0 0 0 0 0 0 0 0 0 0 0 0 0 0 0 0 0 0 0 0 0 0 0 0 0 0
4c11f129357fb9f7742d83461b48c02a493e3e30 [FaultTracer] Extracted changes: 0 0 0 0 0 0 0 0 0 0 0 0 0 0 0 0 0 0 0 0 0 0 0 0 0 0 0 0
3623ee7dad07c74722baeeffcec6770015f915cf [FaultTracer] Extracted changes: 0 0 0 0 0 0 0 0 0 0 0 0 0 0 0 0 0 0 0 0 0 0 0 0 0 0 0 0
c93d2914596911d9a72166c4d9d31893199586f6 [FaultTracer] Extracted changes: 0 0 0 0 0 0 0 0 0 0 0 0 0 0 0 0 0 0 0 0 0 0 0 0 0 0 0 0
6ed774a2cd4a92e0ccfcd413930495dc8686f733 [FaultTracer] Extracted changes: 0 0 0 0 0 0 0 0 0 0 0 0 0 0 0 0 0 0 0 0 0 0 0 0 0 0 0 0
99bc508220672ac501d72e9c0b4271e0b9fa2955 [FaultTracer] Extracted changes: 0 0 0 0 0 0 0 0 0 0 0 0 0 0 0 0 0 0 0 0 0 0 0 0 0 0 0 0
9a677fbe3bb47b489412a0c381b99cadbadcebd1 [FaultTracer] Extracted changes: 0 0 0 0 0 0 0 0 0 0 0 0 0 0 0 0 0 0 0 0 0 0 0 0 0 0 0 0
9e6f0b398f6f3d4511900fdba1a87a3a52d9afb0 [FaultTracer] Extracted changes: 0 1 0 0 0 0 0 0 0 0 0 0 0 0 0 0 0 0 0 0 0 0 0 0 0 0 0 0
6c8345bff9b68598903a05f702ec15e969478cb9 [FaultTracer] Extracted changes: 0 0 380 380 0 0 0 0 0 0 0 0 0 0 0 0 0 0 0 0 0 0 0 0 0 0 0 0
f8e09945ea6bd6e59c41f44f0db2afef817a4df2 [FaultTracer] Extracted changes: 0 0 0 0 0 0 0 0 0 0 0 0 0 0 0 0 0 0 0 0 0 0 0 0 0 0 0 0
f5a98515ef3b0b5a1318fb6c89cd57177e1e40a4 [FaultTracer] Extracted changes: 0 0 0 0 0 0 0 0 0 0 0 0 0 0 0 0 0 0 0 0 0 0 0 0 0 0 0 0
b3c6bf720c1520276c927bb38b321d22a654590b [FaultTracer] Extracted changes: 0 0 0 0 0 0 0 0 0 0 0 0 0 0 0 0 0 0 0 0 0 0 0 0 0 0 0 0
f52ecf8657801852c55bc9118dd953a096388ab3 [FaultTracer] Extracted changes: 0 0 4 0 0 0 0 0 0 0 0 1 2 0 0 2 0 0 0 0 0 0 0 1 2 0 0 2
cd9d5ee5dc83fb74c0e823e0b13db397ef017251 [FaultTracer] Extracted changes: 0 0 3 0 0 0 0 0 0 1 0 0 0 0 0 3 0 0 0 0 0 1 0 0 0 0 0 2
d5aa050a642409fab36805b2296a99e8e5ce8449 [FaultTracer] Extracted changes: 0 0 0 0 0 0 0 0 0 0 0 0 0 0 0 0 0 0 0 0 0 0 0 0 0 0 0 0
e2d348e17210d17060394d16c491f0e20783c10c [FaultTracer] Extracted changes: 0 0 0 0 0 0 0 0 0 0 0 0 0 0 0 0 0 0 0 0 0 0 0 0 0 0 0 0
dee8220e4c56ffca5d4fcded556f3c74c72cedb6 [FaultTracer] Extracted changes: 0 0 0 0 0 0 0 0 0 0 0 0 0 0 0 0 0 0 0 0 0 0 0 0 0 0 0 0
0714e1063cc85cc6ba2c1ca358fad93baa53e1d6 [FaultTracer] Extracted changes: 0 0 0 0 0 0 0 0 0 0 0 0 0 0 0 0 0 0 0 0 0 0 0 0 0 0 0 0
7f110cf318a5f99554b1628512c70085ff25b2bf [FaultTracer] Extracted changes: 0 0 0 0 0 0 0 0 0 0 0 0 0 0 0 0 0 0 0 0 0 0 0 0 0 0 0 0
4865194d5fd2de1df4393a12bfe5552bc2e6a2c0 [FaultTracer] Extracted changes: 0 0 1 0 0 0 0 0 0 0 0 0 0 0 0 3 0 0 0 0 0 0 0 0 0 0 0 1
77388c82c0f484ebf11b5f3292f0103514fd00f1 [FaultTracer] Extracted changes: 0 0 40 0 0 0 1 0 0 0 0 0 4 0 0 93 0 0 1 0 0 0 0 0 4 0 0 36
32c30f6f072ccfea6ead90f8eef0c205d88d00d3 [FaultTracer] Extracted changes: 0 0 2 0 0 0 0 0 0 0 0 0 0 0 2 1 0 0 0 0 0 0 0 0 0 0 1 1
52dd5908e374973d69c51856b74d4d93d591c90a [FaultTracer] Extracted changes: 0 0 1 0 0 0 0 0 0 0 0 0 0 0 0 2 0 0 0 0 0 0 0 0 0 0 0 1
159d9c646d598edde1dbf2e20bb3879abaea7694 [FaultTracer] Extracted changes: 0 0 1 0 0 0 0 0 0 0 0 0 0 0 0 14 0 0 0 0 0 0 0 0 0 0 0 1
e71827b5db22d81e0b009f3e205173ce643d2e8e [FaultTracer] Extracted changes: 0 0 1 0 0 0 0 0 0 0 0 0 0 0 0 2 0 0 0 0 0 0 0 0 0 0 0 1
7ee18aa0cc99a429e6ff9e3fe4b5e73f91b99776 [FaultTracer] Extracted changes: 0 0 0 0 0 0 0 0 0 0 0 0 0 0 0 0 0 0 0 0 0 0 0 0 0 0 0 0
f0102601d2b949ab63f9f3e6d20618a0b53323ee [FaultTracer] Extracted changes: 0 0 2 0 0 0 0 0 0 0 0 1 0 0 2 1 0 0 0 0 0 0 0 1 0 0 2 1
658812c85fe762e361c998161cfb61bd477e1b24 [FaultTracer] Extracted changes: 0 0 0 0 0 0 0 0 0 0 0 0 0 0 0 0 0 0 0 0 0 0 0 0 0 0 0 0
9e32a2ce77b9cc28e1e34dd5efeb9de48f5bc006 [FaultTracer] Extracted changes: 0 0 2 0 0 0 0 0 1 1 1 1 0 0 0 4 0 0 0 0 1 1 1 1 0 0 0 2
87f0f2ec35c600cae7a17621455c00e24256011a [FaultTracer] Extracted changes: 0 1 1 0 0 0 0 0 2 1 0 0 0 0 1 5 0 0 0 0 1 1 0 0 0 0 1 1
daeb07457183232eb9a9fb71bfb31a3700404427 [FaultTracer] Extracted changes: 0 1 3 1 0 0 0 0 0 0 0 1 0 1 1 1 0 0 0 0 0 0 0 1 0 1 1 1
94197a7b6c5c616b19ee532da23d8911d5deefd6 [FaultTracer] Extracted changes: 0 0 2 0 0 0 0 0 2 2 1 1 0 0 1 12 0 0 0 0 1 2 1 1 0 0 1 2
d8fc27b40be0c71090fb11d47aba813ce87f3d8b [FaultTracer] Extracted changes: 0 0 0 0 0 0 0 0 0 0 0 0 0 0 0 0 0 0 0 0 0 0 0 0 0 0 0 0
cd235a8d951e12cae9152a2b80e128d7e6d9f8f3 [FaultTracer] Extracted changes: 0 0 0 0 0 0 0 0 0 0 0 0 0 0 0 0 0 0 0 0 0 0 0 0 0 0 0 0
dec527d66d568f516d1e778548c12ce2a48c90a8 [FaultTracer] Extracted changes: 0 1 2 1 0 0 0 0 1 2 0 0 0 0 0 11 0 0 0 0 1 1 0 0 0 0 0 1
7e35f57ae9ba9e716da122dfa0bec418b1e2b6e8 [FaultTracer] Extracted changes: 0 0 0 0 0 0 0 0 0 0 0 0 0 0 0 0 0 0 0 0 0 0 0 0 0 0 0 0
57511f57d8ec53663f3ad964582431d6e9c00d9e [FaultTracer] Extracted changes: 0 0 4 0 0 0 0 0 0 1 2 3 0 11 11 5 0 0 0 0 0 1 1 1 0 1 1 4
6a5014ed5847a99b9574a2dd1332c1f91d36defb [FaultTracer] Extracted changes: 0 1 2 0 0 0 0 0 0 0 0 0 0 0 2 0 0 0 0 0 0 0 0 0 0 0 2 0
e926d99b192110cb53332ab932bcb43e0d947d19 [FaultTracer] Extracted changes: 0 0 3 0 0 0 0 0 1 1 0 0 0 0 5 6 0 0 0 0 1 1 0 0 0 0 3 1
09edbd8f1945cd6a2ecc267f4e466862227e2355 [FaultTracer] Extracted changes: 0 0 0 0 0 0 0 0 0 0 0 0 0 0 0 0 0 0 0 0 0 0 0 0 0 0 0 0
1e0957d571b8f36693ea6ac305947884938f1df6 [FaultTracer] Extracted changes: 0 0 1 0 0 0 0 0 0 0 0 0 0 0 0 1 0 0 0 0 0 0 0 0 0 0 0 1
d9fe818eef0003afe295e6e6df112257cffbc88f [FaultTracer] Extracted changes: 0 0 1 0 0 0 0 0 0 1 0 0 0 0 0 4 0 0 0 0 0 1 0 0 0 0 0 1
a2976b66b5590c7d0225ca111dabd2b048d25951 [FaultTracer] Extracted changes: 0 1 1 0 0 0 0 0 0 0 0 0 0 0 2 4 0 0 0 0 0 0 0 0 0 0 1 1
72b1789632ca7a97e5fa338ab5a60cb4d02915e6 [FaultTracer] Extracted changes: 0 0 0 0 0 0 0 0 0 0 0 0 0 0 0 0 0 0 0 0 0 0 0 0 0 0 0 0
e958122805060c32817a37a53aeccaaa701dd0c2 [FaultTracer] Extracted changes: 0 0 0 0 0 0 0 0 0 0 0 0 0 0 0 0 0 0 0 0 0 0 0 0 0 0 0 0
652343fb5c21254532ca94332a85b245f9a81cb9 [FaultTracer] Extracted changes: 0 0 0 0 0 0 0 0 0 0 0 0 0 0 0 0 0 0 0 0 0 0 0 0 0 0 0 0
3d509a082e581f853f6e5e15b2ab6186a8bf8072 [FaultTracer] Extracted changes: 1 0 0 0 0 0 0 0 0 0 0 0 0 0 0 0 0 0 0 0 0 0 0 0 0 0 0 0
d8d92941d93d5096e9caf11484bc2e9d45bf57f3 [FaultTracer] Extracted changes: 0 0 4 0 0 0 0 0 2 0 0 0 0 0 0 2 0 0 0 0 2 0 0 0 0 0 0 2
12d9048c6c09ab622f389c2550d0668dc7ad26dc [FaultTracer] Extracted changes: 0 0 4 0 0 0 0 0 3 0 0 0 0 0 0 1 0 0 0 0 3 0 0 0 0 0 0 1
42216000561c9b19bc258e337738ac125e5e6a06 [FaultTracer] Extracted changes: 0 0 2 0 0 0 0 0 0 0 0 0 0 1 1 1 0 0 0 0 0 0 0 0 0 1 1 1
46f57bf93d140737fcce830f83c962a309fa5a1a [FaultTracer] Extracted changes: 0 0 1 0 0 0 0 0 0 0 0 0 0 0 0 2 0 0 0 0 0 0 0 0 0 0 0 1
f538f38bd4db41349fb8f753ec17850861de5e0e [FaultTracer] Extracted changes: 0 9 2 1 0 0 0 0 0 0 0 0 0 0 0 1 0 0 0 0 0 0 0 0 0 0 0 1
f965bc23bc9f12748b6693424f829b6b08c8a71b [FaultTracer] Extracted changes: 0 1 1 0 0 0 0 0 0 0 0 0 0 0 0 2 0 0 0 0 0 0 0 0 0 0 0 1
adf0f2a79124e18577861996014e27098934a83b [FaultTracer] Extracted changes: 0 0 1 0 0 0 0 0 0 0 0 0 0 0 0 2 0 0 0 0 0 0 0 0 0 0 0 1
f98b32e499d502def4cc5b86b859462bbd030a79 [FaultTracer] Extracted changes: 0 0 1 0 0 0 0 0 0 0 0 0 0 0 0 0 0 0 0 0 0 0 0 0 0 0 0 0
263513a0cdf81b7abde1e7dee75ea45d042d0cfc [FaultTracer] Extracted changes: 0 0 0 0 0 0 0 0 0 0 0 0 0 0 0 0 0 0 0 0 0 0 0 0 0 0 0 0
c49ccc95b39383d609602c95dddb6905a2c8ccba [FaultTracer] Extracted changes: 0 0 1 0 0 0 0 0 0 0 0 0 0 0 1 0 0 0 0 0 0 0 0 0 0 0 1 0
c4a5b14232329fda281231b49ec1f44d302c162c [FaultTracer] Extracted changes: 0 0 1 0 0 0 0 0 0 0 0 0 0 0 0 3 0 0 0 0 0 0 0 0 0 0 0 1
a61a952522334fb37ebf97bcc971be45ca2bf9a3 [FaultTracer] Extracted changes: 0 6 1 1 0 0 0 0 0 0 0 0 0 0 0 0 0 0 0 0 0 0 0 0 0 0 0 0
22edc12a0c1b2fa0b73973f375ddf0f0ada672ae [FaultTracer] Extracted changes: 0 0 0 0 0 0 0 0 0 0 0 0 0 0 0 0 0 0 0 0 0 0 0 0 0 0 0 0
545c399c6686be38039194b4769e72d293e784d5 [FaultTracer] Extracted changes: 0 0 4 0 0 0 0 0 0 0 0 0 0 2 3 2 0 0 0 0 0 0 0 0 0 2 3 2
350f01c78374b4df99c1a84cc32122eeeb48b036 [FaultTracer] Extracted changes: 0 0 0 0 0 0 0 0 0 0 0 0 0 0 0 0 0 0 0 0 0 0 0 0 0 0 0 0
db8bdf62de779f4a09bf990ef3be7d7e51c2d64f [FaultTracer] Extracted changes: 0 0 0 0 0 0 0 0 0 0 0 0 0 0 0 0 0 0 0 0 0 0 0 0 0 0 0 0
e126bf9eb2ff0f2aae82718d11d1f53ce7ad7da8 [FaultTracer] Extracted changes: 0 0 0 0 0 0 0 0 0 0 0 0 0 0 0 0 0 0 0 0 0 0 0 0 0 0 0 0
a99b6bb5c38e1401f7e2e7b502f4ec35733a4aac [FaultTracer] Extracted changes: 0 0 0 0 0 0 0 0 0 0 0 0 0 0 0 0 0 0 0 0 0 0 0 0 0 0 0 0
7c93eb18bad8612fe7cd4e6d27bd413b1fafc978 [FaultTracer] Extracted changes: 0 0 0 0 0 0 0 0 0 0 0 0 0 0 0 0 0 0 0 0 0 0 0 0 0 0 0 0
14441dbaa14a4b1e98b8c2df5b7ae5c120290d97 [FaultTracer] Extracted changes: 0 0 0 0 0 0 0 0 0 0 0 0 0 0 0 0 0 0 0 0 0 0 0 0 0 0 0 0
0b04d80552df440c23f5aa77dc796812438c08e2 [FaultTracer] Extracted changes: 0 0 0 0 0 0 0 0 0 0 0 0 0 0 0 0 0 0 0 0 0 0 0 0 0 0 0 0
5dab55a855ae1d59b1fe678bbf9cdc21baa50d08 [FaultTracer] Extracted changes: 0 0 0 0 0 0 0 0 0 0 0 0 0 0 0 0 0 0 0 0 0 0 0 0 0 0 0 0
cf1362e368b22413c5e5db376074ad98ee547b89 [FaultTracer] Extracted changes: 0 0 0 0 0 0 0 0 0 0 0 0 0 0 0 0 0 0 0 0 0 0 0 0 0 0 0 0
c1e73721b32f8abb39a180f5b7f225b5be30ddef [FaultTracer] Extracted changes: 0 0 0 0 0 0 0 0 0 0 0 0 0 0 0 0 0 0 0 0 0 0 0 0 0 0 0 0
1a31dec123af622793a62af9395a057e03994303 [FaultTracer] Extracted changes: 0 1 2 0 0 0 0 0 0 0 0 0 0 0 1 2 0 0 0 0 0 0 0 0 0 0 1 1
7117039b146155d81857ec29cc48b64324e5f19c [FaultTracer] Extracted changes: 0 0 0 0 0 0 0 0 0 0 0 0 0 0 0 0 0 0 0 0 0 0 0 0 0 0 0 0
e8cee818c48c3dadcbb9ca643d602fb82e9d1bdd [FaultTracer] Extracted changes: 1 2 5 2 0 0 0 0 0 0 0 0 0 0 6 0 0 0 0 0 0 0 0 0 0 0 3 0
9238eab678395743bce4bd273c4534d10f77f715 [FaultTracer] Extracted changes: 0 4 3 3 0 0 0 0 0 0 0 0 0 0 0 0 0 0 0 0 0 0 0 0 0 0 0 0
fdbfa5d962dbc31a2c77fc3d2d5e0f07b36f732f [FaultTracer] Extracted changes: 0 0 0 0 0 0 0 0 0 0 0 0 0 0 0 0 0 0 0 0 0 0 0 0 0 0 0 0
66726eabfbf22080cab9587696ccb54e1bd82e7a [FaultTracer] Extracted changes: 0 0 0 0 0 0 0 0 0 0 0 0 0 0 0 0 0 0 0 0 0 0 0 0 0 0 0 0
