26aacb995187fcd1f8d8a638752c90bc7641c199 [FaultTracer] Extracted changes: 0 4 5 0 0 0 0 0 0 0 0 0 4 0 0 1 0 0 0 0 0 0 0 0 4 0 0 1
b67345afa4817cc8bc7f14137ed1ef90ab299062 [FaultTracer] Extracted changes: 0 1 2 0 0 0 0 0 0 0 0 0 0 2 4 2 0 0 0 0 0 0 0 0 0 2 2 2
7b2847e882a9e4216dcf0f35d27101e363611532 [FaultTracer] Extracted changes: 0 0 0 0 0 0 0 0 0 0 0 0 0 0 0 0 0 0 0 0 0 0 0 0 0 0 0 0
8cd679463fe2d2dcc04b57b56372ca5480495375 [FaultTracer] Extracted changes: 0 0 0 0 0 0 0 0 0 0 0 0 0 0 0 0 0 0 0 0 0 0 0 0 0 0 0 0
b49587ad0e8f47bff05e877668f75812246e311f [FaultTracer] Extracted changes: 0 0 1 0 0 0 0 0 0 0 0 0 3 0 0 0 0 0 0 0 0 0 0 0 1 0 0 0
85c981b832d8cb1df273b4065f7a08c27583702a [FaultTracer] Extracted changes: 0 4 4 0 0 0 0 0 0 0 0 0 0 0 5 2 0 0 0 0 0 0 0 0 0 0 3 1
465e2febabc92b1906d520689b9d895d33b902ed [FaultTracer] Extracted changes: 0 0 1 0 0 0 0 0 0 0 1 1 0 0 0 3 0 0 0 0 0 0 1 1 0 0 0 1
5badb5743937ebdc218a5ca51385e2153579cf1b [FaultTracer] Extracted changes: 0 0 1 0 0 0 0 0 0 0 0 0 1 0 0 0 0 0 0 0 0 0 0 0 1 0 0 0
07b898f72113be256ecc1420f5388261d951c547 [FaultTracer] Extracted changes: 0 1 0 0 0 0 0 0 0 0 0 0 0 0 0 0 0 0 0 0 0 0 0 0 0 0 0 0
da7357ac3c5123699e0d16e39c04d729892eb7ac [FaultTracer] Extracted changes: 0 0 0 0 0 0 0 0 0 0 0 0 0 0 0 0 0 0 0 0 0 0 0 0 0 0 0 0
8d56adc49ef786ae3ec7d760afde536eacd52df7 [FaultTracer] Extracted changes: 0 0 0 0 0 0 0 0 0 0 0 0 0 0 0 0 0 0 0 0 0 0 0 0 0 0 0 0
ebedc0a3fbbf8823ea8ac51ca4003e842b487fe3 [FaultTracer] Extracted changes: 0 0 0 0 0 0 0 0 0 0 0 0 0 0 0 0 0 0 0 0 0 0 0 0 0 0 0 0
ff16700159f056bd70fb52c5d93963a94e2e7f54 [FaultTracer] Extracted changes: 0 0 0 0 0 0 0 0 0 0 0 0 0 0 0 0 0 0 0 0 0 0 0 0 0 0 0 0
9dc5e874040ec41b95be41cb08e7f4196e74067c [FaultTracer] Extracted changes: 0 0 0 0 0 0 0 0 0 0 0 0 0 0 0 0 0 0 0 0 0 0 0 0 0 0 0 0
dd6b6e7488d3c72daccf0150367cd6d02c4eb662 [FaultTracer] Extracted changes: 0 0 0 0 0 0 0 0 0 0 0 0 0 0 0 0 0 0 0 0 0 0 0 0 0 0 0 0
bab31a465681bcb563ebd00d50b0dea7a680c6cd [FaultTracer] Extracted changes: 0 0 0 0 0 0 0 0 0 0 0 0 0 0 0 0 0 0 0 0 0 0 0 0 0 0 0 0
8ee4a4b4ef4ce7c762096d45bf8cac28f0b73e9c [FaultTracer] Extracted changes: 0 0 0 0 0 0 0 0 0 0 0 0 0 0 0 0 0 0 0 0 0 0 0 0 0 0 0 0
e2674b541f1c9bac91c485a8c4d01c8a533bc2df [FaultTracer] Extracted changes: 0 0 0 0 0 0 0 0 0 0 0 0 0 0 0 0 0 0 0 0 0 0 0 0 0 0 0 0
e6ea60dbb06a41e49c0682dec41c294ccc4df12e [FaultTracer] Extracted changes: 0 0 0 0 0 0 0 0 0 0 0 0 0 0 0 0 0 0 0 0 0 0 0 0 0 0 0 0
18c79355f7ad3ff55a3674bc068b8d595c92ccbd [FaultTracer] Extracted changes: 0 0 0 0 0 0 0 0 0 0 0 0 0 0 0 0 0 0 0 0 0 0 0 0 0 0 0 0
fe0af2d87611f6a7e5d6a9e2c59fa931d01a754d [FaultTracer] Extracted changes: 0 0 0 0 0 0 0 0 0 0 0 0 0 0 0 0 0 0 0 0 0 0 0 0 0 0 0 0
af23315094f6d6aea9a0dd98aefce6739794afbc [FaultTracer] Extracted changes: 0 0 0 0 0 0 0 0 0 0 0 0 0 0 0 0 0 0 0 0 0 0 0 0 0 0 0 0
64cc3432219716c21145341560d7fe6fd8aa1827 [FaultTracer] Extracted changes: 0 0 0 0 0 0 0 0 0 0 0 0 0 0 0 0 0 0 0 0 0 0 0 0 0 0 0 0
4a6775e85ffd5cbd2bb7d1db37508590dbd6754d [FaultTracer] Extracted changes: 0 0 0 0 0 0 0 0 0 0 0 0 0 0 0 0 0 0 0 0 0 0 0 0 0 0 0 0
a6a1f5cd7955333933a9e2d60ea74d539eb8466c [FaultTracer] Extracted changes: 0 0 0 0 0 0 0 0 0 0 0 0 0 0 0 0 0 0 0 0 0 0 0 0 0 0 0 0
72c5f9c9e01afd4069fb9b02bce85b13692e70c9 [FaultTracer] Extracted changes: 0 0 1 0 0 0 0 0 0 1 0 0 0 1 1 4 0 0 0 0 0 1 0 0 0 1 1 1
515ed3d91e9e8ed1c1e8538a2ecbfc1f08ea473b [FaultTracer] Extracted changes: 0 0 1 0 0 0 0 0 0 0 0 0 0 0 0 2 0 0 0 0 0 0 0 0 0 0 0 1
74c38b4e3c6eb051c03fb9994be33e2b65499c01 [FaultTracer] Extracted changes: 0 4 0 0 0 0 0 0 0 0 0 0 0 0 0 0 0 0 0 0 0 0 0 0 0 0 0 0
20088623b6ea3fe38d4db7567be63ee654fd2c3f [FaultTracer] Extracted changes: 0 0 0 0 0 0 0 0 0 0 0 0 0 0 0 0 0 0 0 0 0 0 0 0 0 0 0 0
0b52de72c879bfd5fb71420b4569773c2607022b [FaultTracer] Extracted changes: 0 0 1 0 0 0 0 0 0 0 0 0 0 0 0 1 0 0 0 0 0 0 0 0 0 0 0 1
050ab0b02c54c0790a41aa9d815546235a2c4bfd [FaultTracer] Extracted changes: 0 0 0 0 0 0 0 0 0 0 0 0 0 0 0 0 0 0 0 0 0 0 0 0 0 0 0 0
a48b10d2a39eab2eb5a6a7309edc98803ceffe81 [FaultTracer] Extracted changes: 0 1 1 0 0 0 0 0 0 0 0 0 0 0 1 1 0 0 0 0 0 0 0 0 0 0 1 1
820a69d81b3b5d33f4a2b2cd9f153450f7535452 [FaultTracer] Extracted changes: 0 1 3 0 0 0 0 0 0 0 0 0 0 0 0 3 0 0 0 0 0 0 0 0 0 0 0 3
99a20785daf2bfc018552e2eabed1067bf225013 [FaultTracer] Extracted changes: 0 0 1 0 0 0 0 0 0 0 0 0 0 0 0 1 0 0 0 0 0 0 0 0 0 0 0 1
28cb61aa109eaf99de0840fe65d829db6f3899a5 [FaultTracer] Extracted changes: 0 0 3 0 0 0 0 0 0 0 0 0 0 1 1 3 0 0 0 0 0 0 0 0 0 1 1 3
7fcb2a2c3f021321bd2ef4a9243f635511d5e83f [FaultTracer] Extracted changes: 0 0 1 0 0 0 0 0 0 0 0 0 0 0 0 1 0 0 0 0 0 0 0 0 0 0 0 1
57754a66ee50b7a0892519b85b0a433851ff2a23 [FaultTracer] Extracted changes: 0 0 1 0 0 0 1 0 0 0 0 0 1 0 0 0 0 0 1 0 0 0 0 0 1 0 0 0
c5c52be8037fe02df71ec2f53dd93bb2253f5f3f [FaultTracer] Extracted changes: 0 0 0 0 0 0 0 0 0 0 0 0 0 0 0 0 0 0 0 0 0 0 0 0 0 0 0 0
c78b28c9d305da9f0d6dbb4c0ea557a0e7a4d28d [FaultTracer] Extracted changes: 0 0 1 0 0 0 0 0 0 0 0 0 1 0 0 0 0 0 0 0 0 0 0 0 1 0 0 0
161dab444d190ee1a2752624c37f4eb4e0c2e875 [FaultTracer] Extracted changes: 0 0 2 0 0 0 0 0 0 0 0 1 0 0 0 1 0 0 0 0 0 0 0 1 0 0 0 1
5c538c4e51c6c5ebb43182d0c6e99ee8f7b3590c [FaultTracer] Extracted changes: 0 1 1 0 0 0 0 0 0 0 0 0 1 0 0 0 0 0 0 0 0 0 0 0 1 0 0 0
afa2deca94436837e785b89362cfaaf84a8ca1bd [FaultTracer] Extracted changes: 0 0 0 0 0 0 0 0 0 0 0 0 0 0 0 0 0 0 0 0 0 0 0 0 0 0 0 0
90f9cd40f1d2287f6e549b83a3b7884405a209f2 [FaultTracer] Extracted changes: 0 0 0 0 0 0 0 0 0 0 0 0 0 0 0 0 0 0 0 0 0 0 0 0 0 0 0 0
13959a1d3a904a6e0839828a3a680e73a384b68b [FaultTracer] Extracted changes: 0 0 0 0 0 0 0 0 0 0 0 0 0 0 0 0 0 0 0 0 0 0 0 0 0 0 0 0
d01adaf558596713f7004566529adea896336c92 [FaultTracer] Extracted changes: 0 0 3 0 0 0 0 0 0 0 0 0 1 0 0 2 0 0 0 0 0 0 0 0 1 0 0 1
8113ba2c2c56cb2b2e20bcbc0db4fdeae48baeb3 [FaultTracer] Extracted changes: 0 0 0 0 0 0 0 0 0 0 0 0 0 0 0 0 0 0 0 0 0 0 0 0 0 0 0 0
4813289e895a8b06b455e6054aa74519e3069082 [FaultTracer] Extracted changes: 0 0 1 0 0 0 1 0 0 0 0 0 4 0 0 0 0 0 1 0 0 0 0 0 1 0 0 0
8c8b332f26a7623ceb40c9b930a0498990e7cb59 [FaultTracer] Extracted changes: 0 0 0 0 0 0 0 0 0 0 0 0 0 0 0 0 0 0 0 0 0 0 0 0 0 0 0 0
39db407f6e216bc71a56562699fd5f52f0c7b389 [FaultTracer] Extracted changes: 0 0 0 0 0 0 0 0 0 0 0 0 0 0 0 0 0 0 0 0 0 0 0 0 0 0 0 0
2a1ed27d33f4db18645392fa7d3b20fceb34bb78 [FaultTracer] Extracted changes: 0 0 0 0 0 0 0 0 0 0 0 0 0 0 0 0 0 0 0 0 0 0 0 0 0 0 0 0
64d2e6c2eaa6e60b18beef37bf06336869dc4588 [FaultTracer] Extracted changes: 0 0 1 0 0 0 0 0 0 0 0 0 0 0 0 1 0 0 0 0 0 0 0 0 0 0 0 1
8d5dfe41910a23f6bc0c9aad177a6bd9083fc0e7 [FaultTracer] Extracted changes: 0 0 0 0 0 0 0 0 0 0 0 0 0 0 0 0 0 0 0 0 0 0 0 0 0 0 0 0
88ffdd034f2da821c6fc4177800c01460c6c649e [FaultTracer] Extracted changes: 0 0 0 0 0 0 0 0 0 0 0 0 0 0 0 0 0 0 0 0 0 0 0 0 0 0 0 0
a4379a3c27d6fd711fc84acb422a8ebd66d8c94f [FaultTracer] Extracted changes: 0 0 0 0 0 0 0 0 0 0 0 0 0 0 0 0 0 0 0 0 0 0 0 0 0 0 0 0
32b9aa2eb5fa17737b127f845173de04a9cf45c9 [FaultTracer] Extracted changes: 0 0 1 0 0 0 1 0 0 0 0 0 2 0 0 0 0 0 1 0 0 0 0 0 1 0 0 0
e2267d1cdc67063f407aed2e1c1d0b92d4b38364 [FaultTracer] Extracted changes: 0 0 0 0 0 0 0 0 0 0 0 0 0 0 0 0 0 0 0 0 0 0 0 0 0 0 0 0
882a81e3207b73d28d175809c978fd74c530b0a1 [FaultTracer] Extracted changes: 0 0 0 0 0 0 0 0 0 0 0 0 0 0 0 0 0 0 0 0 0 0 0 0 0 0 0 0
972bf7668cb49fb1c6b780bcad3926af0a506e2a [FaultTracer] Extracted changes: 0 0 0 0 0 0 0 0 0 0 0 0 0 0 0 0 0 0 0 0 0 0 0 0 0 0 0 0
bcbbf42203a5e6c9108e158bf2f81e9bc3e0efdf [FaultTracer] Extracted changes: 0 0 0 0 0 0 0 0 0 0 0 0 0 0 0 0 0 0 0 0 0 0 0 0 0 0 0 0
216ab34a42725c70cc21c6ea133f65dde63efb3d [FaultTracer] Extracted changes: 0 0 0 0 0 0 0 0 0 0 0 0 0 0 0 0 0 0 0 0 0 0 0 0 0 0 0 0
bf4bd37f0f04fea3a0ad3067b5e2d9643456587e [FaultTracer] Extracted changes: 0 0 0 0 0 0 0 0 0 0 0 0 0 0 0 0 0 0 0 0 0 0 0 0 0 0 0 0
1a3d3e328e8dff4b1eed91eb13191e65874edaff [FaultTracer] Extracted changes: 0 1 1 0 0 0 1 0 0 0 0 0 2 0 0 0 0 0 1 0 0 0 0 0 1 0 0 0
dceb292201df5d107168efa0da1b960a482d6617 [FaultTracer] Extracted changes: 0 0 0 0 0 0 0 0 0 0 0 0 0 0 0 0 0 0 0 0 0 0 0 0 0 0 0 0
01b6438ec8e77cfae5ad3890c9d7364fda651109 [FaultTracer] Extracted changes: 0 0 0 0 0 0 0 0 0 0 0 0 0 0 0 0 0 0 0 0 0 0 0 0 0 0 0 0
f1dde17391dd0840cf107a0b6d7944de55134489 [FaultTracer] Extracted changes: 0 0 1 0 0 0 0 0 0 0 0 0 0 0 0 1 0 0 0 0 0 0 0 0 0 0 0 1
f5157bf149704557bd52059ad467ea5378d15cf7 [FaultTracer] Extracted changes: 0 0 0 0 0 0 0 0 0 0 0 0 0 0 0 0 0 0 0 0 0 0 0 0 0 0 0 0
9bd1f5a22e32f52a32c9475adb54bde110063c75 [FaultTracer] Extracted changes: 0 0 0 0 0 0 0 0 0 0 0 0 0 0 0 0 0 0 0 0 0 0 0 0 0 0 0 0
88d74f19e9d610fbbe1e693864f94a678b748b8d [FaultTracer] Extracted changes: 0 0 1 0 0 0 1 0 0 0 0 0 1 0 0 0 0 0 1 0 0 0 0 0 1 0 0 0
4efd5d2570f8598d5817c7a49592642cc6a4b22e [FaultTracer] Extracted changes: 0 0 0 0 0 0 0 0 0 0 0 0 0 0 0 0 0 0 0 0 0 0 0 0 0 0 0 0
94f7c2c56bf7c6340c32f31e0d4faf457a978651 [FaultTracer] Extracted changes: 0 3 1 0 0 0 0 0 0 0 0 0 1 0 0 0 0 0 0 0 0 0 0 0 1 0 0 0
4787cce8cd91f71233d0fd2807abca1fadb2c001 [FaultTracer] Extracted changes: 0 2 0 0 0 0 0 0 0 0 0 0 0 0 0 0 0 0 0 0 0 0 0 0 0 0 0 0
caa754ffd11c7b70de96e73984f7ac462bd25c93 [FaultTracer] Extracted changes: 5 5 0 0 0 0 0 0 0 0 0 0 0 0 0 0 0 0 0 0 0 0 0 0 0 0 0 0
bf17e42ea110fbabb9e934f7d6246b32f31c6ef6 [FaultTracer] Extracted changes: 1 1 1 1 0 0 0 0 0 0 0 0 0 0 0 0 0 0 0 0 0 0 0 0 0 0 0 0
0233b452e41fc1c75c975b620892c3f24c8472e4 [FaultTracer] Extracted changes: 0 0 0 0 0 0 0 0 0 0 0 0 0 0 0 0 0 0 0 0 0 0 0 0 0 0 0 0
3cbf86865bb4ef79aef30187c9a9d0b354638997 [FaultTracer] Extracted changes: 0 5 267 267 0 0 0 0 0 0 0 0 0 0 0 0 0 0 0 0 0 0 0 0 0 0 0 0
3c94193175e107d1a5a1a9df11fe643cd4e86e3c [FaultTracer] Extracted changes: 0 0 2 0 0 0 0 0 0 0 0 0 1 0 0 2 0 0 0 0 0 0 0 0 1 0 0 1
e689b62eb071189f6fe3c404a6ce61c2a55df3c6 [FaultTracer] Extracted changes: 0 0 8 0 0 0 0 0 0 0 0 0 4 0 0 6 0 0 0 0 0 0 0 0 4 0 0 4
52f7a43b0b1fa236d32dfd03a7694fdc6d6bdc8f [FaultTracer] Extracted changes: 0 0 1 0 0 0 1 0 0 0 0 0 1 0 0 0 0 0 1 0 0 0 0 0 1 0 0 0
88bd284db41e8f8055c0d9e1866329b88f45fe5e [FaultTracer] Extracted changes: 0 0 1 0 0 0 0 0 0 0 1 0 0 0 0 1 0 0 0 0 0 0 1 0 0 0 0 1
ed86becdfb578ae3fa475c5a4011c725445e8c18 [FaultTracer] Extracted changes: 0 0 0 0 0 0 0 0 0 0 0 0 0 0 0 0 0 0 0 0 0 0 0 0 0 0 0 0
70e03b76d7e37a637572528db2c14bcb002f851c [FaultTracer] Extracted changes: 0 0 1 0 0 0 0 0 0 0 0 0 0 0 0 1 0 0 0 0 0 0 0 0 0 0 0 1
9880af97b1a328b3e01412c33a9cd3983ca0f6fa [FaultTracer] Extracted changes: 0 0 1 0 0 0 0 0 0 0 0 0 0 0 0 1 0 0 0 0 0 0 0 0 0 0 0 1
089fadf087283d02bb33ee2a8cd5a39ea833839a [FaultTracer] Extracted changes: 0 0 0 0 0 0 0 0 0 0 0 0 0 0 0 0 0 0 0 0 0 0 0 0 0 0 0 0
49786cdbabb8f810f726356b633564357202df4f [FaultTracer] Extracted changes: 0 0 0 0 0 0 0 0 0 0 0 0 0 0 0 0 0 0 0 0 0 0 0 0 0 0 0 0
7f037f7f4a04722e96c0483d4649f5684d3d4b8a [FaultTracer] Extracted changes: 0 0 0 0 0 0 0 0 0 0 0 0 0 0 0 0 0 0 0 0 0 0 0 0 0 0 0 0
e7df2c540c10a4013ba7be173858077fd32f1563 [FaultTracer] Extracted changes: 0 0 0 0 0 0 0 0 0 0 0 0 0 0 0 0 0 0 0 0 0 0 0 0 0 0 0 0
