[INFO] Scanning for projects...
[INFO]                                                                         
[INFO] ------------------------------------------------------------------------
[INFO] Building Compile Testing 1.0-SNAPSHOT
[INFO] ------------------------------------------------------------------------
[INFO] 
[INFO] --- maven-enforcer-plugin:1.0:enforce (enforce-maven) @ compile-testing ---
[INFO] 
[INFO] --- maven-resources-plugin:2.6:resources (default-resources) @ compile-testing ---
[INFO] Using 'UTF-8' encoding to copy filtered resources.
[INFO] skip non existing resourceDirectory /home/lingming/hybrid-rts/subjects/compile-testing/ff1a8fab085365c300c50495e471ae2161011187/src/main/resources
[INFO] 
[INFO] --- maven-compiler-plugin:3.1:compile (default-compile) @ compile-testing ---
[INFO] Changes detected - recompiling the module!
[INFO] Compiling 18 source files to /home/lingming/hybrid-rts/subjects/compile-testing/ff1a8fab085365c300c50495e471ae2161011187/target/classes
[WARNING] bootstrap class path not set in conjunction with -source 1.6
[INFO] 
[INFO] --- maven-resources-plugin:2.6:testResources (default-testResources) @ compile-testing ---
[INFO] Using 'UTF-8' encoding to copy filtered resources.
[INFO] Copying 4 resources
[INFO] 
[INFO] --- maven-compiler-plugin:3.1:testCompile (default-testCompile) @ compile-testing ---
[INFO] Nothing to compile - all classes are up to date
[INFO] 
[INFO] --- maven-surefire-plugin:2.12.4:test (default-test) @ compile-testing ---
[INFO] Surefire report directory: /home/lingming/hybrid-rts/subjects/compile-testing/ff1a8fab085365c300c50495e471ae2161011187/target/surefire-reports

-------------------------------------------------------
 T E S T S
-------------------------------------------------------
Running com.google.testing.compile.JavaSourcesSubjectFactoryTest
Tests run: 20, Failures: 0, Errors: 0, Skipped: 0, Time elapsed: 0.935 sec
Running com.google.testing.compile.BreadcrumbsTest
Tests run: 6, Failures: 0, Errors: 0, Skipped: 0, Time elapsed: 0.068 sec
Running com.google.testing.compile.TypeEnumeratorTest
Tests run: 8, Failures: 0, Errors: 0, Skipped: 0, Time elapsed: 0.032 sec
Running com.google.testing.compile.TreeDifferTest
Tests run: 8, Failures: 0, Errors: 0, Skipped: 0, Time elapsed: 0.026 sec
Running com.google.testing.compile.TreeContextTest
Tests run: 4, Failures: 0, Errors: 0, Skipped: 0, Time elapsed: 0.017 sec
Running com.google.testing.compile.TreeDifferenceTest
Tests run: 7, Failures: 0, Errors: 0, Skipped: 0, Time elapsed: 0.033 sec
Running com.google.testing.compile.JarFileResourcesCompilationTest
Tests run: 1, Failures: 0, Errors: 0, Skipped: 0, Time elapsed: 0.047 sec
Running com.google.testing.compile.CompilationRuleTest
Tests run: 5, Failures: 0, Errors: 0, Skipped: 0, Time elapsed: 0.074 sec
Running com.google.testing.compile.JavaFileObjectsTest
Tests run: 2, Failures: 0, Errors: 0, Skipped: 0, Time elapsed: 0.001 sec

Results :

Tests run: 61, Failures: 0, Errors: 0, Skipped: 0

[INFO] ------------------------------------------------------------------------
[INFO] BUILD SUCCESS
[INFO] ------------------------------------------------------------------------
[INFO] Total time: 3.332 s
[INFO] Finished at: 2017-01-01T00:06:03-06:00
[INFO] Final Memory: 28M/1544M
[INFO] ------------------------------------------------------------------------
