fd3442ab44559b8625bc21f12a2d00f22b40466a
8846fa165214529c486143df5fe0dc4dafdcc1ef
1976cc805401d57fb78bc5eb0ba15bb89d3c06fa
7fb4bc03397e664a8617de60cd0c2afbbbc24340
3368cfe701e52d7ba6285bbdc9668bf9f401452f
600d71500c947679b0fe9498040e119fd508a281
3c1eef4a17853366892e546aab2bdda11262d3e6
0e4b9c51dec7d6b1f7d15a2f0cd2c8be6279e22c
73691605a359b1e28a09a95d19e9b0432179161c
6a6c8eb90978195d1584eef421c38145c5aed231
e844f4018b6985d5af892efa381e111499130428
de9bd6843e8ec74b6b3ac7b6b21b3b788c98570a
c2764e78545035970e707f6df0ac3f82dfd358fd
3aa3cbc80a3e9375d6d65526f9b3ac001b01de64
11bb10780031ad12937012bc73cb28c50c651a75
2db8d70dd4560ad60bf57e5390d929d6d86728bc
a60f45b74b2e5ee64b31e69dd4d9a392091f1454
59063b18b0632af78727ce3c29e29118e8042867
e5c26563183db9a4896250d4a731b858934a4e08
d1d5641652ba2a7614ddceefadce0f984d00c72e
f1b1cd398cc5a4b5789fb9bfdf17f275f4e99aaf
7577486002c89c74d0af432b6f9139bbaf7e40cc
b89ff9026fad73af1e72533c001eb2b523344e7b
bc58597b785b78fdf227fa8939677caf0f891e2b
35b0e75abed06ee40fdf8e2c9a3768012453d73b
896b4c2a49080429aa4845f84bb62542461df886
230e320baf3121edbec6f619943c120a969d3b80
785966f5b75dddf6297ece0a0815995be5632897
a668f7c7521e0d7467d993ae88d483af9927d6d5
d539764d7ebb26edc5080a2ecd642d483bcb6030
70ca11ada34aa2f0c9891fbb26fb0ed8e979999a
f64979d7e2551146157d08aa97b147bbe15e0271
d21bdb828dd24f559ed9938b9f43f62a48506a5f
1e63b67087313db79b6176f3ff47f65380a67c2b
b234d3fb9bd0c3015e267b7b3d20da50ce665245
d20db5547ca225cb7ebad5a45d6aeb2e764f515b
ece7d577e35bb06435e75251deb6779e93847b2e
8d65478a5ebf9879580724cc30a77e58b25dbdd9
879c245c3a9414b6934451f83da86d3512512cb1
88c650b03496481fb58a18f2a1abe5bb7a5faacd
f36234ecf3366ecde0d7757ce083fe95dbd153fc
8ff6dffb786fcf5525686492bc4cd68c3e13350f
48a32437a9c4ccb6ad2e7f32b19eb9e26062071f
f69ed056139984e2c85e5f6667f021039b544d04
5e69f008fd85d35476018699c4558c3f05e23ece
eae4675d5f9aa7e5b48782407e00298fa115cfc3
64d6fa8fbab79a65e0a17aaabc41e2def393185c
ba2cd70051a3c6b8a8f9119ad6ca56a3a43a7ac6
62cd133f742a2fb925ef1a02b2ef25358d8d97ab
d24b650c05fd27924c320221d14ea5abedb8dc40
8831430880c9ed7b316955166191215150683dbd
db534bb189700fd20a81c16f2b60b8054bf51135
c2a03c1c59fde7b35c3900eaaf0c9cfd56faa3ec
e81750f85d8c090c09cd06efb22b424829809a8f
e63fe60a1ac4c4105a1227a78ecf6af9d836a156
c4c684b2cc2533f17f0a670caf8de960caecdd9d
649e48d2b6d0ad6379bc28709d91617b8caf83b5
5b8af9dcc136b974bcbff1feb9134e6183bd2d6d
8347a6d42021cd1134df4c1ba7208663c5f2ef1a
00b0873f8e2789d85a2c33ff89877dd019619920
57f78240d23f4934f89afed00dca6b7394b6220a
20e3bbce31a4fb01f1ff137311d22274e5550fbc
8e724f07ad1e1610b8b32993d3e5f78507cf3a7f
9d23cbd8cdca6206c5c4eddd77b2a65540035dbc
3dc99873ae614372e157f82c76bdd743c75f9203
c35f3ee8314a1bdb5dc7dcf085ae481141c3adb2
9c59df375fcd1999ab625353bd5361ab65dc9bfc
c8814bac220ae604a69af8c5ce751d59a0fa63b4
116bb5c31eedf154a0718e4d8c6a41b411481f54
c3ad6eda63b2b9512a4efdc6ef5800ae9989d95f
e38833e60231f0eb18900ce5396c3439f974d1e2
ea7188752f8e10ec05bb5ace93740c93f02d06a1
59821c188c182cc96fb2cf6a11ca6325eb161122
fa3a1e9dc1fd46cbfa01a9eafeda2d7dfb861abd
c967c7210398572e6a3492590e73173390617dd4
7cbe1e010133ccbfca8985e06ec753a81858e63f
86606faa57ded03b5ef0a601a0f1c676ead346f3
5f425b218475e0f33f215e2361960c32d87c8fa8
4a2fde8f0d201864db7ac119249f1e8c521ec677
b3d3de3fd4bc9a012fbe946f34b58cbc88115f42
e71e9f880fb2039c6bbca9da08f297857abc2247
e3fe758711d6087b29f20af3a2c60d68fae3cad0
7e2d53d0eea67781d217fbe20cef15279cc8bd4c
6db81da9784a72f31765a2f7cb8c4797d7807dc9
ce4166a499520d9986c45070382c4a0407e21197
d960d2b228246a5aa2033ba3aee1cfe3af2e6fa8
e09a8b2477f0285eaea0dc58690c3ec63675967e
479b9ef653d3a2bd6633d2a55ae8b2c705bb310c
24eea5f61531ce21eed1637d25b0bc60d4dd8d9e
c418ab1fd49b2e735347d23ada2a91df14ab61fb
d55e3e5036c4280a34a898b9c069b26b783ea0c2
6fdb57766bdf76a428202ef1da50e4923a18e0ce
818e6d7a3c0ddd104bedc6d78bff9431f72c655d
b59f488b683b38726e8190ea0dfd9b2e6895a593
87109141e68ef2135b0068be2d3542bff9c5f706
8b05f6e38747d98084b1479ecd5bde4432a82644
e532e7852a424bb679f593b010a2ea90b3c3f051
bf60d4f87c3262d88e7454e565f7a3edf9666ab2
bce738d8236e720a6904a0fbd247f6d80154fcde
004d2fdde601351f36333571361f718a5c4048e8
