3eed2ac177f8e6ff1b5a78598341365533fdebd7 [FaultTracer] Extracted changes: 0 0 0 0 0 0 0 0 0 0 0 0 0 0 0 0 0 0 0 0 0 0 0 0 0 0 0 0
82bc4f17159f946605a843e6050e7d7dc7121000 [FaultTracer] Extracted changes: 0 28 1 0 0 0 0 0 0 0 0 0 0 0 0 1 0 0 0 0 0 0 0 0 0 0 0 1
c3529b7a4db1f2de91c8b69cf4a3e062aa1c194d [FaultTracer] Extracted changes: 0 0 2 0 0 0 0 1 0 2 0 0 0 0 0 0 0 0 0 1 0 2 0 0 0 0 0 0
4b2f49a7d711ce307771c41539e0fb8e2de13777 [FaultTracer] Extracted changes: 0 0 0 0 0 0 0 0 0 0 0 0 0 0 0 0 0 0 0 0 0 0 0 0 0 0 0 0
42cf666a8f72dd227b56618e3a2e42553d52c03d [FaultTracer] Extracted changes: 0 0 2 2 0 0 0 0 0 0 0 0 0 0 0 0 0 0 0 0 0 0 0 0 0 0 0 0
238004b51301eb34745e718dd1bdf36867186cb0 [FaultTracer] Extracted changes: 5 31 16 3 0 0 0 0 0 0 0 0 0 0 13 0 0 0 0 0 0 0 0 0 0 0 13 0
b6500e35590e7c79078ab9a7483e6d5a7d3f2575 [FaultTracer] Extracted changes: 0 0 0 0 0 0 0 0 0 0 0 0 0 0 0 0 0 0 0 0 0 0 0 0 0 0 0 0
865c736b21bde536b15c3c0cf40c7227b722382d [FaultTracer] Extracted changes: 0 0 0 0 0 0 0 0 0 0 0 0 0 0 0 0 0 0 0 0 0 0 0 0 0 0 0 0
a501f5925d20d3fc0c71fa4ff75e29308427f7ab [FaultTracer] Extracted changes: 0 0 0 0 0 0 0 0 0 0 0 0 0 0 0 0 0 0 0 0 0 0 0 0 0 0 0 0
6493e22e8581e94dd441887356f0d71815adbb73 [FaultTracer] Extracted changes: 0 0 0 0 0 0 0 0 0 0 0 0 0 0 0 0 0 0 0 0 0 0 0 0 0 0 0 0
ec976a837efc1f62f459003a441997a78ef42f8f [FaultTracer] Extracted changes: 0 0 0 0 0 0 0 0 0 0 0 0 0 0 0 0 0 0 0 0 0 0 0 0 0 0 0 0
c141d57e85b72556aec9c66cd2494b76e430b5a0 [FaultTracer] Extracted changes: 0 0 1 0 0 0 0 0 0 0 0 0 0 3 0 0 0 0 0 0 0 0 0 0 0 1 0 0
940e9044b2fb242587a6ed71f7a0532194ea122c [FaultTracer] Extracted changes: 0 0 0 0 0 0 0 0 0 0 0 0 0 0 0 0 0 0 0 0 0 0 0 0 0 0 0 0
41b288bc56ba2797037abd57c55125fe0c7bfb68 [FaultTracer] Extracted changes: 5 3 19 14 0 0 0 0 0 0 0 0 0 0 0 5 0 0 0 0 0 0 0 0 0 0 0 5
fbc0dc7d81d8b4d3c448155c5907e06d996d9d58 [FaultTracer] Extracted changes: 0 0 2 0 0 0 0 0 0 0 0 0 0 0 1 2 0 0 0 0 0 0 0 0 0 0 1 2
f72ca72b68487ad6e9eb9245cc24ff987269bcd1 [FaultTracer] Extracted changes: 0 0 0 0 0 0 0 0 0 0 0 0 0 0 0 0 0 0 0 0 0 0 0 0 0 0 0 0
1f542507605b6b456fb7917ef5fad42147e8d345 [FaultTracer] Extracted changes: 0 0 81 46 0 0 0 1 1 1 4 4 0 14 13 13 0 0 0 1 1 1 2 2 0 10 10 10
22ec28d8aabe5dcdf9f4723f573395822611f6b5 [FaultTracer] Extracted changes: 0 0 0 0 0 0 0 0 0 0 0 0 0 0 0 0 0 0 0 0 0 0 0 0 0 0 0 0
ca1f84fffc5e9d9f11b0c14c541a15abe50041d0 [FaultTracer] Extracted changes: 0 0 18 1 0 0 0 0 0 2 0 0 0 1 0 11 0 0 0 0 0 2 0 0 0 1 0 10
d6d66583417c308dcc0b3fddc3ea7dcb5857f3fc [FaultTracer] Extracted changes: 0 0 8 0 0 0 0 0 0 0 0 0 0 0 2 8 0 0 0 0 0 0 0 0 0 0 2 8
bd28b84d2c5d1726de71f597eb99e11b5919a00e [FaultTracer] Extracted changes: 0 3 5 4 0 0 0 0 0 0 0 0 0 0 1 9 0 0 0 0 0 0 0 0 0 0 1 1
5f56cca4140147933b592e9f3caea5d5568d73e0 [FaultTracer] Extracted changes: 0 0 11 0 0 0 1 0 0 0 0 0 0 0 6 4 0 0 1 0 0 0 0 0 0 0 6 4
b621992b1e61739160c89c7ab11bf1756fc08b6b [FaultTracer] Extracted changes: 0 0 2 0 0 0 0 0 0 1 0 0 0 0 1 0 0 0 0 0 0 1 0 0 0 0 1 0
55c1ca3bc436eac60b05e4f67ed347d77287cd7d [FaultTracer] Extracted changes: 0 0 2 0 0 0 0 0 0 0 0 0 0 0 2 0 0 0 0 0 0 0 0 0 0 0 2 0
bca4aae6fb9ad11d81eac32f5aeaa0498c79f65c [FaultTracer] Extracted changes: 0 0 1 0 0 0 0 0 0 0 0 0 0 0 1 1 0 0 0 0 0 0 0 0 0 0 1 1
5e3058ffab5bef33ae29dac9f0373630b7f5298f [FaultTracer] Extracted changes: 0 0 8 0 0 0 0 0 0 0 0 0 0 0 0 8 0 0 0 0 0 0 0 0 0 0 0 8
7c6396481bf2f0c12e83614a28205fbcfc00ac32 [FaultTracer] Extracted changes: 0 21 57 1 0 0 0 0 0 6 0 0 0 2 5 69 0 0 0 0 0 6 0 0 0 2 4 50
81a3930cf266deb0d4cc8da4ef592dec71b0bac6 [FaultTracer] Extracted changes: 6 0 25 16 0 0 0 0 0 0 0 0 0 0 1 8 0 0 0 0 0 0 0 0 0 0 1 8
68a0ec6870f5a43ad124d2107c88fb3ae96bfe15 [FaultTracer] Extracted changes: 0 1 66 1 0 0 0 0 0 1 0 0 0 0 0 102 0 0 0 0 0 1 0 0 0 0 0 65
b7a027ec5ebc318444d7d4e06ec12a7326677b18 [FaultTracer] Extracted changes: 0 0 0 0 0 0 0 0 0 0 0 0 0 0 0 0 0 0 0 0 0 0 0 0 0 0 0 0
afc359684aede267a68495b856648e4990746b46 [FaultTracer] Extracted changes: 0 0 0 0 0 0 0 0 0 0 0 0 0 0 0 0 0 0 0 0 0 0 0 0 0 0 0 0
4c10e2222311f0a7a349e20930b54b8e8a3da8c0 [FaultTracer] Extracted changes: 0 0 0 0 0 0 0 0 0 0 0 0 0 0 0 0 0 0 0 0 0 0 0 0 0 0 0 0
2757402e078d22207cb7e5cbf1f4c24309070c64 [FaultTracer] Extracted changes: 0 0 0 0 0 0 0 0 0 0 0 0 0 0 0 0 0 0 0 0 0 0 0 0 0 0 0 0
3cd298ecda51ca3ecd79ac5c038e6cbdc1c1a48d [FaultTracer] Extracted changes: 0 0 3 0 0 0 0 0 0 0 0 0 0 0 0 1 0 0 0 0 0 0 0 0 0 0 0 1
049e4fbdd987a405f2fcc1b97e6c7903db068965 [FaultTracer] Extracted changes: 0 0 1 0 0 0 0 0 0 0 0 0 0 0 0 1 0 0 0 0 0 0 0 0 0 0 0 1
7edc73183bc407fcb8f4a9a464908fa533020239 [FaultTracer] Extracted changes: 0 0 0 0 0 0 0 0 0 0 0 0 0 0 0 0 0 0 0 0 0 0 0 0 0 0 0 0
ff42784f1fb066be1530ca115756f10ced3742e4 [FaultTracer] Extracted changes: 0 0 6 1 0 0 0 0 0 0 0 0 0 0 0 4 0 0 0 0 0 0 0 0 0 0 0 4
beb776ee9a7dc8fd2ecec0e648c0b666b50b62ef [FaultTracer] Extracted changes: 0 0 0 0 0 0 0 0 0 0 0 0 0 0 0 0 0 0 0 0 0 0 0 0 0 0 0 0
c70b419bdeb0284d5992d267e81c2a0bcb741dd9 [FaultTracer] Extracted changes: 0 0 0 0 0 0 0 0 0 0 0 0 0 0 0 0 0 0 0 0 0 0 0 0 0 0 0 0
