[INFO] Scanning for projects...
[INFO]                                                                         
[INFO] ------------------------------------------------------------------------
[INFO] Building Apache Commons DBCP 2.2-SNAPSHOT
[INFO] ------------------------------------------------------------------------
[INFO] 
[INFO] --- maven-enforcer-plugin:1.3.1:enforce (enforce-maven-3) @ commons-dbcp2 ---
[INFO] 
[INFO] --- build-helper-maven-plugin:1.9.1:parse-version (parse-version) @ commons-dbcp2 ---
[INFO] 
[INFO] --- maven-antrun-plugin:1.8:run (javadoc.resources) @ commons-dbcp2 ---
[INFO] Executing tasks

main:
[INFO] Executed tasks
[INFO] 
[INFO] --- maven-remote-resources-plugin:1.5:process (default) @ commons-dbcp2 ---
[INFO] 
[INFO] --- buildnumber-maven-plugin:1.3:create (default) @ commons-dbcp2 ---
[INFO] Executing: /bin/sh -c cd /home/lingming/hybrid-rts/subjects/commons-dbcp/400df09affd7b138823d0438d1118579f014c167 && svn --non-interactive info
[INFO] Working directory: /home/lingming/hybrid-rts/subjects/commons-dbcp/400df09affd7b138823d0438d1118579f014c167
[INFO] Storing buildNumber: ?????? at timestamp: 1483359652390
[INFO] Executing: /bin/sh -c cd /home/lingming/hybrid-rts/subjects/commons-dbcp/400df09affd7b138823d0438d1118579f014c167 && svn --non-interactive info
[INFO] Working directory: /home/lingming/hybrid-rts/subjects/commons-dbcp/400df09affd7b138823d0438d1118579f014c167
[INFO] Storing buildScmBranch: UNKNOWN_BRANCH
[INFO] 
[INFO] --- maven-resources-plugin:2.7:resources (default-resources) @ commons-dbcp2 ---
[INFO] Using 'UTF-8' encoding to copy filtered resources.
[INFO] Copying 1 resource
[INFO] Copying 2 resources to META-INF
[INFO] 
[INFO] --- maven-compiler-plugin:3.3:compile (default-compile) @ commons-dbcp2 ---
[INFO] Changes detected - recompiling the module!
[INFO] Compiling 58 source files to /home/lingming/hybrid-rts/subjects/commons-dbcp/400df09affd7b138823d0438d1118579f014c167/target/classes
[INFO] 
[INFO] --- maven-bundle-plugin:2.5.3:manifest (bundle-manifest) @ commons-dbcp2 ---
[INFO] 
[INFO] --- animal-sniffer-maven-plugin:1.14:check (checkAPIcompatibility) @ commons-dbcp2 ---
[INFO] Checking unresolved references to org.codehaus.mojo.signature:java17:1.0
[INFO] 
[INFO] --- maven-resources-plugin:2.7:testResources (default-testResources) @ commons-dbcp2 ---
[INFO] Using 'UTF-8' encoding to copy filtered resources.
[INFO] skip non existing resourceDirectory /home/lingming/hybrid-rts/subjects/commons-dbcp/400df09affd7b138823d0438d1118579f014c167/src/test/resources
[INFO] Copying 2 resources to META-INF
[INFO] 
[INFO] --- maven-compiler-plugin:3.3:testCompile (default-testCompile) @ commons-dbcp2 ---
[INFO] Nothing to compile - all classes are up to date
[INFO] 
[INFO] --- jacoco-maven-plugin:0.7.4.201502262128:prepare-agent (prepare-agent) @ commons-dbcp2 ---
[INFO] argLine set to -javaagent:/home/lingming/.m2/repository/org/jacoco/org.jacoco.agent/0.7.4.201502262128/org.jacoco.agent-0.7.4.201502262128-runtime.jar=destfile=/home/lingming/hybrid-rts/subjects/commons-dbcp/400df09affd7b138823d0438d1118579f014c167/target/jacoco.exec
[INFO] 
[INFO] --- maven-surefire-plugin:2.18.1:test (default-test) @ commons-dbcp2 ---
[INFO] Surefire report directory: /home/lingming/hybrid-rts/subjects/commons-dbcp/400df09affd7b138823d0438d1118579f014c167/target/surefire-reports

-------------------------------------------------------
 T E S T S
-------------------------------------------------------
Running org.apache.commons.dbcp2.TestDriverManagerConnectionFactory
Tests run: 3, Failures: 0, Errors: 0, Skipped: 0, Time elapsed: 0.284 sec - in org.apache.commons.dbcp2.TestDriverManagerConnectionFactory
testDriverManagerInitWithCredentials(org.apache.commons.dbcp2.TestDriverManagerConnectionFactory)  Time elapsed: 0.179 sec
testDriverManagerInitWithEmptyProperties(org.apache.commons.dbcp2.TestDriverManagerConnectionFactory)  Time elapsed: 0 sec
testDriverManagerInitWithProperties(org.apache.commons.dbcp2.TestDriverManagerConnectionFactory)  Time elapsed: 0.102 sec
Running org.apache.commons.dbcp2.TestDelegatingDatabaseMetaData
Tests run: 2, Failures: 0, Errors: 0, Skipped: 0, Time elapsed: 0 sec - in org.apache.commons.dbcp2.TestDelegatingDatabaseMetaData
testGetDelegate(org.apache.commons.dbcp2.TestDelegatingDatabaseMetaData)  Time elapsed: 0 sec
testCheckOpen(org.apache.commons.dbcp2.TestDelegatingDatabaseMetaData)  Time elapsed: 0 sec
Running org.apache.commons.dbcp2.TestBasicDataSource
Tests run: 55, Failures: 0, Errors: 0, Skipped: 0, Time elapsed: 5.709 sec - in org.apache.commons.dbcp2.TestBasicDataSource
testEmptyValidationQuery(org.apache.commons.dbcp2.TestBasicDataSource)  Time elapsed: 0 sec
testValidationQueryTimoutFail(org.apache.commons.dbcp2.TestBasicDataSource)  Time elapsed: 0.003 sec
testConcurrentInvalidateBorrow(org.apache.commons.dbcp2.TestBasicDataSource)  Time elapsed: 0.147 sec
testSetValidationTestProperties(org.apache.commons.dbcp2.TestBasicDataSource)  Time elapsed: 0 sec
testRollbackReadOnly(org.apache.commons.dbcp2.TestBasicDataSource)  Time elapsed: 0.001 sec
testClose(org.apache.commons.dbcp2.TestBasicDataSource)  Time elapsed: 0.002 sec
testPropertyTestOnReturn(org.apache.commons.dbcp2.TestBasicDataSource)  Time elapsed: 0.001 sec
testValidationQueryTimeoutSucceed(org.apache.commons.dbcp2.TestBasicDataSource)  Time elapsed: 0.001 sec
testMaxTotalZero(org.apache.commons.dbcp2.TestBasicDataSource)  Time elapsed: 0.102 sec
testPooling(org.apache.commons.dbcp2.TestBasicDataSource)  Time elapsed: 0.006 sec
testMaxConnLifetimeExceeded(org.apache.commons.dbcp2.TestBasicDataSource)  Time elapsed: 0.517 sec
testValidationQueryTimeoutNegative(org.apache.commons.dbcp2.TestBasicDataSource)  Time elapsed: 0.001 sec
testPoolCloseRTE(org.apache.commons.dbcp2.TestBasicDataSource)  Time elapsed: 0.001 sec
testInvalidConnectionInitSql(org.apache.commons.dbcp2.TestBasicDataSource)  Time elapsed: 0 sec
testSetAutoCommitTrueOnClose(org.apache.commons.dbcp2.TestBasicDataSource)  Time elapsed: 0.001 sec
testConcurrentInitBorrow(org.apache.commons.dbcp2.TestBasicDataSource)  Time elapsed: 0.455 sec
testValidationQueryTimeoutZero(org.apache.commons.dbcp2.TestBasicDataSource)  Time elapsed: 0.002 sec
testMaxConnLifetimeExceededMutedLog(org.apache.commons.dbcp2.TestBasicDataSource)  Time elapsed: 0.502 sec
testEmptyInitConnectionSql(org.apache.commons.dbcp2.TestBasicDataSource)  Time elapsed: 0 sec
testDriverClassLoader(org.apache.commons.dbcp2.TestBasicDataSource)  Time elapsed: 0.001 sec
testJmxDisabled(org.apache.commons.dbcp2.TestBasicDataSource)  Time elapsed: 0.013 sec
testInitialSize(org.apache.commons.dbcp2.TestBasicDataSource)  Time elapsed: 0.001 sec
testInvalidValidationQuery(org.apache.commons.dbcp2.TestBasicDataSource)  Time elapsed: 0.001 sec
testNoAccessToUnderlyingConnectionAllowed(org.apache.commons.dbcp2.TestBasicDataSource)  Time elapsed: 0 sec
testPoolCloseCheckedException(org.apache.commons.dbcp2.TestBasicDataSource)  Time elapsed: 0.001 sec
testCreateDataSourceCleanupEvictor(org.apache.commons.dbcp2.TestBasicDataSource)  Time elapsed: 1.001 sec
testTransactionIsolationBehavior(org.apache.commons.dbcp2.TestBasicDataSource)  Time elapsed: 0.002 sec
testCreateDataSourceCleanupThreads(org.apache.commons.dbcp2.TestBasicDataSource)  Time elapsed: 0.002 sec
testDefaultCatalog(org.apache.commons.dbcp2.TestBasicDataSource)  Time elapsed: 0.003 sec
testAccessToUnderlyingConnectionAllowed(org.apache.commons.dbcp2.TestBasicDataSource)  Time elapsed: 0.001 sec
testInvalidateConnection(org.apache.commons.dbcp2.TestBasicDataSource)  Time elapsed: 0.003 sec
testSetProperties(org.apache.commons.dbcp2.TestBasicDataSource)  Time elapsed: 0.001 sec
testDisconnectSqlCodes(org.apache.commons.dbcp2.TestBasicDataSource)  Time elapsed: 0.001 sec
testIsClosedFailure(org.apache.commons.dbcp2.TestBasicDataSource)  Time elapsed: 0.001 sec
testThreaded(org.apache.commons.dbcp2.TestBasicDataSource)  Time elapsed: 2.805 sec
testCanCloseStatementTwice(org.apache.commons.dbcp2.TestBasicDataSource)  Time elapsed: 0.002 sec
testNoRsetClose(org.apache.commons.dbcp2.TestBasicDataSource)  Time elapsed: 0.002 sec
testOpening(org.apache.commons.dbcp2.TestBasicDataSource)  Time elapsed: 0.001 sec
testCanCloseConnectionTwice(org.apache.commons.dbcp2.TestBasicDataSource)  Time elapsed: 0 sec
testIsClosed(org.apache.commons.dbcp2.TestBasicDataSource)  Time elapsed: 0.001 sec
testCanCloseCallableStatementTwice(org.apache.commons.dbcp2.TestBasicDataSource)  Time elapsed: 0.004 sec
testAutoCommitBehavior(org.apache.commons.dbcp2.TestBasicDataSource)  Time elapsed: 0.001 sec
testHashing(org.apache.commons.dbcp2.TestBasicDataSource)  Time elapsed: 0 sec
testCanClosePreparedStatementTwice(org.apache.commons.dbcp2.TestBasicDataSource)  Time elapsed: 0.001 sec
testClosing(org.apache.commons.dbcp2.TestBasicDataSource)  Time elapsed: 0.001 sec
testPrepareStatementOptions(org.apache.commons.dbcp2.TestBasicDataSource)  Time elapsed: 0.001 sec
testBackPointers(org.apache.commons.dbcp2.TestBasicDataSource)  Time elapsed: 0.002 sec
testHashCode(org.apache.commons.dbcp2.TestBasicDataSource)  Time elapsed: 0.001 sec
testConnectionsAreDistinct(org.apache.commons.dbcp2.TestBasicDataSource)  Time elapsed: 0.001 sec
testMaxTotal(org.apache.commons.dbcp2.TestBasicDataSource)  Time elapsed: 0.101 sec
testRepeatedBorrowAndReturn(org.apache.commons.dbcp2.TestBasicDataSource)  Time elapsed: 0.005 sec
testCanCloseResultSetTwice(org.apache.commons.dbcp2.TestBasicDataSource)  Time elapsed: 0 sec
testClearWarnings(org.apache.commons.dbcp2.TestBasicDataSource)  Time elapsed: 0.002 sec
testSimple2(org.apache.commons.dbcp2.TestBasicDataSource)  Time elapsed: 0.001 sec
testSimple(org.apache.commons.dbcp2.TestBasicDataSource)  Time elapsed: 0 sec
Running org.apache.commons.dbcp2.TestAbandonedBasicDataSource
Tests run: 64, Failures: 0, Errors: 0, Skipped: 0, Time elapsed: 13.573 sec - in org.apache.commons.dbcp2.TestAbandonedBasicDataSource
testAbandonedCloseWithExceptions(org.apache.commons.dbcp2.TestAbandonedBasicDataSource)  Time elapsed: 0.011 sec
testLastUsedPrepareCall(org.apache.commons.dbcp2.TestAbandonedBasicDataSource)  Time elapsed: 2.602 sec
testLastUsed(org.apache.commons.dbcp2.TestAbandonedBasicDataSource)  Time elapsed: 2.602 sec
testAbandoned(org.apache.commons.dbcp2.TestAbandonedBasicDataSource)  Time elapsed: 0.004 sec
testGarbageCollectorCleanUp01(org.apache.commons.dbcp2.TestAbandonedBasicDataSource)  Time elapsed: 0.027 sec
testGarbageCollectorCleanUp02(org.apache.commons.dbcp2.TestAbandonedBasicDataSource)  Time elapsed: 0.129 sec
testLastUsedUpdate(org.apache.commons.dbcp2.TestAbandonedBasicDataSource)  Time elapsed: 0.001 sec
testAbandonedClose(org.apache.commons.dbcp2.TestAbandonedBasicDataSource)  Time elapsed: 0.001 sec
testLastUsedPreparedStatementUse(org.apache.commons.dbcp2.TestAbandonedBasicDataSource)  Time elapsed: 2.602 sec
testEmptyValidationQuery(org.apache.commons.dbcp2.TestAbandonedBasicDataSource)  Time elapsed: 0 sec
testValidationQueryTimoutFail(org.apache.commons.dbcp2.TestAbandonedBasicDataSource)  Time elapsed: 0 sec
testConcurrentInvalidateBorrow(org.apache.commons.dbcp2.TestAbandonedBasicDataSource)  Time elapsed: 0.073 sec
testSetValidationTestProperties(org.apache.commons.dbcp2.TestAbandonedBasicDataSource)  Time elapsed: 0 sec
testRollbackReadOnly(org.apache.commons.dbcp2.TestAbandonedBasicDataSource)  Time elapsed: 0 sec
testClose(org.apache.commons.dbcp2.TestAbandonedBasicDataSource)  Time elapsed: 0.001 sec
testPropertyTestOnReturn(org.apache.commons.dbcp2.TestAbandonedBasicDataSource)  Time elapsed: 0.001 sec
testValidationQueryTimeoutSucceed(org.apache.commons.dbcp2.TestAbandonedBasicDataSource)  Time elapsed: 0.001 sec
testMaxTotalZero(org.apache.commons.dbcp2.TestAbandonedBasicDataSource)  Time elapsed: 0.101 sec
testPooling(org.apache.commons.dbcp2.TestAbandonedBasicDataSource)  Time elapsed: 0.002 sec
testMaxConnLifetimeExceeded(org.apache.commons.dbcp2.TestAbandonedBasicDataSource)  Time elapsed: 0.501 sec
testValidationQueryTimeoutNegative(org.apache.commons.dbcp2.TestAbandonedBasicDataSource)  Time elapsed: 0.001 sec
testPoolCloseRTE(org.apache.commons.dbcp2.TestAbandonedBasicDataSource)  Time elapsed: 0.001 sec
testInvalidConnectionInitSql(org.apache.commons.dbcp2.TestAbandonedBasicDataSource)  Time elapsed: 0 sec
testSetAutoCommitTrueOnClose(org.apache.commons.dbcp2.TestAbandonedBasicDataSource)  Time elapsed: 0.001 sec
testConcurrentInitBorrow(org.apache.commons.dbcp2.TestAbandonedBasicDataSource)  Time elapsed: 0.453 sec
testValidationQueryTimeoutZero(org.apache.commons.dbcp2.TestAbandonedBasicDataSource)  Time elapsed: 0 sec
testMaxConnLifetimeExceededMutedLog(org.apache.commons.dbcp2.TestAbandonedBasicDataSource)  Time elapsed: 0.501 sec
testEmptyInitConnectionSql(org.apache.commons.dbcp2.TestAbandonedBasicDataSource)  Time elapsed: 0 sec
testDriverClassLoader(org.apache.commons.dbcp2.TestAbandonedBasicDataSource)  Time elapsed: 0 sec
testJmxDisabled(org.apache.commons.dbcp2.TestAbandonedBasicDataSource)  Time elapsed: 0 sec
testInitialSize(org.apache.commons.dbcp2.TestAbandonedBasicDataSource)  Time elapsed: 0.001 sec
testInvalidValidationQuery(org.apache.commons.dbcp2.TestAbandonedBasicDataSource)  Time elapsed: 0.001 sec
testNoAccessToUnderlyingConnectionAllowed(org.apache.commons.dbcp2.TestAbandonedBasicDataSource)  Time elapsed: 0.001 sec
testPoolCloseCheckedException(org.apache.commons.dbcp2.TestAbandonedBasicDataSource)  Time elapsed: 0 sec
testCreateDataSourceCleanupEvictor(org.apache.commons.dbcp2.TestAbandonedBasicDataSource)  Time elapsed: 1.002 sec
testTransactionIsolationBehavior(org.apache.commons.dbcp2.TestAbandonedBasicDataSource)  Time elapsed: 0.003 sec
testCreateDataSourceCleanupThreads(org.apache.commons.dbcp2.TestAbandonedBasicDataSource)  Time elapsed: 0.002 sec
testDefaultCatalog(org.apache.commons.dbcp2.TestAbandonedBasicDataSource)  Time elapsed: 0.003 sec
testAccessToUnderlyingConnectionAllowed(org.apache.commons.dbcp2.TestAbandonedBasicDataSource)  Time elapsed: 0.001 sec
testInvalidateConnection(org.apache.commons.dbcp2.TestAbandonedBasicDataSource)  Time elapsed: 0.002 sec
testSetProperties(org.apache.commons.dbcp2.TestAbandonedBasicDataSource)  Time elapsed: 0 sec
testDisconnectSqlCodes(org.apache.commons.dbcp2.TestAbandonedBasicDataSource)  Time elapsed: 0.001 sec
testIsClosedFailure(org.apache.commons.dbcp2.TestAbandonedBasicDataSource)  Time elapsed: 0 sec
testThreaded(org.apache.commons.dbcp2.TestAbandonedBasicDataSource)  Time elapsed: 2.804 sec
testCanCloseStatementTwice(org.apache.commons.dbcp2.TestAbandonedBasicDataSource)  Time elapsed: 0.002 sec
testNoRsetClose(org.apache.commons.dbcp2.TestAbandonedBasicDataSource)  Time elapsed: 0.001 sec
testOpening(org.apache.commons.dbcp2.TestAbandonedBasicDataSource)  Time elapsed: 0.003 sec
testCanCloseConnectionTwice(org.apache.commons.dbcp2.TestAbandonedBasicDataSource)  Time elapsed: 0 sec
testIsClosed(org.apache.commons.dbcp2.TestAbandonedBasicDataSource)  Time elapsed: 0.001 sec
testCanCloseCallableStatementTwice(org.apache.commons.dbcp2.TestAbandonedBasicDataSource)  Time elapsed: 0.001 sec
testAutoCommitBehavior(org.apache.commons.dbcp2.TestAbandonedBasicDataSource)  Time elapsed: 0.002 sec
testHashing(org.apache.commons.dbcp2.TestAbandonedBasicDataSource)  Time elapsed: 0.001 sec
testCanClosePreparedStatementTwice(org.apache.commons.dbcp2.TestAbandonedBasicDataSource)  Time elapsed: 0.001 sec
testClosing(org.apache.commons.dbcp2.TestAbandonedBasicDataSource)  Time elapsed: 0.002 sec
testPrepareStatementOptions(org.apache.commons.dbcp2.TestAbandonedBasicDataSource)  Time elapsed: 0 sec
testBackPointers(org.apache.commons.dbcp2.TestAbandonedBasicDataSource)  Time elapsed: 0.001 sec
testHashCode(org.apache.commons.dbcp2.TestAbandonedBasicDataSource)  Time elapsed: 0.001 sec
testConnectionsAreDistinct(org.apache.commons.dbcp2.TestAbandonedBasicDataSource)  Time elapsed: 0.002 sec
testMaxTotal(org.apache.commons.dbcp2.TestAbandonedBasicDataSource)  Time elapsed: 0.101 sec
testRepeatedBorrowAndReturn(org.apache.commons.dbcp2.TestAbandonedBasicDataSource)  Time elapsed: 0.002 sec
testCanCloseResultSetTwice(org.apache.commons.dbcp2.TestAbandonedBasicDataSource)  Time elapsed: 0.002 sec
testClearWarnings(org.apache.commons.dbcp2.TestAbandonedBasicDataSource)  Time elapsed: 0.004 sec
testSimple2(org.apache.commons.dbcp2.TestAbandonedBasicDataSource)  Time elapsed: 0.002 sec
testSimple(org.apache.commons.dbcp2.TestAbandonedBasicDataSource)  Time elapsed: 0.001 sec
Running org.apache.commons.dbcp2.TestDelegatingCallableStatement
Tests run: 3, Failures: 0, Errors: 0, Skipped: 0, Time elapsed: 0.002 sec - in org.apache.commons.dbcp2.TestDelegatingCallableStatement
testGetDelegate(org.apache.commons.dbcp2.TestDelegatingCallableStatement)  Time elapsed: 0.001 sec
testExecuteQueryReturnsNotNull(org.apache.commons.dbcp2.TestDelegatingCallableStatement)  Time elapsed: 0 sec
testExecuteQueryReturnsNull(org.apache.commons.dbcp2.TestDelegatingCallableStatement)  Time elapsed: 0 sec
Running org.apache.commons.dbcp2.TestDelegatingStatement
Tests run: 4, Failures: 0, Errors: 0, Skipped: 0, Time elapsed: 0.003 sec - in org.apache.commons.dbcp2.TestDelegatingStatement
testGetDelegate(org.apache.commons.dbcp2.TestDelegatingStatement)  Time elapsed: 0 sec
testIsWrapperFor(org.apache.commons.dbcp2.TestDelegatingStatement)  Time elapsed: 0.003 sec
testExecuteQueryReturnsNull(org.apache.commons.dbcp2.TestDelegatingStatement)  Time elapsed: 0 sec
testCheckOpen(org.apache.commons.dbcp2.TestDelegatingStatement)  Time elapsed: 0 sec
Running org.apache.commons.dbcp2.TestPoolingDriver
Tests run: 29, Failures: 0, Errors: 0, Skipped: 0, Time elapsed: 2.88 sec - in org.apache.commons.dbcp2.TestPoolingDriver
testLogWriter(org.apache.commons.dbcp2.TestPoolingDriver)  Time elapsed: 0.016 sec
testReportedBug12400(org.apache.commons.dbcp2.TestPoolingDriver)  Time elapsed: 0.004 sec
testReportedBug28912(org.apache.commons.dbcp2.TestPoolingDriver)  Time elapsed: 0.001 sec
test1(org.apache.commons.dbcp2.TestPoolingDriver)  Time elapsed: 0.001 sec
test2(org.apache.commons.dbcp2.TestPoolingDriver)  Time elapsed: 0.001 sec
testClosePool(org.apache.commons.dbcp2.TestPoolingDriver)  Time elapsed: 0.001 sec
testInvalidateConnection(org.apache.commons.dbcp2.TestPoolingDriver)  Time elapsed: 0.001 sec
testThreaded(org.apache.commons.dbcp2.TestPoolingDriver)  Time elapsed: 2.707 sec
testCanCloseStatementTwice(org.apache.commons.dbcp2.TestPoolingDriver)  Time elapsed: 0.003 sec
testNoRsetClose(org.apache.commons.dbcp2.TestPoolingDriver)  Time elapsed: 0.002 sec
testOpening(org.apache.commons.dbcp2.TestPoolingDriver)  Time elapsed: 0.005 sec
testPooling(org.apache.commons.dbcp2.TestPoolingDriver)  Time elapsed: 0.004 sec
testCanCloseConnectionTwice(org.apache.commons.dbcp2.TestPoolingDriver)  Time elapsed: 0.001 sec
testIsClosed(org.apache.commons.dbcp2.TestPoolingDriver)  Time elapsed: 0.002 sec
testCanCloseCallableStatementTwice(org.apache.commons.dbcp2.TestPoolingDriver)  Time elapsed: 0.002 sec
testAutoCommitBehavior(org.apache.commons.dbcp2.TestPoolingDriver)  Time elapsed: 0.002 sec
testHashing(org.apache.commons.dbcp2.TestPoolingDriver)  Time elapsed: 0.001 sec
testCanClosePreparedStatementTwice(org.apache.commons.dbcp2.TestPoolingDriver)  Time elapsed: 0.001 sec
testClosing(org.apache.commons.dbcp2.TestPoolingDriver)  Time elapsed: 0.002 sec
testPrepareStatementOptions(org.apache.commons.dbcp2.TestPoolingDriver)  Time elapsed: 0.001 sec
testBackPointers(org.apache.commons.dbcp2.TestPoolingDriver)  Time elapsed: 0.003 sec
testHashCode(org.apache.commons.dbcp2.TestPoolingDriver)  Time elapsed: 0.001 sec
testConnectionsAreDistinct(org.apache.commons.dbcp2.TestPoolingDriver)  Time elapsed: 0.002 sec
testMaxTotal(org.apache.commons.dbcp2.TestPoolingDriver)  Time elapsed: 0.102 sec
testRepeatedBorrowAndReturn(org.apache.commons.dbcp2.TestPoolingDriver)  Time elapsed: 0.004 sec
testCanCloseResultSetTwice(org.apache.commons.dbcp2.TestPoolingDriver)  Time elapsed: 0.001 sec
testClearWarnings(org.apache.commons.dbcp2.TestPoolingDriver)  Time elapsed: 0.002 sec
testSimple2(org.apache.commons.dbcp2.TestPoolingDriver)  Time elapsed: 0.001 sec
testSimple(org.apache.commons.dbcp2.TestPoolingDriver)  Time elapsed: 0.001 sec
Running org.apache.commons.dbcp2.TestJndi
Tests run: 3, Failures: 0, Errors: 0, Skipped: 0, Time elapsed: 0.015 sec - in org.apache.commons.dbcp2.TestJndi
testBasicDataSourceBind(org.apache.commons.dbcp2.TestJndi)  Time elapsed: 0.01 sec
testPerUserPoolDataSourceBind(org.apache.commons.dbcp2.TestJndi)  Time elapsed: 0.004 sec
testSharedPoolDataSourceBind(org.apache.commons.dbcp2.TestJndi)  Time elapsed: 0.001 sec
Running org.apache.commons.dbcp2.TestPStmtPooling
Tests run: 5, Failures: 0, Errors: 0, Skipped: 0, Time elapsed: 0.004 sec - in org.apache.commons.dbcp2.TestPStmtPooling
testStmtPool(org.apache.commons.dbcp2.TestPStmtPooling)  Time elapsed: 0.001 sec
testBatchUpdate(org.apache.commons.dbcp2.TestPStmtPooling)  Time elapsed: 0.001 sec
testClosePool(org.apache.commons.dbcp2.TestPStmtPooling)  Time elapsed: 0 sec
testCallableStatementPooling(org.apache.commons.dbcp2.TestPStmtPooling)  Time elapsed: 0.001 sec
testMultipleClose(org.apache.commons.dbcp2.TestPStmtPooling)  Time elapsed: 0.001 sec
Running org.apache.commons.dbcp2.cpdsadapter.TestDriverAdapterCPDS
Tests run: 7, Failures: 0, Errors: 0, Skipped: 0, Time elapsed: 5.887 sec - in org.apache.commons.dbcp2.cpdsadapter.TestDriverAdapterCPDS
testNullValidationQuery(org.apache.commons.dbcp2.cpdsadapter.TestDriverAdapterCPDS)  Time elapsed: 0.004 sec
testClosingWithUserName(org.apache.commons.dbcp2.cpdsadapter.TestDriverAdapterCPDS)  Time elapsed: 0 sec
testDbcp367(org.apache.commons.dbcp2.cpdsadapter.TestDriverAdapterCPDS)  Time elapsed: 5.883 sec
testSimpleWithUsername(org.apache.commons.dbcp2.cpdsadapter.TestDriverAdapterCPDS)  Time elapsed: 0 sec
testSetProperties(org.apache.commons.dbcp2.cpdsadapter.TestDriverAdapterCPDS)  Time elapsed: 0 sec
testSimple(org.apache.commons.dbcp2.cpdsadapter.TestDriverAdapterCPDS)  Time elapsed: 0 sec
testIncorrectPassword(org.apache.commons.dbcp2.cpdsadapter.TestDriverAdapterCPDS)  Time elapsed: 0 sec
Running org.apache.commons.dbcp2.TestUtils
Tests run: 1, Failures: 0, Errors: 0, Skipped: 0, Time elapsed: 0 sec - in org.apache.commons.dbcp2.TestUtils
testClassLoads(org.apache.commons.dbcp2.TestUtils)  Time elapsed: 0 sec
Running org.apache.commons.dbcp2.TestDelegatingPreparedStatement
Tests run: 3, Failures: 0, Errors: 0, Skipped: 0, Time elapsed: 0 sec - in org.apache.commons.dbcp2.TestDelegatingPreparedStatement
testGetDelegate(org.apache.commons.dbcp2.TestDelegatingPreparedStatement)  Time elapsed: 0 sec
testExecuteQueryReturnsNotNull(org.apache.commons.dbcp2.TestDelegatingPreparedStatement)  Time elapsed: 0 sec
testExecuteQueryReturnsNull(org.apache.commons.dbcp2.TestDelegatingPreparedStatement)  Time elapsed: 0 sec
Running org.apache.commons.dbcp2.TestBasicDataSourceFactory
Tests run: 4, Failures: 0, Errors: 0, Skipped: 0, Time elapsed: 0.005 sec - in org.apache.commons.dbcp2.TestBasicDataSourceFactory
testProperties(org.apache.commons.dbcp2.TestBasicDataSourceFactory)  Time elapsed: 0.003 sec
testValidateProperties(org.apache.commons.dbcp2.TestBasicDataSourceFactory)  Time elapsed: 0.001 sec
testAllProperties(org.apache.commons.dbcp2.TestBasicDataSourceFactory)  Time elapsed: 0.001 sec
testNoProperties(org.apache.commons.dbcp2.TestBasicDataSourceFactory)  Time elapsed: 0 sec
Running org.apache.commons.dbcp2.managed.TestTransactionContext
Tests run: 1, Failures: 0, Errors: 0, Skipped: 0, Time elapsed: 0.019 sec - in org.apache.commons.dbcp2.managed.TestTransactionContext
testSetSharedConnectionEnlistFailure(org.apache.commons.dbcp2.managed.TestTransactionContext)  Time elapsed: 0.019 sec
Running org.apache.commons.dbcp2.managed.TestManagedConnection
Tests run: 1, Failures: 0, Errors: 0, Skipped: 0, Time elapsed: 0.005 sec - in org.apache.commons.dbcp2.managed.TestManagedConnection
testConnectionReturnOnErrorWhenEnlistingXAResource(org.apache.commons.dbcp2.managed.TestManagedConnection)  Time elapsed: 0.005 sec
Running org.apache.commons.dbcp2.managed.TestManagedDataSource
Tests run: 33, Failures: 0, Errors: 0, Skipped: 0, Time elapsed: 2.727 sec - in org.apache.commons.dbcp2.managed.TestManagedDataSource
testManagedConnectionEqualsSameDelegateNoUnderlyingAccess(org.apache.commons.dbcp2.managed.TestManagedDataSource)  Time elapsed: 0.001 sec
testNestedConnections(org.apache.commons.dbcp2.managed.TestManagedDataSource)  Time elapsed: 0.002 sec
testSharedConnection(org.apache.commons.dbcp2.managed.TestManagedDataSource)  Time elapsed: 0 sec
testManagedConnectionEqualsSameDelegate(org.apache.commons.dbcp2.managed.TestManagedDataSource)  Time elapsed: 0.001 sec
testConnectionReturnOnCommit(org.apache.commons.dbcp2.managed.TestManagedDataSource)  Time elapsed: 0 sec
testManagedConnectionEqualsFail(org.apache.commons.dbcp2.managed.TestManagedDataSource)  Time elapsed: 0 sec
testManagedConnectionEqualsNull(org.apache.commons.dbcp2.managed.TestManagedDataSource)  Time elapsed: 0.001 sec
testManagedConnectionEqualsType(org.apache.commons.dbcp2.managed.TestManagedDataSource)  Time elapsed: 0 sec
testManagedConnectionEqualInnermost(org.apache.commons.dbcp2.managed.TestManagedDataSource)  Time elapsed: 0 sec
testManagedConnectionEqualsReflexive(org.apache.commons.dbcp2.managed.TestManagedDataSource)  Time elapsed: 0.001 sec
testAccessToUnderlyingConnectionAllowed(org.apache.commons.dbcp2.managed.TestManagedDataSource)  Time elapsed: 0 sec
testThreaded(org.apache.commons.dbcp2.managed.TestManagedDataSource)  Time elapsed: 2.607 sec
testCanCloseStatementTwice(org.apache.commons.dbcp2.managed.TestManagedDataSource)  Time elapsed: 0 sec
testNoRsetClose(org.apache.commons.dbcp2.managed.TestManagedDataSource)  Time elapsed: 0 sec
testOpening(org.apache.commons.dbcp2.managed.TestManagedDataSource)  Time elapsed: 0.001 sec
testPooling(org.apache.commons.dbcp2.managed.TestManagedDataSource)  Time elapsed: 0.001 sec
testCanCloseConnectionTwice(org.apache.commons.dbcp2.managed.TestManagedDataSource)  Time elapsed: 0 sec
testIsClosed(org.apache.commons.dbcp2.managed.TestManagedDataSource)  Time elapsed: 0.001 sec
testCanCloseCallableStatementTwice(org.apache.commons.dbcp2.managed.TestManagedDataSource)  Time elapsed: 0 sec
testAutoCommitBehavior(org.apache.commons.dbcp2.managed.TestManagedDataSource)  Time elapsed: 0 sec
testHashing(org.apache.commons.dbcp2.managed.TestManagedDataSource)  Time elapsed: 0 sec
testCanClosePreparedStatementTwice(org.apache.commons.dbcp2.managed.TestManagedDataSource)  Time elapsed: 0.001 sec
testClosing(org.apache.commons.dbcp2.managed.TestManagedDataSource)  Time elapsed: 0 sec
testPrepareStatementOptions(org.apache.commons.dbcp2.managed.TestManagedDataSource)  Time elapsed: 0 sec
testBackPointers(org.apache.commons.dbcp2.managed.TestManagedDataSource)  Time elapsed: 0.001 sec
testHashCode(org.apache.commons.dbcp2.managed.TestManagedDataSource)  Time elapsed: 0 sec
testConnectionsAreDistinct(org.apache.commons.dbcp2.managed.TestManagedDataSource)  Time elapsed: 0 sec
testMaxTotal(org.apache.commons.dbcp2.managed.TestManagedDataSource)  Time elapsed: 0.101 sec
testRepeatedBorrowAndReturn(org.apache.commons.dbcp2.managed.TestManagedDataSource)  Time elapsed: 0.002 sec
testCanCloseResultSetTwice(org.apache.commons.dbcp2.managed.TestManagedDataSource)  Time elapsed: 0.001 sec
testClearWarnings(org.apache.commons.dbcp2.managed.TestManagedDataSource)  Time elapsed: 0.001 sec
testSimple2(org.apache.commons.dbcp2.managed.TestManagedDataSource)  Time elapsed: 0 sec
testSimple(org.apache.commons.dbcp2.managed.TestManagedDataSource)  Time elapsed: 0.001 sec
Running org.apache.commons.dbcp2.managed.TestManagedDataSourceInTx
Tests run: 37, Failures: 0, Errors: 0, Skipped: 0, Time elapsed: 2.934 sec - in org.apache.commons.dbcp2.managed.TestManagedDataSourceInTx
testNestedConnections(org.apache.commons.dbcp2.managed.TestManagedDataSourceInTx)  Time elapsed: 0 sec
testSharedConnection(org.apache.commons.dbcp2.managed.TestManagedDataSourceInTx)  Time elapsed: 0 sec
testReadOnly(org.apache.commons.dbcp2.managed.TestManagedDataSourceInTx)  Time elapsed: 0.001 sec
testConnectionReturnOnCommit(org.apache.commons.dbcp2.managed.TestManagedDataSourceInTx)  Time elapsed: 0.001 sec
testAutoCommitBehavior(org.apache.commons.dbcp2.managed.TestManagedDataSourceInTx)  Time elapsed: 0.001 sec
testCloseInTransaction(org.apache.commons.dbcp2.managed.TestManagedDataSourceInTx)  Time elapsed: 0.001 sec
testManagedConnectionEqualsFail(org.apache.commons.dbcp2.managed.TestManagedDataSourceInTx)  Time elapsed: 0 sec
testHashCode(org.apache.commons.dbcp2.managed.TestManagedDataSourceInTx)  Time elapsed: 0.001 sec
testConnectionsAreDistinct(org.apache.commons.dbcp2.managed.TestManagedDataSourceInTx)  Time elapsed: 0 sec
testMaxTotal(org.apache.commons.dbcp2.managed.TestManagedDataSourceInTx)  Time elapsed: 0.101 sec
testCommit(org.apache.commons.dbcp2.managed.TestManagedDataSourceInTx)  Time elapsed: 0.001 sec
testClearWarnings(org.apache.commons.dbcp2.managed.TestManagedDataSourceInTx)  Time elapsed: 0 sec
testSharedTransactionConversion(org.apache.commons.dbcp2.managed.TestManagedDataSourceInTx)  Time elapsed: 0.001 sec
testManagedConnectionEqualsSameDelegateNoUnderlyingAccess(org.apache.commons.dbcp2.managed.TestManagedDataSourceInTx)  Time elapsed: 0 sec
testManagedConnectionEqualsSameDelegate(org.apache.commons.dbcp2.managed.TestManagedDataSourceInTx)  Time elapsed: 0.001 sec
testManagedConnectionEqualsNull(org.apache.commons.dbcp2.managed.TestManagedDataSourceInTx)  Time elapsed: 0.002 sec
testManagedConnectionEqualsType(org.apache.commons.dbcp2.managed.TestManagedDataSourceInTx)  Time elapsed: 0 sec
testManagedConnectionEqualInnermost(org.apache.commons.dbcp2.managed.TestManagedDataSourceInTx)  Time elapsed: 0.001 sec
testManagedConnectionEqualsReflexive(org.apache.commons.dbcp2.managed.TestManagedDataSourceInTx)  Time elapsed: 0 sec
testAccessToUnderlyingConnectionAllowed(org.apache.commons.dbcp2.managed.TestManagedDataSourceInTx)  Time elapsed: 0.001 sec
testThreaded(org.apache.commons.dbcp2.managed.TestManagedDataSourceInTx)  Time elapsed: 2.804 sec
testCanCloseStatementTwice(org.apache.commons.dbcp2.managed.TestManagedDataSourceInTx)  Time elapsed: 0.001 sec
testNoRsetClose(org.apache.commons.dbcp2.managed.TestManagedDataSourceInTx)  Time elapsed: 0.001 sec
testOpening(org.apache.commons.dbcp2.managed.TestManagedDataSourceInTx)  Time elapsed: 0.001 sec
testPooling(org.apache.commons.dbcp2.managed.TestManagedDataSourceInTx)  Time elapsed: 0.001 sec
testCanCloseConnectionTwice(org.apache.commons.dbcp2.managed.TestManagedDataSourceInTx)  Time elapsed: 0.001 sec
testIsClosed(org.apache.commons.dbcp2.managed.TestManagedDataSourceInTx)  Time elapsed: 0.001 sec
testCanCloseCallableStatementTwice(org.apache.commons.dbcp2.managed.TestManagedDataSourceInTx)  Time elapsed: 0.001 sec
testHashing(org.apache.commons.dbcp2.managed.TestManagedDataSourceInTx)  Time elapsed: 0.001 sec
testCanClosePreparedStatementTwice(org.apache.commons.dbcp2.managed.TestManagedDataSourceInTx)  Time elapsed: 0.001 sec
testClosing(org.apache.commons.dbcp2.managed.TestManagedDataSourceInTx)  Time elapsed: 0 sec
testPrepareStatementOptions(org.apache.commons.dbcp2.managed.TestManagedDataSourceInTx)  Time elapsed: 0 sec
testBackPointers(org.apache.commons.dbcp2.managed.TestManagedDataSourceInTx)  Time elapsed: 0.001 sec
testRepeatedBorrowAndReturn(org.apache.commons.dbcp2.managed.TestManagedDataSourceInTx)  Time elapsed: 0.002 sec
testCanCloseResultSetTwice(org.apache.commons.dbcp2.managed.TestManagedDataSourceInTx)  Time elapsed: 0 sec
testSimple2(org.apache.commons.dbcp2.managed.TestManagedDataSourceInTx)  Time elapsed: 0.001 sec
testSimple(org.apache.commons.dbcp2.managed.TestManagedDataSourceInTx)  Time elapsed: 0 sec
Running org.apache.commons.dbcp2.managed.TestBasicManagedDataSource
Tests run: 56, Failures: 0, Errors: 0, Skipped: 0, Time elapsed: 5.42 sec - in org.apache.commons.dbcp2.managed.TestBasicManagedDataSource
testReallyClose(org.apache.commons.dbcp2.managed.TestBasicManagedDataSource)  Time elapsed: 0 sec
testEmptyValidationQuery(org.apache.commons.dbcp2.managed.TestBasicManagedDataSource)  Time elapsed: 0 sec
testValidationQueryTimoutFail(org.apache.commons.dbcp2.managed.TestBasicManagedDataSource)  Time elapsed: 0 sec
testConcurrentInvalidateBorrow(org.apache.commons.dbcp2.managed.TestBasicManagedDataSource)  Time elapsed: 0.033 sec
testSetValidationTestProperties(org.apache.commons.dbcp2.managed.TestBasicManagedDataSource)  Time elapsed: 0 sec
testRollbackReadOnly(org.apache.commons.dbcp2.managed.TestBasicManagedDataSource)  Time elapsed: 0.001 sec
testClose(org.apache.commons.dbcp2.managed.TestBasicManagedDataSource)  Time elapsed: 0 sec
testPropertyTestOnReturn(org.apache.commons.dbcp2.managed.TestBasicManagedDataSource)  Time elapsed: 0.001 sec
testValidationQueryTimeoutSucceed(org.apache.commons.dbcp2.managed.TestBasicManagedDataSource)  Time elapsed: 0 sec
testMaxTotalZero(org.apache.commons.dbcp2.managed.TestBasicManagedDataSource)  Time elapsed: 0.101 sec
testPooling(org.apache.commons.dbcp2.managed.TestBasicManagedDataSource)  Time elapsed: 0.001 sec
testMaxConnLifetimeExceeded(org.apache.commons.dbcp2.managed.TestBasicManagedDataSource)  Time elapsed: 0.502 sec
testValidationQueryTimeoutNegative(org.apache.commons.dbcp2.managed.TestBasicManagedDataSource)  Time elapsed: 0.001 sec
testPoolCloseRTE(org.apache.commons.dbcp2.managed.TestBasicManagedDataSource)  Time elapsed: 0.001 sec
testInvalidConnectionInitSql(org.apache.commons.dbcp2.managed.TestBasicManagedDataSource)  Time elapsed: 0 sec
testSetAutoCommitTrueOnClose(org.apache.commons.dbcp2.managed.TestBasicManagedDataSource)  Time elapsed: 0.001 sec
testConcurrentInitBorrow(org.apache.commons.dbcp2.managed.TestBasicManagedDataSource)  Time elapsed: 0.452 sec
testValidationQueryTimeoutZero(org.apache.commons.dbcp2.managed.TestBasicManagedDataSource)  Time elapsed: 0 sec
testMaxConnLifetimeExceededMutedLog(org.apache.commons.dbcp2.managed.TestBasicManagedDataSource)  Time elapsed: 0.501 sec
testEmptyInitConnectionSql(org.apache.commons.dbcp2.managed.TestBasicManagedDataSource)  Time elapsed: 0.001 sec
testDriverClassLoader(org.apache.commons.dbcp2.managed.TestBasicManagedDataSource)  Time elapsed: 0 sec
testJmxDisabled(org.apache.commons.dbcp2.managed.TestBasicManagedDataSource)  Time elapsed: 0.001 sec
testInitialSize(org.apache.commons.dbcp2.managed.TestBasicManagedDataSource)  Time elapsed: 0.001 sec
testInvalidValidationQuery(org.apache.commons.dbcp2.managed.TestBasicManagedDataSource)  Time elapsed: 0 sec
testNoAccessToUnderlyingConnectionAllowed(org.apache.commons.dbcp2.managed.TestBasicManagedDataSource)  Time elapsed: 0.001 sec
testPoolCloseCheckedException(org.apache.commons.dbcp2.managed.TestBasicManagedDataSource)  Time elapsed: 0.001 sec
testCreateDataSourceCleanupEvictor(org.apache.commons.dbcp2.managed.TestBasicManagedDataSource)  Time elapsed: 1.001 sec
testTransactionIsolationBehavior(org.apache.commons.dbcp2.managed.TestBasicManagedDataSource)  Time elapsed: 0 sec
testCreateDataSourceCleanupThreads(org.apache.commons.dbcp2.managed.TestBasicManagedDataSource)  Time elapsed: 0.001 sec
testDefaultCatalog(org.apache.commons.dbcp2.managed.TestBasicManagedDataSource)  Time elapsed: 0 sec
testAccessToUnderlyingConnectionAllowed(org.apache.commons.dbcp2.managed.TestBasicManagedDataSource)  Time elapsed: 0.001 sec
testInvalidateConnection(org.apache.commons.dbcp2.managed.TestBasicManagedDataSource)  Time elapsed: 0 sec
testSetProperties(org.apache.commons.dbcp2.managed.TestBasicManagedDataSource)  Time elapsed: 0 sec
testDisconnectSqlCodes(org.apache.commons.dbcp2.managed.TestBasicManagedDataSource)  Time elapsed: 0 sec
testIsClosedFailure(org.apache.commons.dbcp2.managed.TestBasicManagedDataSource)  Time elapsed: 0 sec
testThreaded(org.apache.commons.dbcp2.managed.TestBasicManagedDataSource)  Time elapsed: 2.704 sec
testCanCloseStatementTwice(org.apache.commons.dbcp2.managed.TestBasicManagedDataSource)  Time elapsed: 0.001 sec
testNoRsetClose(org.apache.commons.dbcp2.managed.TestBasicManagedDataSource)  Time elapsed: 0 sec
testOpening(org.apache.commons.dbcp2.managed.TestBasicManagedDataSource)  Time elapsed: 0.001 sec
testCanCloseConnectionTwice(org.apache.commons.dbcp2.managed.TestBasicManagedDataSource)  Time elapsed: 0 sec
testIsClosed(org.apache.commons.dbcp2.managed.TestBasicManagedDataSource)  Time elapsed: 0.001 sec
testCanCloseCallableStatementTwice(org.apache.commons.dbcp2.managed.TestBasicManagedDataSource)  Time elapsed: 0 sec
testAutoCommitBehavior(org.apache.commons.dbcp2.managed.TestBasicManagedDataSource)  Time elapsed: 0 sec
testHashing(org.apache.commons.dbcp2.managed.TestBasicManagedDataSource)  Time elapsed: 0.001 sec
testCanClosePreparedStatementTwice(org.apache.commons.dbcp2.managed.TestBasicManagedDataSource)  Time elapsed: 0 sec
testClosing(org.apache.commons.dbcp2.managed.TestBasicManagedDataSource)  Time elapsed: 0 sec
testPrepareStatementOptions(org.apache.commons.dbcp2.managed.TestBasicManagedDataSource)  Time elapsed: 0.001 sec
testBackPointers(org.apache.commons.dbcp2.managed.TestBasicManagedDataSource)  Time elapsed: 0.001 sec
testHashCode(org.apache.commons.dbcp2.managed.TestBasicManagedDataSource)  Time elapsed: 0 sec
testConnectionsAreDistinct(org.apache.commons.dbcp2.managed.TestBasicManagedDataSource)  Time elapsed: 0 sec
testMaxTotal(org.apache.commons.dbcp2.managed.TestBasicManagedDataSource)  Time elapsed: 0.101 sec
testRepeatedBorrowAndReturn(org.apache.commons.dbcp2.managed.TestBasicManagedDataSource)  Time elapsed: 0.001 sec
testCanCloseResultSetTwice(org.apache.commons.dbcp2.managed.TestBasicManagedDataSource)  Time elapsed: 0 sec
testClearWarnings(org.apache.commons.dbcp2.managed.TestBasicManagedDataSource)  Time elapsed: 0 sec
testSimple2(org.apache.commons.dbcp2.managed.TestBasicManagedDataSource)  Time elapsed: 0 sec
testSimple(org.apache.commons.dbcp2.managed.TestBasicManagedDataSource)  Time elapsed: 0.001 sec
Running org.apache.commons.dbcp2.managed.TestDataSourceXAConnectionFactory
Tests run: 56, Failures: 0, Errors: 0, Skipped: 0, Time elapsed: 5.462 sec - in org.apache.commons.dbcp2.managed.TestDataSourceXAConnectionFactory
testPhysicalClose(org.apache.commons.dbcp2.managed.TestDataSourceXAConnectionFactory)  Time elapsed: 0.015 sec
testEmptyValidationQuery(org.apache.commons.dbcp2.managed.TestDataSourceXAConnectionFactory)  Time elapsed: 0 sec
testValidationQueryTimoutFail(org.apache.commons.dbcp2.managed.TestDataSourceXAConnectionFactory)  Time elapsed: 0.001 sec
testConcurrentInvalidateBorrow(org.apache.commons.dbcp2.managed.TestDataSourceXAConnectionFactory)  Time elapsed: 0.045 sec
testSetValidationTestProperties(org.apache.commons.dbcp2.managed.TestDataSourceXAConnectionFactory)  Time elapsed: 0 sec
testRollbackReadOnly(org.apache.commons.dbcp2.managed.TestDataSourceXAConnectionFactory)  Time elapsed: 0.001 sec
testClose(org.apache.commons.dbcp2.managed.TestDataSourceXAConnectionFactory)  Time elapsed: 0 sec
testPropertyTestOnReturn(org.apache.commons.dbcp2.managed.TestDataSourceXAConnectionFactory)  Time elapsed: 0.001 sec
testValidationQueryTimeoutSucceed(org.apache.commons.dbcp2.managed.TestDataSourceXAConnectionFactory)  Time elapsed: 0 sec
testMaxTotalZero(org.apache.commons.dbcp2.managed.TestDataSourceXAConnectionFactory)  Time elapsed: 0.101 sec
testPooling(org.apache.commons.dbcp2.managed.TestDataSourceXAConnectionFactory)  Time elapsed: 0.001 sec
testMaxConnLifetimeExceeded(org.apache.commons.dbcp2.managed.TestDataSourceXAConnectionFactory)  Time elapsed: 0.502 sec
testValidationQueryTimeoutNegative(org.apache.commons.dbcp2.managed.TestDataSourceXAConnectionFactory)  Time elapsed: 0 sec
testPoolCloseRTE(org.apache.commons.dbcp2.managed.TestDataSourceXAConnectionFactory)  Time elapsed: 0.001 sec
testInvalidConnectionInitSql(org.apache.commons.dbcp2.managed.TestDataSourceXAConnectionFactory)  Time elapsed: 0 sec
testSetAutoCommitTrueOnClose(org.apache.commons.dbcp2.managed.TestDataSourceXAConnectionFactory)  Time elapsed: 0.001 sec
testConcurrentInitBorrow(org.apache.commons.dbcp2.managed.TestDataSourceXAConnectionFactory)  Time elapsed: 0.452 sec
testValidationQueryTimeoutZero(org.apache.commons.dbcp2.managed.TestDataSourceXAConnectionFactory)  Time elapsed: 0 sec
testMaxConnLifetimeExceededMutedLog(org.apache.commons.dbcp2.managed.TestDataSourceXAConnectionFactory)  Time elapsed: 0.501 sec
testEmptyInitConnectionSql(org.apache.commons.dbcp2.managed.TestDataSourceXAConnectionFactory)  Time elapsed: 0 sec
testDriverClassLoader(org.apache.commons.dbcp2.managed.TestDataSourceXAConnectionFactory)  Time elapsed: 0.001 sec
testJmxDisabled(org.apache.commons.dbcp2.managed.TestDataSourceXAConnectionFactory)  Time elapsed: 0.002 sec
testInitialSize(org.apache.commons.dbcp2.managed.TestDataSourceXAConnectionFactory)  Time elapsed: 0.002 sec
testInvalidValidationQuery(org.apache.commons.dbcp2.managed.TestDataSourceXAConnectionFactory)  Time elapsed: 0 sec
testNoAccessToUnderlyingConnectionAllowed(org.apache.commons.dbcp2.managed.TestDataSourceXAConnectionFactory)  Time elapsed: 0.001 sec
testPoolCloseCheckedException(org.apache.commons.dbcp2.managed.TestDataSourceXAConnectionFactory)  Time elapsed: 0 sec
testCreateDataSourceCleanupEvictor(org.apache.commons.dbcp2.managed.TestDataSourceXAConnectionFactory)  Time elapsed: 1.001 sec
testTransactionIsolationBehavior(org.apache.commons.dbcp2.managed.TestDataSourceXAConnectionFactory)  Time elapsed: 0.001 sec
testCreateDataSourceCleanupThreads(org.apache.commons.dbcp2.managed.TestDataSourceXAConnectionFactory)  Time elapsed: 0.001 sec
testDefaultCatalog(org.apache.commons.dbcp2.managed.TestDataSourceXAConnectionFactory)  Time elapsed: 0.001 sec
testAccessToUnderlyingConnectionAllowed(org.apache.commons.dbcp2.managed.TestDataSourceXAConnectionFactory)  Time elapsed: 0 sec
testInvalidateConnection(org.apache.commons.dbcp2.managed.TestDataSourceXAConnectionFactory)  Time elapsed: 0 sec
testSetProperties(org.apache.commons.dbcp2.managed.TestDataSourceXAConnectionFactory)  Time elapsed: 0 sec
testDisconnectSqlCodes(org.apache.commons.dbcp2.managed.TestDataSourceXAConnectionFactory)  Time elapsed: 0.001 sec
testIsClosedFailure(org.apache.commons.dbcp2.managed.TestDataSourceXAConnectionFactory)  Time elapsed: 0 sec
testThreaded(org.apache.commons.dbcp2.managed.TestDataSourceXAConnectionFactory)  Time elapsed: 2.704 sec
testCanCloseStatementTwice(org.apache.commons.dbcp2.managed.TestDataSourceXAConnectionFactory)  Time elapsed: 0.001 sec
testNoRsetClose(org.apache.commons.dbcp2.managed.TestDataSourceXAConnectionFactory)  Time elapsed: 0.001 sec
testOpening(org.apache.commons.dbcp2.managed.TestDataSourceXAConnectionFactory)  Time elapsed: 0.002 sec
testCanCloseConnectionTwice(org.apache.commons.dbcp2.managed.TestDataSourceXAConnectionFactory)  Time elapsed: 0.001 sec
testIsClosed(org.apache.commons.dbcp2.managed.TestDataSourceXAConnectionFactory)  Time elapsed: 0 sec
testCanCloseCallableStatementTwice(org.apache.commons.dbcp2.managed.TestDataSourceXAConnectionFactory)  Time elapsed: 0 sec
testAutoCommitBehavior(org.apache.commons.dbcp2.managed.TestDataSourceXAConnectionFactory)  Time elapsed: 0.001 sec
testHashing(org.apache.commons.dbcp2.managed.TestDataSourceXAConnectionFactory)  Time elapsed: 0.001 sec
testCanClosePreparedStatementTwice(org.apache.commons.dbcp2.managed.TestDataSourceXAConnectionFactory)  Time elapsed: 0.001 sec
testClosing(org.apache.commons.dbcp2.managed.TestDataSourceXAConnectionFactory)  Time elapsed: 0 sec
testPrepareStatementOptions(org.apache.commons.dbcp2.managed.TestDataSourceXAConnectionFactory)  Time elapsed: 0.001 sec
testBackPointers(org.apache.commons.dbcp2.managed.TestDataSourceXAConnectionFactory)  Time elapsed: 0.001 sec
testHashCode(org.apache.commons.dbcp2.managed.TestDataSourceXAConnectionFactory)  Time elapsed: 0 sec
testConnectionsAreDistinct(org.apache.commons.dbcp2.managed.TestDataSourceXAConnectionFactory)  Time elapsed: 0.001 sec
testMaxTotal(org.apache.commons.dbcp2.managed.TestDataSourceXAConnectionFactory)  Time elapsed: 0.101 sec
testRepeatedBorrowAndReturn(org.apache.commons.dbcp2.managed.TestDataSourceXAConnectionFactory)  Time elapsed: 0.002 sec
testCanCloseResultSetTwice(org.apache.commons.dbcp2.managed.TestDataSourceXAConnectionFactory)  Time elapsed: 0.001 sec
testClearWarnings(org.apache.commons.dbcp2.managed.TestDataSourceXAConnectionFactory)  Time elapsed: 0.004 sec
testSimple2(org.apache.commons.dbcp2.managed.TestDataSourceXAConnectionFactory)  Time elapsed: 0.001 sec
testSimple(org.apache.commons.dbcp2.managed.TestDataSourceXAConnectionFactory)  Time elapsed: 0.001 sec
Running org.apache.commons.dbcp2.TestPStmtPoolingBasicDataSource
Multithread test time = 10111 ms. Threads: 100. Loops: 9751. Hold time: 5. maxWaitMillis: -1. Done: 100. Did not run: 0. Failed: 0. expectError: false
Tests run: 61, Failures: 0, Errors: 0, Skipped: 0, Time elapsed: 16.089 sec - in org.apache.commons.dbcp2.TestPStmtPoolingBasicDataSource
testLRUBehavior(org.apache.commons.dbcp2.TestPStmtPoolingBasicDataSource)  Time elapsed: 0.204 sec
testPreparedStatementPooling(org.apache.commons.dbcp2.TestPStmtPoolingBasicDataSource)  Time elapsed: 0.002 sec
testPStmtPoolingAccrossClose(org.apache.commons.dbcp2.TestPStmtPoolingBasicDataSource)  Time elapsed: 0.002 sec
testPStmtPoolingWithNoClose(org.apache.commons.dbcp2.TestPStmtPoolingBasicDataSource)  Time elapsed: 0.001 sec
testPStmtCatalog(org.apache.commons.dbcp2.TestPStmtPoolingBasicDataSource)  Time elapsed: 0.001 sec
testMultipleThreads1(org.apache.commons.dbcp2.TestPStmtPoolingBasicDataSource)  Time elapsed: 10.113 sec
testEmptyValidationQuery(org.apache.commons.dbcp2.TestPStmtPoolingBasicDataSource)  Time elapsed: 0 sec
testValidationQueryTimoutFail(org.apache.commons.dbcp2.TestPStmtPoolingBasicDataSource)  Time elapsed: 0.001 sec
testConcurrentInvalidateBorrow(org.apache.commons.dbcp2.TestPStmtPoolingBasicDataSource)  Time elapsed: 0.16 sec
testSetValidationTestProperties(org.apache.commons.dbcp2.TestPStmtPoolingBasicDataSource)  Time elapsed: 0 sec
testRollbackReadOnly(org.apache.commons.dbcp2.TestPStmtPoolingBasicDataSource)  Time elapsed: 0 sec
testClose(org.apache.commons.dbcp2.TestPStmtPoolingBasicDataSource)  Time elapsed: 0.001 sec
testPropertyTestOnReturn(org.apache.commons.dbcp2.TestPStmtPoolingBasicDataSource)  Time elapsed: 0 sec
testValidationQueryTimeoutSucceed(org.apache.commons.dbcp2.TestPStmtPoolingBasicDataSource)  Time elapsed: 0.001 sec
testMaxTotalZero(org.apache.commons.dbcp2.TestPStmtPoolingBasicDataSource)  Time elapsed: 0.101 sec
testPooling(org.apache.commons.dbcp2.TestPStmtPoolingBasicDataSource)  Time elapsed: 0.003 sec
testMaxConnLifetimeExceeded(org.apache.commons.dbcp2.TestPStmtPoolingBasicDataSource)  Time elapsed: 0.502 sec
testValidationQueryTimeoutNegative(org.apache.commons.dbcp2.TestPStmtPoolingBasicDataSource)  Time elapsed: 0.001 sec
testPoolCloseRTE(org.apache.commons.dbcp2.TestPStmtPoolingBasicDataSource)  Time elapsed: 0 sec
testInvalidConnectionInitSql(org.apache.commons.dbcp2.TestPStmtPoolingBasicDataSource)  Time elapsed: 0 sec
testSetAutoCommitTrueOnClose(org.apache.commons.dbcp2.TestPStmtPoolingBasicDataSource)  Time elapsed: 0 sec
testConcurrentInitBorrow(org.apache.commons.dbcp2.TestPStmtPoolingBasicDataSource)  Time elapsed: 0.456 sec
testValidationQueryTimeoutZero(org.apache.commons.dbcp2.TestPStmtPoolingBasicDataSource)  Time elapsed: 0.001 sec
testMaxConnLifetimeExceededMutedLog(org.apache.commons.dbcp2.TestPStmtPoolingBasicDataSource)  Time elapsed: 0.5 sec
testEmptyInitConnectionSql(org.apache.commons.dbcp2.TestPStmtPoolingBasicDataSource)  Time elapsed: 0 sec
testDriverClassLoader(org.apache.commons.dbcp2.TestPStmtPoolingBasicDataSource)  Time elapsed: 0 sec
testJmxDisabled(org.apache.commons.dbcp2.TestPStmtPoolingBasicDataSource)  Time elapsed: 0.001 sec
testInitialSize(org.apache.commons.dbcp2.TestPStmtPoolingBasicDataSource)  Time elapsed: 0.001 sec
testInvalidValidationQuery(org.apache.commons.dbcp2.TestPStmtPoolingBasicDataSource)  Time elapsed: 0 sec
testNoAccessToUnderlyingConnectionAllowed(org.apache.commons.dbcp2.TestPStmtPoolingBasicDataSource)  Time elapsed: 0.001 sec
testPoolCloseCheckedException(org.apache.commons.dbcp2.TestPStmtPoolingBasicDataSource)  Time elapsed: 0 sec
testCreateDataSourceCleanupEvictor(org.apache.commons.dbcp2.TestPStmtPoolingBasicDataSource)  Time elapsed: 1.001 sec
testTransactionIsolationBehavior(org.apache.commons.dbcp2.TestPStmtPoolingBasicDataSource)  Time elapsed: 0.002 sec
testCreateDataSourceCleanupThreads(org.apache.commons.dbcp2.TestPStmtPoolingBasicDataSource)  Time elapsed: 0 sec
testDefaultCatalog(org.apache.commons.dbcp2.TestPStmtPoolingBasicDataSource)  Time elapsed: 0.002 sec
testAccessToUnderlyingConnectionAllowed(org.apache.commons.dbcp2.TestPStmtPoolingBasicDataSource)  Time elapsed: 0 sec
testInvalidateConnection(org.apache.commons.dbcp2.TestPStmtPoolingBasicDataSource)  Time elapsed: 0.001 sec
testSetProperties(org.apache.commons.dbcp2.TestPStmtPoolingBasicDataSource)  Time elapsed: 0 sec
testDisconnectSqlCodes(org.apache.commons.dbcp2.TestPStmtPoolingBasicDataSource)  Time elapsed: 0 sec
testIsClosedFailure(org.apache.commons.dbcp2.TestPStmtPoolingBasicDataSource)  Time elapsed: 0.001 sec
testThreaded(org.apache.commons.dbcp2.TestPStmtPoolingBasicDataSource)  Time elapsed: 2.904 sec
testCanCloseStatementTwice(org.apache.commons.dbcp2.TestPStmtPoolingBasicDataSource)  Time elapsed: 0 sec
testNoRsetClose(org.apache.commons.dbcp2.TestPStmtPoolingBasicDataSource)  Time elapsed: 0.001 sec
testOpening(org.apache.commons.dbcp2.TestPStmtPoolingBasicDataSource)  Time elapsed: 0.001 sec
testCanCloseConnectionTwice(org.apache.commons.dbcp2.TestPStmtPoolingBasicDataSource)  Time elapsed: 0.001 sec
testIsClosed(org.apache.commons.dbcp2.TestPStmtPoolingBasicDataSource)  Time elapsed: 0.001 sec
testCanCloseCallableStatementTwice(org.apache.commons.dbcp2.TestPStmtPoolingBasicDataSource)  Time elapsed: 0 sec
testAutoCommitBehavior(org.apache.commons.dbcp2.TestPStmtPoolingBasicDataSource)  Time elapsed: 0.001 sec
testHashing(org.apache.commons.dbcp2.TestPStmtPoolingBasicDataSource)  Time elapsed: 0.001 sec
testCanClosePreparedStatementTwice(org.apache.commons.dbcp2.TestPStmtPoolingBasicDataSource)  Time elapsed: 0 sec
testClosing(org.apache.commons.dbcp2.TestPStmtPoolingBasicDataSource)  Time elapsed: 0.001 sec
testPrepareStatementOptions(org.apache.commons.dbcp2.TestPStmtPoolingBasicDataSource)  Time elapsed: 0.001 sec
testBackPointers(org.apache.commons.dbcp2.TestPStmtPoolingBasicDataSource)  Time elapsed: 0.001 sec
testHashCode(org.apache.commons.dbcp2.TestPStmtPoolingBasicDataSource)  Time elapsed: 0.001 sec
testConnectionsAreDistinct(org.apache.commons.dbcp2.TestPStmtPoolingBasicDataSource)  Time elapsed: 0.001 sec
testMaxTotal(org.apache.commons.dbcp2.TestPStmtPoolingBasicDataSource)  Time elapsed: 0.102 sec
testRepeatedBorrowAndReturn(org.apache.commons.dbcp2.TestPStmtPoolingBasicDataSource)  Time elapsed: 0.002 sec
testCanCloseResultSetTwice(org.apache.commons.dbcp2.TestPStmtPoolingBasicDataSource)  Time elapsed: 0.001 sec
testClearWarnings(org.apache.commons.dbcp2.TestPStmtPoolingBasicDataSource)  Time elapsed: 0.002 sec
testSimple2(org.apache.commons.dbcp2.TestPStmtPoolingBasicDataSource)  Time elapsed: 0 sec
testSimple(org.apache.commons.dbcp2.TestPStmtPoolingBasicDataSource)  Time elapsed: 0.001 sec
Running org.apache.commons.dbcp2.datasources.TestKeyedCPDSConnectionFactory
Tests run: 3, Failures: 0, Errors: 0, Skipped: 0, Time elapsed: 0.002 sec - in org.apache.commons.dbcp2.datasources.TestKeyedCPDSConnectionFactory
testNullValidationQuery(org.apache.commons.dbcp2.datasources.TestKeyedCPDSConnectionFactory)  Time elapsed: 0 sec
testConnectionErrorCleanup(org.apache.commons.dbcp2.datasources.TestKeyedCPDSConnectionFactory)  Time elapsed: 0.001 sec
testSharedPoolDSDestroyOnReturn(org.apache.commons.dbcp2.datasources.TestKeyedCPDSConnectionFactory)  Time elapsed: 0 sec
Running org.apache.commons.dbcp2.datasources.TestFactory
Tests run: 1, Failures: 0, Errors: 0, Skipped: 0, Time elapsed: 0 sec - in org.apache.commons.dbcp2.datasources.TestFactory
testJNDI2Pools(org.apache.commons.dbcp2.datasources.TestFactory)  Time elapsed: 0 sec
Running org.apache.commons.dbcp2.datasources.TestInstanceKeyDataSource
Tests run: 1, Failures: 0, Errors: 0, Skipped: 0, Time elapsed: 0.002 sec - in org.apache.commons.dbcp2.datasources.TestInstanceKeyDataSource
testExceptionOnSetupDefaults(org.apache.commons.dbcp2.datasources.TestInstanceKeyDataSource)  Time elapsed: 0.002 sec
Running org.apache.commons.dbcp2.datasources.TestCPDSConnectionFactory
Tests run: 3, Failures: 0, Errors: 0, Skipped: 0, Time elapsed: 0.002 sec - in org.apache.commons.dbcp2.datasources.TestCPDSConnectionFactory
testNullValidationQuery(org.apache.commons.dbcp2.datasources.TestCPDSConnectionFactory)  Time elapsed: 0 sec
testConnectionErrorCleanup(org.apache.commons.dbcp2.datasources.TestCPDSConnectionFactory)  Time elapsed: 0.001 sec
testSharedPoolDSDestroyOnReturn(org.apache.commons.dbcp2.datasources.TestCPDSConnectionFactory)  Time elapsed: 0.001 sec
Running org.apache.commons.dbcp2.datasources.TestSharedPoolDataSource
testMaxWaitMillis took 1005 ms. maxWaitMillis: 1000
Multithread test time = 303 ms. Threads: 20. Loops: 2701. Hold time: 1. maxWaitMillis: 430. Done: 20. Did not run: 0. Failed: 0. expectError: false
Multithread test time = 1003 ms. Threads: 20. Loops: 20. Hold time: 1000. maxWaitMillis: 500. Done: 10. Did not run: 0. Failed: 10. expectError: true
Tests run: 34, Failures: 0, Errors: 0, Skipped: 0, Time elapsed: 6.958 sec - in org.apache.commons.dbcp2.datasources.TestSharedPoolDataSource
testPoolPreparedStatements(org.apache.commons.dbcp2.datasources.TestSharedPoolDataSource)  Time elapsed: 0.005 sec
testOpening(org.apache.commons.dbcp2.datasources.TestSharedPoolDataSource)  Time elapsed: 0.001 sec
testClosingWithUserName(org.apache.commons.dbcp2.datasources.TestSharedPoolDataSource)  Time elapsed: 0 sec
testChangePassword(org.apache.commons.dbcp2.datasources.TestSharedPoolDataSource)  Time elapsed: 0.001 sec
testPoolPrepareStatement(org.apache.commons.dbcp2.datasources.TestSharedPoolDataSource)  Time elapsed: 0.001 sec
testMaxWaitMillis(org.apache.commons.dbcp2.datasources.TestSharedPoolDataSource)  Time elapsed: 1.006 sec
testClosePool(org.apache.commons.dbcp2.datasources.TestSharedPoolDataSource)  Time elapsed: 0.001 sec
testClosing(org.apache.commons.dbcp2.datasources.TestSharedPoolDataSource)  Time elapsed: 0.001 sec
testTransactionIsolationBehavior(org.apache.commons.dbcp2.datasources.TestSharedPoolDataSource)  Time elapsed: 0.001 sec
testDbcp369(org.apache.commons.dbcp2.datasources.TestSharedPoolDataSource)  Time elapsed: 1.495 sec
testMaxTotal(org.apache.commons.dbcp2.datasources.TestSharedPoolDataSource)  Time elapsed: 0.101 sec
testSimpleWithUsername(org.apache.commons.dbcp2.datasources.TestSharedPoolDataSource)  Time elapsed: 0.002 sec
testSimple2(org.apache.commons.dbcp2.datasources.TestSharedPoolDataSource)  Time elapsed: 0.001 sec
testSimple(org.apache.commons.dbcp2.datasources.TestSharedPoolDataSource)  Time elapsed: 0.001 sec
testMultipleThreads1(org.apache.commons.dbcp2.datasources.TestSharedPoolDataSource)  Time elapsed: 0.305 sec
testMultipleThreads2(org.apache.commons.dbcp2.datasources.TestSharedPoolDataSource)  Time elapsed: 1.007 sec
testIncorrectPassword(org.apache.commons.dbcp2.datasources.TestSharedPoolDataSource)  Time elapsed: 0.004 sec
testThreaded(org.apache.commons.dbcp2.datasources.TestSharedPoolDataSource)  Time elapsed: 3.005 sec
testCanCloseStatementTwice(org.apache.commons.dbcp2.datasources.TestSharedPoolDataSource)  Time elapsed: 0.003 sec
testNoRsetClose(org.apache.commons.dbcp2.datasources.TestSharedPoolDataSource)  Time elapsed: 0.001 sec
testPooling(org.apache.commons.dbcp2.datasources.TestSharedPoolDataSource)  Time elapsed: 0.001 sec
testCanCloseConnectionTwice(org.apache.commons.dbcp2.datasources.TestSharedPoolDataSource)  Time elapsed: 0.001 sec
testIsClosed(org.apache.commons.dbcp2.datasources.TestSharedPoolDataSource)  Time elapsed: 0.001 sec
testCanCloseCallableStatementTwice(org.apache.commons.dbcp2.datasources.TestSharedPoolDataSource)  Time elapsed: 0.001 sec
testAutoCommitBehavior(org.apache.commons.dbcp2.datasources.TestSharedPoolDataSource)  Time elapsed: 0.001 sec
testHashing(org.apache.commons.dbcp2.datasources.TestSharedPoolDataSource)  Time elapsed: 0.001 sec
testCanClosePreparedStatementTwice(org.apache.commons.dbcp2.datasources.TestSharedPoolDataSource)  Time elapsed: 0.001 sec
testPrepareStatementOptions(org.apache.commons.dbcp2.datasources.TestSharedPoolDataSource)  Time elapsed: 0.001 sec
testBackPointers(org.apache.commons.dbcp2.datasources.TestSharedPoolDataSource)  Time elapsed: 0.001 sec
testHashCode(org.apache.commons.dbcp2.datasources.TestSharedPoolDataSource)  Time elapsed: 0.001 sec
testConnectionsAreDistinct(org.apache.commons.dbcp2.datasources.TestSharedPoolDataSource)  Time elapsed: 0.001 sec
testRepeatedBorrowAndReturn(org.apache.commons.dbcp2.datasources.TestSharedPoolDataSource)  Time elapsed: 0.001 sec
testCanCloseResultSetTwice(org.apache.commons.dbcp2.datasources.TestSharedPoolDataSource)  Time elapsed: 0.002 sec
testClearWarnings(org.apache.commons.dbcp2.datasources.TestSharedPoolDataSource)  Time elapsed: 0.001 sec
Running org.apache.commons.dbcp2.datasources.TestPerUserPoolDataSource
Multithread test time = 305 ms. Threads: 20. Loops: 2674. Hold time: 1. maxWaitMillis: 430. Done: 20. Did not run: 0. Failed: 0. expectError: false
Multithread test time = 1005 ms. Threads: 20. Loops: 20. Hold time: 1000. maxWaitMillis: 500. Done: 10. Did not run: 0. Failed: 10. expectError: true
Tests run: 35, Failures: 0, Errors: 0, Skipped: 0, Time elapsed: 4.322 sec - in org.apache.commons.dbcp2.datasources.TestPerUserPoolDataSource
testPerUserMethods(org.apache.commons.dbcp2.datasources.TestPerUserPoolDataSource)  Time elapsed: 0.001 sec
testOpening(org.apache.commons.dbcp2.datasources.TestPerUserPoolDataSource)  Time elapsed: 0.001 sec
testSerialization(org.apache.commons.dbcp2.datasources.TestPerUserPoolDataSource)  Time elapsed: 0.048 sec
testClosingWithUserName(org.apache.commons.dbcp2.datasources.TestPerUserPoolDataSource)  Time elapsed: 0.002 sec
testChangePassword(org.apache.commons.dbcp2.datasources.TestPerUserPoolDataSource)  Time elapsed: 0.001 sec
testDefaultUser1(org.apache.commons.dbcp2.datasources.TestPerUserPoolDataSource)  Time elapsed: 0.002 sec
testDefaultUser2(org.apache.commons.dbcp2.datasources.TestPerUserPoolDataSource)  Time elapsed: 0.001 sec
testClosing(org.apache.commons.dbcp2.datasources.TestPerUserPoolDataSource)  Time elapsed: 0.001 sec
testTransactionIsolationBehavior(org.apache.commons.dbcp2.datasources.TestPerUserPoolDataSource)  Time elapsed: 0.001 sec
testMaxTotal(org.apache.commons.dbcp2.datasources.TestPerUserPoolDataSource)  Time elapsed: 0.101 sec
testSimpleWithUsername(org.apache.commons.dbcp2.datasources.TestPerUserPoolDataSource)  Time elapsed: 0.003 sec
testMaxWaitMillisZero(org.apache.commons.dbcp2.datasources.TestPerUserPoolDataSource)  Time elapsed: 0.003 sec
testSimple2(org.apache.commons.dbcp2.datasources.TestPerUserPoolDataSource)  Time elapsed: 0.002 sec
testSimple(org.apache.commons.dbcp2.datasources.TestPerUserPoolDataSource)  Time elapsed: 0.001 sec
testMultipleThreads1(org.apache.commons.dbcp2.datasources.TestPerUserPoolDataSource)  Time elapsed: 0.305 sec
testMultipleThreads2(org.apache.commons.dbcp2.datasources.TestPerUserPoolDataSource)  Time elapsed: 1.008 sec
testUnregisteredUser(org.apache.commons.dbcp2.datasources.TestPerUserPoolDataSource)  Time elapsed: 0.005 sec
testIncorrectPassword(org.apache.commons.dbcp2.datasources.TestPerUserPoolDataSource)  Time elapsed: 0.002 sec
testThreaded(org.apache.commons.dbcp2.datasources.TestPerUserPoolDataSource)  Time elapsed: 2.804 sec
testCanCloseStatementTwice(org.apache.commons.dbcp2.datasources.TestPerUserPoolDataSource)  Time elapsed: 0.004 sec
testNoRsetClose(org.apache.commons.dbcp2.datasources.TestPerUserPoolDataSource)  Time elapsed: 0.003 sec
testPooling(org.apache.commons.dbcp2.datasources.TestPerUserPoolDataSource)  Time elapsed: 0.003 sec
testCanCloseConnectionTwice(org.apache.commons.dbcp2.datasources.TestPerUserPoolDataSource)  Time elapsed: 0.003 sec
testIsClosed(org.apache.commons.dbcp2.datasources.TestPerUserPoolDataSource)  Time elapsed: 0.001 sec
testCanCloseCallableStatementTwice(org.apache.commons.dbcp2.datasources.TestPerUserPoolDataSource)  Time elapsed: 0.001 sec
testAutoCommitBehavior(org.apache.commons.dbcp2.datasources.TestPerUserPoolDataSource)  Time elapsed: 0.001 sec
testHashing(org.apache.commons.dbcp2.datasources.TestPerUserPoolDataSource)  Time elapsed: 0.001 sec
testCanClosePreparedStatementTwice(org.apache.commons.dbcp2.datasources.TestPerUserPoolDataSource)  Time elapsed: 0.001 sec
testPrepareStatementOptions(org.apache.commons.dbcp2.datasources.TestPerUserPoolDataSource)  Time elapsed: 0.001 sec
testBackPointers(org.apache.commons.dbcp2.datasources.TestPerUserPoolDataSource)  Time elapsed: 0.002 sec
testHashCode(org.apache.commons.dbcp2.datasources.TestPerUserPoolDataSource)  Time elapsed: 0.001 sec
testConnectionsAreDistinct(org.apache.commons.dbcp2.datasources.TestPerUserPoolDataSource)  Time elapsed: 0.001 sec
testRepeatedBorrowAndReturn(org.apache.commons.dbcp2.datasources.TestPerUserPoolDataSource)  Time elapsed: 0.002 sec
testCanCloseResultSetTwice(org.apache.commons.dbcp2.datasources.TestPerUserPoolDataSource)  Time elapsed: 0.001 sec
testClearWarnings(org.apache.commons.dbcp2.datasources.TestPerUserPoolDataSource)  Time elapsed: 0.002 sec
Running org.apache.commons.dbcp2.TestPoolingDataSource
Tests run: 30, Failures: 0, Errors: 0, Skipped: 0, Time elapsed: 2.949 sec - in org.apache.commons.dbcp2.TestPoolingDataSource
testClose(org.apache.commons.dbcp2.TestPoolingDataSource)  Time elapsed: 0.001 sec
testFixFactoryConfig(org.apache.commons.dbcp2.TestPoolingDataSource)  Time elapsed: 0.001 sec
testPoolGuardConnectionWrapperEqualsSameDelegate(org.apache.commons.dbcp2.TestPoolingDataSource)  Time elapsed: 0.001 sec
testPoolGuardConnectionWrapperEqualInnermost(org.apache.commons.dbcp2.TestPoolingDataSource)  Time elapsed: 0.001 sec
testPoolGuardConnectionWrapperEqualsReflexive(org.apache.commons.dbcp2.TestPoolingDataSource)  Time elapsed: 0.001 sec
testPoolGuardConnectionWrapperEqualsFail(org.apache.commons.dbcp2.TestPoolingDataSource)  Time elapsed: 0.001 sec
testPoolGuardConnectionWrapperEqualsNull(org.apache.commons.dbcp2.TestPoolingDataSource)  Time elapsed: 0.001 sec
testPoolGuardConnectionWrapperEqualsType(org.apache.commons.dbcp2.TestPoolingDataSource)  Time elapsed: 0 sec
testThreaded(org.apache.commons.dbcp2.TestPoolingDataSource)  Time elapsed: 2.804 sec
testCanCloseStatementTwice(org.apache.commons.dbcp2.TestPoolingDataSource)  Time elapsed: 0.003 sec
testNoRsetClose(org.apache.commons.dbcp2.TestPoolingDataSource)  Time elapsed: 0.003 sec
testOpening(org.apache.commons.dbcp2.TestPoolingDataSource)  Time elapsed: 0.002 sec
testPooling(org.apache.commons.dbcp2.TestPoolingDataSource)  Time elapsed: 0.003 sec
testCanCloseConnectionTwice(org.apache.commons.dbcp2.TestPoolingDataSource)  Time elapsed: 0.001 sec
testIsClosed(org.apache.commons.dbcp2.TestPoolingDataSource)  Time elapsed: 0.001 sec
testCanCloseCallableStatementTwice(org.apache.commons.dbcp2.TestPoolingDataSource)  Time elapsed: 0.001 sec
testAutoCommitBehavior(org.apache.commons.dbcp2.TestPoolingDataSource)  Time elapsed: 0.001 sec
testHashing(org.apache.commons.dbcp2.TestPoolingDataSource)  Time elapsed: 0.001 sec
testCanClosePreparedStatementTwice(org.apache.commons.dbcp2.TestPoolingDataSource)  Time elapsed: 0.001 sec
testClosing(org.apache.commons.dbcp2.TestPoolingDataSource)  Time elapsed: 0.001 sec
testPrepareStatementOptions(org.apache.commons.dbcp2.TestPoolingDataSource)  Time elapsed: 0.001 sec
testBackPointers(org.apache.commons.dbcp2.TestPoolingDataSource)  Time elapsed: 0.002 sec
testHashCode(org.apache.commons.dbcp2.TestPoolingDataSource)  Time elapsed: 0.001 sec
testConnectionsAreDistinct(org.apache.commons.dbcp2.TestPoolingDataSource)  Time elapsed: 0.001 sec
testMaxTotal(org.apache.commons.dbcp2.TestPoolingDataSource)  Time elapsed: 0.102 sec
testRepeatedBorrowAndReturn(org.apache.commons.dbcp2.TestPoolingDataSource)  Time elapsed: 0.003 sec
testCanCloseResultSetTwice(org.apache.commons.dbcp2.TestPoolingDataSource)  Time elapsed: 0.002 sec
testClearWarnings(org.apache.commons.dbcp2.TestPoolingDataSource)  Time elapsed: 0.002 sec
testSimple2(org.apache.commons.dbcp2.TestPoolingDataSource)  Time elapsed: 0.002 sec
testSimple(org.apache.commons.dbcp2.TestPoolingDataSource)  Time elapsed: 0.001 sec
Running org.apache.commons.dbcp2.TestDelegatingConnection
Tests run: 4, Failures: 0, Errors: 0, Skipped: 0, Time elapsed: 0.002 sec - in org.apache.commons.dbcp2.TestDelegatingConnection
testGetDelegate(org.apache.commons.dbcp2.TestDelegatingConnection)  Time elapsed: 0 sec
testCheckOpenNull(org.apache.commons.dbcp2.TestDelegatingConnection)  Time elapsed: 0.002 sec
testCheckOpen(org.apache.commons.dbcp2.TestDelegatingConnection)  Time elapsed: 0 sec
testConnectionToString(org.apache.commons.dbcp2.TestDelegatingConnection)  Time elapsed: 0 sec
Running org.apache.commons.dbcp2.TestPoolableConnection
Tests run: 5, Failures: 0, Errors: 0, Skipped: 0, Time elapsed: 0.004 sec - in org.apache.commons.dbcp2.TestPoolableConnection
testPoolableConnectionLeak(org.apache.commons.dbcp2.TestPoolableConnection)  Time elapsed: 0.001 sec
testFastFailValidationCustomCodes(org.apache.commons.dbcp2.TestPoolableConnection)  Time elapsed: 0.001 sec
testConnectionPool(org.apache.commons.dbcp2.TestPoolableConnection)  Time elapsed: 0.001 sec
testClosingWrappedInDelegate(org.apache.commons.dbcp2.TestPoolableConnection)  Time elapsed: 0 sec
testFastFailValidation(org.apache.commons.dbcp2.TestPoolableConnection)  Time elapsed: 0.001 sec

Results :

Tests run: 544, Failures: 0, Errors: 0, Skipped: 0

[INFO] ------------------------------------------------------------------------
[INFO] BUILD SUCCESS
[INFO] ------------------------------------------------------------------------
[INFO] Total time: 01:20 min
[INFO] Finished at: 2017-01-02T06:22:11-06:00
[INFO] Final Memory: 40M/2262M
[INFO] ------------------------------------------------------------------------
