8d85a6015ffac280ce771b7eaae4cfd474bb060c [FaultTracer] Extracted changes: 0 0 0 0 0 0 0 0 0 0 0 0 0 0 0 0 0 0 0 0 0 0 0 0 0 0 0 0
47629204be0a966f277f0926d285c18aee38abd7 [FaultTracer] Extracted changes: 0 0 0 0 0 0 0 0 0 0 0 0 0 0 0 0 0 0 0 0 0 0 0 0 0 0 0 0
15a54b19572bcf0563d645ea79255deff9413b65 [FaultTracer] Extracted changes: 0 0 0 0 0 0 0 0 0 0 0 0 0 0 0 0 0 0 0 0 0 0 0 0 0 0 0 0
c63e1647360976499b2ad5d0a19c1a42b6f7a714 [FaultTracer] Extracted changes: 0 0 2 0 0 0 0 0 0 0 0 0 0 0 0 5 0 0 0 0 0 0 0 0 0 0 0 2
38ca5de527938c4f4de178b9c00d4f48a5d0ab2e [FaultTracer] Extracted changes: 0 3 4 2 0 0 0 0 0 0 0 0 0 0 4 0 0 0 0 0 0 0 0 0 0 0 2 0
7fffaf1a53e6351102720c72d37740342907ef2e [FaultTracer] Extracted changes: 0 0 1 0 0 0 1 0 0 0 0 0 0 0 0 1 0 0 1 0 0 0 0 0 0 0 0 1
214e58e4dad19129f34c62d4c415d7356579ef91 [FaultTracer] Extracted changes: 0 0 1 0 0 0 0 0 0 0 0 0 0 0 0 1 0 0 0 0 0 0 0 0 0 0 0 1
9d4e8a1d570fd0186b5961b0f071765e5b0e2a75 [FaultTracer] Extracted changes: 0 0 1 0 0 0 0 0 0 1 0 0 0 0 0 1 0 0 0 0 0 1 0 0 0 0 0 1
b66df1a7fbda6d9767f6bdcd08b5fb512235e3a1 [FaultTracer] Extracted changes: 0 0 0 0 0 0 0 0 0 0 0 0 0 0 0 0 0 0 0 0 0 0 0 0 0 0 0 0
1b9396bf097ace0937d92a59638c2a81d04d9a66 [FaultTracer] Extracted changes: 0 0 1 0 0 0 0 0 0 0 0 0 0 0 0 1 0 0 0 0 0 0 0 0 0 0 0 1
db45e93ce9ca51ff18e3f59f970e5dbd3f7e4e9f [FaultTracer] Extracted changes: 0 0 1 0 0 0 0 0 0 0 0 0 0 0 0 1 0 0 0 0 0 0 0 0 0 0 0 1
16df98ef2a3a428fe53865452dd7bd8e7acd25fb [FaultTracer] Extracted changes: 0 0 1 0 0 0 0 0 0 0 0 0 0 0 0 1 0 0 0 0 0 0 0 0 0 0 0 1
12fe52edcb1f9bc266cd20a915dc6226dad571bc [FaultTracer] Extracted changes: 0 0 1 0 0 0 0 0 0 0 0 0 0 0 0 1 0 0 0 0 0 0 0 0 0 0 0 1
35bc3273e1bac646783a925b92f414e69980ee42 [FaultTracer] Extracted changes: 0 0 0 0 0 0 0 0 0 0 0 0 0 0 0 0 0 0 0 0 0 0 0 0 0 0 0 0
4ea74f7c30215166dac49e6a74a8bf7ae0b9b412 [FaultTracer] Extracted changes: 0 1 14 5 0 0 1 0 0 0 0 0 0 0 0 10 0 0 1 0 0 0 0 0 0 0 0 8
08e066ef0485a06b45ebc2b82f4a6a7c49aaff25 [FaultTracer] Extracted changes: 0 0 4 0 0 0 1 0 0 1 0 0 0 0 0 3 0 0 1 0 0 1 0 0 0 0 0 2
808fd5ec841056f2e2bfd66735ac774f4a0898e7 [FaultTracer] Extracted changes: 0 0 0 0 0 0 0 0 0 0 0 0 0 0 0 0 0 0 0 0 0 0 0 0 0 0 0 0
e721509fcd816d62bf7c74e89e8666624abb6ee8 [FaultTracer] Extracted changes: 0 0 0 0 0 0 0 0 0 0 0 0 0 0 0 0 0 0 0 0 0 0 0 0 0 0 0 0
5d61f564f8b1f5e4620e57cad557173d825046e8 [FaultTracer] Extracted changes: 0 0 2 1 0 0 0 0 0 0 0 0 0 0 1 0 0 0 0 0 0 0 0 0 0 0 1 0
c8c9329c518186865a2d279a58b53e291086a280 [FaultTracer] Extracted changes: 0 0 0 0 0 0 0 0 0 0 0 0 0 0 0 0 0 0 0 0 0 0 0 0 0 0 0 0
bed7e8f5672121c3f17e22b2b5d5d468d0412c82 [FaultTracer] Extracted changes: 0 0 0 0 0 0 0 0 0 0 0 0 0 0 0 0 0 0 0 0 0 0 0 0 0 0 0 0
a7393c9a8a4281a550e525f458f11173dbb0ab1e [FaultTracer] Extracted changes: 0 0 0 0 0 0 0 0 0 0 0 0 0 0 0 0 0 0 0 0 0 0 0 0 0 0 0 0
acab2e0b1445c1767770652fac3d30f07328ee63 [FaultTracer] Extracted changes: 0 0 0 0 0 0 0 0 0 0 0 0 0 0 0 0 0 0 0 0 0 0 0 0 0 0 0 0
205d045f13a0611038501835c44a11d63d44db1e [FaultTracer] Extracted changes: 0 0 0 0 0 0 0 0 0 0 0 0 0 0 0 0 0 0 0 0 0 0 0 0 0 0 0 0
0f0a25c59006576bff132c1ca12e9cfdd6cec501 [FaultTracer] Extracted changes: 0 0 2 0 0 0 1 0 0 0 0 0 0 0 0 2 0 0 1 0 0 0 0 0 0 0 0 2
edafd03ede4a497d8c44848e269cddd08ef4197f [FaultTracer] Extracted changes: 0 0 0 0 0 0 0 0 0 0 0 0 0 0 0 0 0 0 0 0 0 0 0 0 0 0 0 0
8fd4dfce353ff57482cee594106824e114149b5f [FaultTracer] Extracted changes: 0 0 0 0 0 0 0 0 0 0 0 0 0 0 0 0 0 0 0 0 0 0 0 0 0 0 0 0
356a20ff2bc94e37504ac4ef861715813b4b542d [FaultTracer] Extracted changes: 0 0 0 0 0 0 0 0 0 0 0 0 0 0 0 0 0 0 0 0 0 0 0 0 0 0 0 0
b76da882a3bc005927eba330ab93e64f280e04ba [FaultTracer] Extracted changes: 0 0 1 0 0 0 0 0 0 0 0 0 0 0 0 4 0 0 0 0 0 0 0 0 0 0 0 1
22183c68c099696d71e3a953dff52b95f688aac3 [FaultTracer] Extracted changes: 0 0 1 0 0 0 0 0 0 0 0 0 0 0 0 1 0 0 0 0 0 0 0 0 0 0 0 1
3f4a0e09d2241221397c6de376464a7877518bee [FaultTracer] Extracted changes: 0 0 1 0 0 0 0 0 0 0 0 0 1 0 0 0 0 0 0 0 0 0 0 0 1 0 0 0
37f6b481740a1243ea859c41a224079bc86fa9a5 [FaultTracer] Extracted changes: 0 0 0 0 0 0 0 0 0 0 0 0 0 0 0 0 0 0 0 0 0 0 0 0 0 0 0 0
20e8f567340739d2cc08cd8e1ea65468b437f6e9 [FaultTracer] Extracted changes: 0 0 0 0 0 0 0 0 0 0 0 0 0 0 0 0 0 0 0 0 0 0 0 0 0 0 0 0
34ce0ac7e85e4845d20ccf00fbb9f4946b686785 [FaultTracer] Extracted changes: 0 0 0 0 0 0 0 0 0 0 0 0 0 0 0 0 0 0 0 0 0 0 0 0 0 0 0 0
e03e933081eaadc76f1d419236691326ed29287e [FaultTracer] Extracted changes: 0 0 0 0 0 0 0 0 0 0 0 0 0 0 0 0 0 0 0 0 0 0 0 0 0 0 0 0
6901d07f7f12baae1114edb7e26ae4468d78eeab [FaultTracer] Extracted changes: 0 0 0 0 0 0 0 0 0 0 0 0 0 0 0 0 0 0 0 0 0 0 0 0 0 0 0 0
8c1bc746ccb221d2f8dfb7f652ae477778e89ece [FaultTracer] Extracted changes: 0 0 0 0 0 0 0 0 0 0 0 0 0 0 0 0 0 0 0 0 0 0 0 0 0 0 0 0
cd3f19bb74be63493941d148727bd64a504f0946 [FaultTracer] Extracted changes: 0 0 0 0 0 0 0 0 0 0 0 0 0 0 0 0 0 0 0 0 0 0 0 0 0 0 0 0
3720991db793bfcd018463affdf33bc6f993a034 [FaultTracer] Extracted changes: 0 0 0 0 0 0 0 0 0 0 0 0 0 0 0 0 0 0 0 0 0 0 0 0 0 0 0 0
2cb9ab599a201e75f6a4e4f03d4e0e3b729566b1 [FaultTracer] Extracted changes: 0 0 0 0 0 0 0 0 0 0 0 0 0 0 0 0 0 0 0 0 0 0 0 0 0 0 0 0
82bb44fe36270805688a3021e6f48b702d65d1e7 [FaultTracer] Extracted changes: 0 0 1 0 0 0 0 0 0 0 0 0 0 0 0 1 0 0 0 0 0 0 0 0 0 0 0 1
bdf0b337ea209c7e3fd7de52f4da3b1afa0678aa [FaultTracer] Extracted changes: 0 0 0 0 0 0 0 0 0 0 0 0 0 0 0 0 0 0 0 0 0 0 0 0 0 0 0 0
46fe8ffd4f456d7bebf4602d2d3f582e293a3995 [FaultTracer] Extracted changes: 0 0 0 0 0 0 0 0 0 0 0 0 0 0 0 0 0 0 0 0 0 0 0 0 0 0 0 0
27be38e7a8fc3051715e8526ecb46a3ed78c35f6 [FaultTracer] Extracted changes: 0 0 1 0 0 0 0 0 0 1 0 0 0 0 0 0 0 0 0 0 0 1 0 0 0 0 0 0
84569146121e5f1b6772430b1f9c0b9b0f124724 [FaultTracer] Extracted changes: 0 0 1 0 0 0 0 0 0 0 0 0 0 0 0 1 0 0 0 0 0 0 0 0 0 0 0 1
85a7a2b27cd5d2a1a69ae2746bdaf32f7f021b07 [FaultTracer] Extracted changes: 0 0 0 0 0 0 0 0 0 0 0 0 0 0 0 0 0 0 0 0 0 0 0 0 0 0 0 0
2175244c772815e8a03e8e7b0af4f4907979ba08 [FaultTracer] Extracted changes: 0 0 1 0 0 0 0 0 0 0 0 0 0 0 0 1 0 0 0 0 0 0 0 0 0 0 0 1
a36aeedc119669fafbc5552107936ef3ee019334 [FaultTracer] Extracted changes: 0 0 0 0 0 0 0 0 0 0 0 0 0 0 0 0 0 0 0 0 0 0 0 0 0 0 0 0
4c584eec41a08981ba008b8de3279ea38a889a30 [FaultTracer] Extracted changes: 0 0 1 0 0 0 0 0 0 0 0 0 0 0 1 1 0 0 0 0 0 0 0 0 0 0 1 1
156945b7f1b1760d60789d996f14b9cc0942d393 [FaultTracer] Extracted changes: 0 0 0 0 0 0 0 0 0 0 0 0 0 0 0 0 0 0 0 0 0 0 0 0 0 0 0 0
a7af7cb266e03c745b9cdaaa30db9bbb853a85fd [FaultTracer] Extracted changes: 0 0 0 0 0 0 0 0 0 0 0 0 0 0 0 0 0 0 0 0 0 0 0 0 0 0 0 0
802231417ea7f7e78568845be153e83fda526a31 [FaultTracer] Extracted changes: 0 4 7 2 0 0 0 0 0 0 0 0 0 0 0 0 0 0 0 0 0 0 0 0 0 0 0 0
f8e826ec114e9d6f86f61676b4c106dc4260c736 [FaultTracer] Extracted changes: 0 0 2 0 0 0 0 0 0 0 0 0 0 1 4 2 0 0 0 0 0 0 0 0 0 1 2 1
504838bd5208b9482fe5c953630749b3f02fac81 [FaultTracer] Extracted changes: 0 3 3 0 0 0 0 0 6 4 0 0 0 0 2 2 0 0 0 0 2 1 0 0 0 0 2 1
92c6d6d58f9c3f8d8370459d364daa0925ca7980 [FaultTracer] Extracted changes: 0 0 0 0 0 0 0 0 0 0 0 0 0 0 0 0 0 0 0 0 0 0 0 0 0 0 0 0
e5d6801d20e55fdb3cdf8b081d43069fb9f5700b [FaultTracer] Extracted changes: 0 3 3 1 0 0 0 0 0 0 0 0 0 0 8 1 0 0 0 0 0 0 0 0 0 0 2 1
aa276d1adf6c3bf79340d26008a3ac760acefbc5 [FaultTracer] Extracted changes: 0 18 1 0 0 0 1 0 0 0 0 0 0 0 1 3 0 0 1 0 0 0 0 0 0 0 1 1
6f6e4bc01a267342ba43e7c1f2625250d8539293 [FaultTracer] Extracted changes: 0 14 1 0 0 0 0 0 0 0 0 0 0 0 0 2 0 0 0 0 0 0 0 0 0 0 0 1
7bb417462f63c9a91c757fba5c5f00f937032879 [FaultTracer] Extracted changes: 0 0 1 0 0 0 0 0 0 0 0 0 0 0 0 2 0 0 0 0 0 0 0 0 0 0 0 1
ecfbc081e124bced65359f675aa7d46cd2371edc [FaultTracer] Extracted changes: 0 0 0 0 0 0 0 0 0 0 0 0 0 0 0 0 0 0 0 0 0 0 0 0 0 0 0 0
0a62851664ce23a07709908baa58529195b2fc67 [FaultTracer] Extracted changes: 0 0 0 0 0 0 0 0 0 0 0 0 0 0 0 0 0 0 0 0 0 0 0 0 0 0 0 0
e3fbe546a35ffb0b821dd70a57e402ae34a87239 [FaultTracer] Extracted changes: 0 0 0 0 0 0 0 0 0 0 0 0 0 0 0 0 0 0 0 0 0 0 0 0 0 0 0 0
465e5e4d218b8ec19f057c2b6bfc1a20680020d3 [FaultTracer] Extracted changes: 0 0 0 0 0 0 0 0 0 0 0 0 0 0 0 0 0 0 0 0 0 0 0 0 0 0 0 0
818b78f0dd36bd3b9c7fff3f5fbc65f0ef987823 [FaultTracer] Extracted changes: 0 0 0 0 0 0 0 0 0 0 0 0 0 0 0 0 0 0 0 0 0 0 0 0 0 0 0 0
b8e93db2734576edf36a76678144f8750aa0372f [FaultTracer] Extracted changes: 0 0 0 0 0 0 0 0 0 0 0 0 0 0 0 0 0 0 0 0 0 0 0 0 0 0 0 0
