0c2eb1b30cd5fbd4c661208e52b7f3eba23283f6 [FaultTracer] Extracted changes: 1 1 17 9 0 0 0 1 1 2 0 0 4 0 0 31 0 0 0 1 1 2 0 0 1 0 0 5
0b771bff43c7e9eb1901e1c42f8ee51a79a77829 [FaultTracer] Extracted changes: 0 0 5 0 0 0 0 1 1 2 0 0 0 0 0 3 0 0 0 1 1 2 0 0 0 0 0 3
baf4d37df89bfd3c5ad8772a4b7e3beddf7fff44 [FaultTracer] Extracted changes: 0 0 0 0 0 0 0 0 0 0 0 0 0 0 0 0 0 0 0 0 0 0 0 0 0 0 0 0
fba36461b84b2d37321ecb34905ecd43c7db642b [FaultTracer] Extracted changes: 0 0 0 0 0 0 0 0 0 0 0 0 0 0 0 0 0 0 0 0 0 0 0 0 0 0 0 0
c09fa77be1b3aac00a7986c420f4dd7270f28f73 [FaultTracer] Extracted changes: 0 0 0 0 0 0 0 0 0 0 0 0 0 0 0 0 0 0 0 0 0 0 0 0 0 0 0 0
fcd0d20316b11c4f6d68f239917097510209570c [FaultTracer] Extracted changes: 0 0 0 0 0 0 0 0 0 0 0 0 0 0 0 0 0 0 0 0 0 0 0 0 0 0 0 0
bf7deec4a09e29739f9b9d6636e966e8f803f431 [FaultTracer] Extracted changes: 0 0 1 0 0 0 0 0 0 0 0 0 0 0 0 1 0 0 0 0 0 0 0 0 0 0 0 1
443f5bc50064380b78f5eb3165e014c04798a76f [FaultTracer] Extracted changes: 0 0 3 0 0 0 0 0 0 0 0 0 0 0 0 3 0 0 0 0 0 0 0 0 0 0 0 3
89077b20e2f7798b5bded1cf414706e12a75a4b7 [FaultTracer] Extracted changes: 0 0 3 0 0 0 0 1 1 0 0 0 0 0 0 3 0 0 0 1 1 0 0 0 0 0 0 3
6775c13ee57a7d96cece585eb72f8c1651489d6c [FaultTracer] Extracted changes: 0 0 3 2 0 0 0 0 0 0 0 0 0 0 0 1 0 0 0 0 0 0 0 0 0 0 0 1
7731f476807fd16e15bdad6b4de7f0c3687147f6 [FaultTracer] Extracted changes: 0 0 0 0 0 0 0 0 0 0 0 0 0 0 0 0 0 0 0 0 0 0 0 0 0 0 0 0
7bc4748d33f4b56a2fcc7d472666785b239659f4 [FaultTracer] Extracted changes: 0 0 0 0 0 0 0 0 0 0 0 0 0 0 0 0 0 0 0 0 0 0 0 0 0 0 0 0
94e30edd59aeed98e0bb3998cb1571804c9f39a1 [FaultTracer] Extracted changes: 0 0 3 2 0 0 0 0 0 0 0 0 0 0 0 1 0 0 0 0 0 0 0 0 0 0 0 1
538db6b91242a7a6f43b9f51462157e6c8ad9bb3 [FaultTracer] Extracted changes: 0 0 0 0 0 0 0 0 0 0 0 0 0 0 0 0 0 0 0 0 0 0 0 0 0 0 0 0
2233866d844def8d8f79514b814de52da3f912ad [FaultTracer] Extracted changes: 0 0 9 7 0 0 0 0 0 0 0 0 0 0 0 0 0 0 0 0 0 0 0 0 0 0 0 0
1115775b102826cea922882a98f6cfc06605a378 [FaultTracer] Extracted changes: 0 1 28 8 0 0 0 0 0 0 0 0 0 0 0 35 0 0 0 0 0 0 0 0 0 0 0 18
490e2ec0a0a4ffc588ff15f9a187647af8352546 [FaultTracer] Extracted changes: 1 0 31 13 0 0 0 0 0 0 0 0 0 0 0 31 0 0 0 0 0 0 0 0 0 0 0 17
24f5b47e2c63778800410bdaa4c8a831bb44b72b [FaultTracer] Extracted changes: 0 1 31 13 0 0 0 0 0 0 0 0 0 0 0 31 0 0 0 0 0 0 0 0 0 0 0 17
e8fe34b0cc8e249ee64d291f9385197e6834911c [FaultTracer] Extracted changes: 0 0 1 0 0 0 0 0 0 0 0 0 0 0 0 0 0 0 0 0 0 0 0 0 0 0 0 0
a6826bd7a3e9b458c9dc010af432f741064dbce6 [FaultTracer] Extracted changes: 0 0 6 2 0 0 0 0 0 0 0 0 0 0 0 2 0 0 0 0 0 0 0 0 0 0 0 2
1b98034698b0a3c21108c147b5afbeed60dac870 [FaultTracer] Extracted changes: 2 12 1 1 0 0 0 0 0 0 0 0 0 0 0 0 0 0 0 0 0 0 0 0 0 0 0 0
1f01ee76c468dbd924d961fc6b061f954e93525d [FaultTracer] Extracted changes: 0 2 2 1 0 0 0 0 0 0 0 0 0 0 0 2 0 0 0 0 0 0 0 0 0 0 0 1
61c7561b219727e297d31e073d85147cd93f9782 [FaultTracer] Extracted changes: 0 0 7 1 0 0 0 0 0 0 0 0 0 0 0 7 0 0 0 0 0 0 0 0 0 0 0 4
125371a9a3f00894a16b0903f7b3815cd5358bc1 [FaultTracer] Extracted changes: 0 0 5 2 2 0 0 2 2 0 0 0 0 0 0 2 2 0 0 2 2 0 0 0 0 0 0 2
66bea86171914d61d142e9bd83d380f1e0666e21 [FaultTracer] Extracted changes: 0 1 1 1 0 0 0 0 0 0 0 0 0 0 0 0 0 0 0 0 0 0 0 0 0 0 0 0
a3cdec6711c961b85ec4e6c549752312f1f2e6a6 [FaultTracer] Extracted changes: 0 0 11 0 0 0 0 0 0 1 0 0 0 0 1 10 0 0 0 0 0 1 0 0 0 0 1 10
a71027e42d59f4b8f1762438eca7b32f84531d6a [FaultTracer] Extracted changes: 0 18 33 9 0 0 0 1 1 1 0 1 1 0 0 37 0 0 0 1 1 1 0 1 1 0 0 22
9c9bacc7cbc93df422352bc2c03540302bac7e40 [FaultTracer] Extracted changes: 0 10 10 8 0 0 0 0 0 0 0 0 0 0 1 0 0 0 0 0 0 0 0 0 0 0 1 0
ed4536ab1b4c42f4fe568625ffe33240146f977a [FaultTracer] Extracted changes: 0 0 2 0 0 0 0 0 0 0 0 0 0 0 0 3 0 0 0 0 0 0 0 0 0 0 0 2
9878c65ec94390ce27877747dab7d332615acef6 [FaultTracer] Extracted changes: 0 0 9 8 0 0 0 0 0 0 0 0 0 0 0 2 0 0 0 0 0 0 0 0 0 0 0 1
01c6363d346b7db4cac42bc479ca535d34ce202c [FaultTracer] Extracted changes: 0 0 1 0 0 0 0 0 0 0 0 0 0 0 0 0 0 0 0 0 0 0 0 0 0 0 0 0
eb015a3f8543a66cc62bfd77009d354985d2e974 [FaultTracer] Extracted changes: 0 0 0 0 0 0 0 0 0 0 0 0 0 0 0 0 0 0 0 0 0 0 0 0 0 0 0 0
e151cf7661ad8a23f18212ad9841742dd60e69a1 [FaultTracer] Extracted changes: 0 0 5 3 0 0 0 0 0 0 0 0 1 0 0 0 0 0 0 0 0 0 0 0 1 0 0 0
ad2e34b9838b3330f2050711e6e07a05c11a451d [FaultTracer] Extracted changes: 0 0 1 0 0 0 0 0 0 0 0 0 0 0 0 1 0 0 0 0 0 0 0 0 0 0 0 1
5a672d859e7abdddd615aab4611d1acfbc1d544b [FaultTracer] Extracted changes: 0 0 1 0 0 0 0 0 0 0 0 0 0 0 0 1 0 0 0 0 0 0 0 0 0 0 0 1
601bc41a91c0c024e8f8171c5dd25903fc32911e [FaultTracer] Extracted changes: 4 4 0 0 0 0 0 0 0 0 0 0 0 0 0 0 0 0 0 0 0 0 0 0 0 0 0 0
fdf99f9186f626edca9e6651048e72e4b5436abf [FaultTracer] Extracted changes: 4 1 10 7 0 0 0 1 1 0 0 0 0 0 0 3 0 0 0 1 1 0 0 0 0 0 0 2
e09b0c6e843fa3e67f9d8939d53866c9aa7eb293 [FaultTracer] Extracted changes: 0 0 2 0 0 0 0 0 0 0 0 0 0 0 0 0 0 0 0 0 0 0 0 0 0 0 0 0
4f78a9b45abc7ea96b23f3dc86b5e82d3b05b716 [FaultTracer] Extracted changes: 0 0 1 0 0 0 0 0 0 0 0 0 0 0 0 0 0 0 0 0 0 0 0 0 0 0 0 0
ae9a541693a0fe10fd8b6d7ce01ff8682b10a4fd [FaultTracer] Extracted changes: 0 1 5 2 0 0 0 0 1 1 0 0 0 0 1 1 0 0 0 0 1 1 0 0 0 0 1 1
a3462b82a90f451d31f80674d2c8d5242df28e22 [FaultTracer] Extracted changes: 50 10 77 35 0 2 0 5 4 3 1 0 2 3 0 49 0 2 0 5 4 3 1 0 2 3 0 37
26a91c857b31644d22eafd41eaa6f235b84de78f [FaultTracer] Extracted changes: 10 50 77 35 2 0 0 4 5 3 0 1 2 0 3 49 2 0 0 4 5 3 0 1 2 0 3 37
ca59be426b3f43f54591810974d2e81d68628616 [FaultTracer] Extracted changes: 0 0 1 0 0 0 0 0 0 0 0 0 0 0 0 0 0 0 0 0 0 0 0 0 0 0 0 0
362c480a5a836a27bfd6b28f91c538469b96296d [FaultTracer] Extracted changes: 0 0 1 0 0 0 0 0 0 0 0 0 0 0 0 0 0 0 0 0 0 0 0 0 0 0 0 0
cb7ae10ec066c1e1644bf646c4566e1ef1e3a904 [FaultTracer] Extracted changes: 0 1 2 0 0 0 0 0 0 0 0 0 0 0 0 1 0 0 0 0 0 0 0 0 0 0 0 1
3a29f0036febf09bbd50641ed3b888fec199a0cc [FaultTracer] Extracted changes: 0 1 2 0 0 0 0 0 0 0 0 0 0 0 0 1 0 0 0 0 0 0 0 0 0 0 0 1
45e767968f7691d40bf24d8a296451c7d8a010d3 [FaultTracer] Extracted changes: 0 0 1 0 0 0 0 0 0 0 0 0 0 0 0 0 0 0 0 0 0 0 0 0 0 0 0 0
1de4c600292d7436280265b11667a1f70dd7b173 [FaultTracer] Extracted changes: 0 0 0 0 0 0 0 0 0 0 0 0 0 0 0 0 0 0 0 0 0 0 0 0 0 0 0 0
2bfd29c994786b2b9107787fcba219c23b60f14c [FaultTracer] Extracted changes: 0 0 0 0 0 0 0 0 0 0 0 0 0 0 0 0 0 0 0 0 0 0 0 0 0 0 0 0
3f295ff6cb96701d93268d33fe48c17eac02837d [FaultTracer] Extracted changes: 0 0 0 0 0 0 0 0 0 0 0 0 0 0 0 0 0 0 0 0 0 0 0 0 0 0 0 0
3d3dff89789f2405a2fb3ffd400933c6c2203100 [FaultTracer] Extracted changes: 5 9 18 14 0 0 0 0 0 0 0 0 2 0 0 1 0 0 0 0 0 0 0 0 1 0 0 1
114ed25fbe3c90238f554bb8d22b7ddfd1bee1b7 [FaultTracer] Extracted changes: 0 2 12 8 0 0 0 0 0 0 0 0 0 0 0 3 0 0 0 0 0 0 0 0 0 0 0 2
9b82428b6fbf774a3484ad924b9d14d15dc760da [FaultTracer] Extracted changes: 0 3 2 0 0 0 0 0 0 0 0 0 0 0 0 2 0 0 0 0 0 0 0 0 0 0 0 2
be662c2dcba3b7ccaf2428fe67a74d7586143f43 [FaultTracer] Extracted changes: 0 13 0 0 0 0 0 0 0 0 0 0 0 0 0 0 0 0 0 0 0 0 0 0 0 0 0 0
42d6838378edb5ea7a621e7b52f4f6a0c5c45866 [FaultTracer] Extracted changes: 0 4 115 52 0 0 0 0 0 4 0 0 12 0 0 198 0 0 0 0 0 4 0 0 2 0 0 59
c4374b68b0b3fb539a6a56460bd13aac1ca58d80 [FaultTracer] Extracted changes: 0 0 10 0 0 0 0 0 0 0 0 0 0 0 0 15 0 0 0 0 0 0 0 0 0 0 0 10
fd810b7b283e04c3969ab61f1c55b2055f9d5adf [FaultTracer] Extracted changes: 0 1 67 22 0 0 0 0 0 0 0 1 3 0 10 106 0 0 0 0 0 0 0 1 2 0 5 43
17a6c82bcc1f3538d8ea1a6448b588e6d3e3b6ee [FaultTracer] Extracted changes: 0 0 0 0 0 0 0 0 0 0 0 0 0 0 0 0 0 0 0 0 0 0 0 0 0 0 0 0
6d62722673b48befc6ef91855f8dbddd428f683e [FaultTracer] Extracted changes: 0 3 7 4 0 0 0 0 1 0 0 0 0 0 0 0 0 0 0 0 1 0 0 0 0 0 0 0
b9190ec5d87eeebca0f38db16b6e583c7362653f [FaultTracer] Extracted changes: 6 12 30 10 0 0 0 1 1 0 0 0 0 0 0 27 0 0 0 1 1 0 0 0 0 0 0 19
722a8b5c81c04539e4ad03f9e04d0ffdf819aa20 [FaultTracer] Extracted changes: 1 1 4 0 0 0 1 0 0 2 0 0 0 0 0 2 0 0 1 0 0 2 0 0 0 0 0 2
edd08e13aa8d4df67f2ef7d2e58df6bfeedfff6d [FaultTracer] Extracted changes: 3 3 32 12 0 0 0 0 0 5 0 0 0 8 0 71 0 0 0 0 0 5 0 0 0 4 0 16
c92b1f5416fd80fa73c96fca6315555847f3efc5 [FaultTracer] Extracted changes: 1 1 1 0 0 0 0 0 0 1 0 0 0 0 0 0 0 0 0 0 0 1 0 0 0 0 0 0
9d9cdeee0c7f1b95a0b72579d018df8db26af479 [FaultTracer] Extracted changes: 1 1 2 0 0 0 0 0 0 1 0 0 0 0 0 1 0 0 0 0 0 1 0 0 0 0 0 1
868063c0aba7a3c4b1ba2b0b9828da68b5bbaa9f [FaultTracer] Extracted changes: 1 11 12 4 0 0 0 0 0 4 0 0 0 0 0 8 0 0 0 0 0 4 0 0 0 0 0 4
6f7c85ddeaf239f9377fc8bff358a87228eefede [FaultTracer] Extracted changes: 1 5 2 1 0 0 0 0 0 1 0 0 0 0 0 0 0 0 0 0 0 1 0 0 0 0 0 0
1ae95e70baec0d4c0db3d86b27d2117f315c0b76 [FaultTracer] Extracted changes: 1 1 1 0 0 0 0 0 0 1 0 0 0 0 0 0 0 0 0 0 0 1 0 0 0 0 0 0
2a706b28bfb4788bca1601a13cd59c68879aa8fb [FaultTracer] Extracted changes: 1 4 5 0 0 0 2 0 0 2 0 1 1 0 0 2 0 0 2 0 0 2 0 1 1 0 0 2
ba8b488d4968d74315119ee8fcf2382bf92a628b [FaultTracer] Extracted changes: 1 1 1 0 0 0 0 0 0 1 0 0 0 0 0 0 0 0 0 0 0 1 0 0 0 0 0 0
