cbea3176308e86c6c5c82dbcb8fde367945ca1a0 [FaultTracer] Extracted changes: 0 0 1 0 0 0 0 0 0 0 0 0 1 0 0 0 0 0 0 0 0 0 0 0 1 0 0 0
7ff71807ce589931a56ae6f1306af43c6b8632e7 [FaultTracer] Extracted changes: 0 0 0 0 0 0 0 0 0 0 0 0 0 0 0 0 0 0 0 0 0 0 0 0 0 0 0 0
1123f6d70b95773f95cb634d916b3399473eb0e5 [FaultTracer] Extracted changes: 1 1 0 0 0 0 0 0 0 0 0 0 0 0 0 0 0 0 0 0 0 0 0 0 0 0 0 0
ee7ee35245d3863d16c884a8e1c381ea8ab3472b [FaultTracer] Extracted changes: 0 0 1 0 0 0 0 0 0 0 0 2 0 0 0 0 0 0 0 0 0 0 0 1 0 0 0 0
4a6c36401518a45a709ade671d442e061138d3ec [FaultTracer] Extracted changes: 0 0 0 0 0 0 0 0 0 0 0 0 0 0 0 0 0 0 0 0 0 0 0 0 0 0 0 0
5590b9510bfec5b0803f6d6bc5f78fd851564c34 [FaultTracer] Extracted changes: 0 0 0 0 0 0 0 0 0 0 0 0 0 0 0 0 0 0 0 0 0 0 0 0 0 0 0 0
a07852203d041ab68438262d0803cae7659e4ee2 [FaultTracer] Extracted changes: 0 0 1 0 0 0 0 0 0 0 0 0 0 2 0 0 0 0 0 0 0 0 0 0 0 1 0 0
c76e008480a8230cd2a21226a5fbd9e7ac50f39a [FaultTracer] Extracted changes: 0 0 0 0 0 0 0 0 0 0 0 0 0 0 0 0 0 0 0 0 0 0 0 0 0 0 0 0
ae5df796be80dfafb523072e4efb30e34dbee46e [FaultTracer] Extracted changes: 0 0 1 0 0 0 0 0 0 0 0 0 1 0 0 0 0 0 0 0 0 0 0 0 1 0 0 0
7e19596505676c5b300bddc39792289441634f02 [FaultTracer] Extracted changes: 0 0 0 0 0 0 0 0 0 0 0 0 0 0 0 0 0 0 0 0 0 0 0 0 0 0 0 0
752d64769a5ec69b832d974dd679448ae45088e1 [FaultTracer] Extracted changes: 0 0 2 0 0 0 0 0 0 0 35 4 0 3 0 6 0 0 0 0 0 0 1 1 0 1 0 1
f054152346cbd7c8afcdcdaf55c39f9967edacf1 [FaultTracer] Extracted changes: 0 0 2 0 0 0 0 0 1 1 4 2 0 0 8 1 0 0 0 0 1 1 1 1 0 0 1 1
346009fc677b252d052e9ee22c6a4cd2be10a032 [FaultTracer] Extracted changes: 0 0 0 0 0 0 0 0 0 0 0 0 0 0 0 0 0 0 0 0 0 0 0 0 0 0 0 0
a3816d270fdd2d9d5db285e21b74897df7f2a755 [FaultTracer] Extracted changes: 0 0 1 0 0 0 0 0 1 1 0 3 0 0 8 0 0 0 0 0 1 1 0 1 0 0 1 0
4c84e204cbce349f3c5722750561b91607d3fcae [FaultTracer] Extracted changes: 0 0 2 0 0 0 0 0 0 0 0 0 0 2 0 0 0 0 0 0 0 0 0 0 0 2 0 0
53fd5f39f2897a27e06526db41aa7a4499f4ce16 [FaultTracer] Extracted changes: 0 0 2 0 0 0 0 0 0 2 0 0 0 0 0 0 0 0 0 0 0 2 0 0 0 0 0 0
c353239c4fd22b8991e1488ce81218b1c9769bf9 [FaultTracer] Extracted changes: 0 0 0 0 0 0 0 0 0 0 0 0 0 0 0 0 0 0 0 0 0 0 0 0 0 0 0 0
3753e3c699e48f5879dce182f2bae12d409f3650 [FaultTracer] Extracted changes: 0 0 0 0 0 0 0 0 0 0 0 0 0 0 0 0 0 0 0 0 0 0 0 0 0 0 0 0
d2bfb078ea7660448481f3b8f91d2176b92708f8 [FaultTracer] Extracted changes: 0 0 1 0 0 0 0 0 0 1 0 0 0 0 1 1 0 0 0 0 0 1 0 0 0 0 1 1
516f6889c9153a59110d3ee9bdd907e95e10cc08 [FaultTracer] Extracted changes: 0 0 0 0 0 0 0 0 0 0 0 0 0 0 0 0 0 0 0 0 0 0 0 0 0 0 0 0
8bac2b6a1bd110cd171c89e75f68cd9a69624315 [FaultTracer] Extracted changes: 1 1 0 0 0 0 0 0 0 0 0 0 0 0 0 0 0 0 0 0 0 0 0 0 0 0 0 0
7b6bf45d83c3ec028e686318b8d4f1a061723908 [FaultTracer] Extracted changes: 0 0 0 0 0 0 0 0 0 0 0 0 0 0 0 0 0 0 0 0 0 0 0 0 0 0 0 0
5fe700afb8bcc989a6778f61fe6d15c0fa08f862 [FaultTracer] Extracted changes: 0 0 0 0 0 0 0 0 0 0 0 0 0 0 0 0 0 0 0 0 0 0 0 0 0 0 0 0
a2fb29d03eee1b396253804e6c0b21e4781e2487 [FaultTracer] Extracted changes: 0 0 0 0 0 0 0 0 0 0 0 0 0 0 0 0 0 0 0 0 0 0 0 0 0 0 0 0
f99b8f9c5cd4bce5590d14355412f6d3f4dca118 [FaultTracer] Extracted changes: 0 0 0 0 0 0 0 0 0 0 0 0 0 0 0 0 0 0 0 0 0 0 0 0 0 0 0 0
67e19adab2c2da1306020d251ac18689a4387a09 [FaultTracer] Extracted changes: 0 0 1 0 0 0 0 0 0 0 0 0 0 0 0 0 0 0 0 0 0 0 0 0 0 0 0 0
b72dee3f2590f842283f1a383a384fb1e680d463 [FaultTracer] Extracted changes: 0 0 0 0 0 0 0 0 0 0 0 0 0 0 0 0 0 0 0 0 0 0 0 0 0 0 0 0
d80fbe4ae28502d01ac948239504ffe5065dca47 [FaultTracer] Extracted changes: 0 2 0 0 0 0 0 0 0 0 0 0 0 0 0 0 0 0 0 0 0 0 0 0 0 0 0 0
817666037d3c09b9138b161964b0fafc76d65998 [FaultTracer] Extracted changes: 0 0 0 0 0 0 0 0 0 0 0 0 0 0 0 0 0 0 0 0 0 0 0 0 0 0 0 0
83769435ac5fb64c12d6f572b5f4a2a594f324b9 [FaultTracer] Extracted changes: 0 0 0 0 0 0 0 0 0 0 0 0 0 0 0 0 0 0 0 0 0 0 0 0 0 0 0 0
5b5e0759459062064777dbb70827b3f65692cb2f [FaultTracer] Extracted changes: 0 0 1 0 0 0 0 0 0 0 0 0 0 0 1 3 0 0 0 0 0 0 0 0 0 0 1 1
c3b831fa7e4ad148d8e3abe2a0e3c089029044ed [FaultTracer] Extracted changes: 0 0 1 0 0 0 0 0 0 1 0 0 0 0 0 0 0 0 0 0 0 1 0 0 0 0 0 0
5a5bbc662104afe8f020d89d6e560f2897678984 [FaultTracer] Extracted changes: 0 0 0 0 0 0 0 0 0 0 0 0 0 0 0 0 0 0 0 0 0 0 0 0 0 0 0 0
a7c03cbe5195ee5f8ee618b8bd6710da09ccb5b7 [FaultTracer] Extracted changes: 0 0 1 0 0 0 0 0 0 1 0 0 0 0 0 1 0 0 0 0 0 1 0 0 0 0 0 1
f8c39cfd773d797adc1b4ee19aa8fc17268946ec [FaultTracer] Extracted changes: 0 0 0 0 0 0 0 0 0 0 0 0 0 0 0 0 0 0 0 0 0 0 0 0 0 0 0 0
61994fef1081c98b729a5e3bb8a1b6b5b9568a6d [FaultTracer] Extracted changes: 0 0 0 0 0 0 0 0 0 0 0 0 0 0 0 0 0 0 0 0 0 0 0 0 0 0 0 0
c0fdc948182f1d21cc4eb1448f764e63b6c48792 [FaultTracer] Extracted changes: 0 0 0 0 0 0 0 0 0 0 0 0 0 0 0 0 0 0 0 0 0 0 0 0 0 0 0 0
7817bfdadb9cda107955de03d3d15d64ab89b5dc [FaultTracer] Extracted changes: 0 0 0 0 0 0 0 0 0 0 0 0 0 0 0 0 0 0 0 0 0 0 0 0 0 0 0 0
ae70bfc75587321da4d6877420ac91f7a83b9c02 [FaultTracer] Extracted changes: 0 0 0 0 0 0 0 0 0 0 0 0 0 0 0 0 0 0 0 0 0 0 0 0 0 0 0 0
8ab0ecd0af3932f40b931e1d84b2951f7777a305 [FaultTracer] Extracted changes: 0 0 0 0 0 0 0 0 0 0 0 0 0 0 0 0 0 0 0 0 0 0 0 0 0 0 0 0
2d49c9595faf6332541956cb0826224e46c8d333 [FaultTracer] Extracted changes: 0 0 0 0 0 0 0 0 0 0 0 0 0 0 0 0 0 0 0 0 0 0 0 0 0 0 0 0
2e03eb8ec6af0c28218a6970a7fb32548431d1f9 [FaultTracer] Extracted changes: 0 0 0 0 0 0 0 0 0 0 0 0 0 0 0 0 0 0 0 0 0 0 0 0 0 0 0 0
162b6a92eb663663f394ed24a7e623d6bc88717c [FaultTracer] Extracted changes: 0 0 2 0 0 0 0 0 0 2 0 0 0 0 0 0 0 0 0 0 0 2 0 0 0 0 0 0
599e57b27c19953487dfa3828432b8ecc7cb8b38 [FaultTracer] Extracted changes: 0 0 0 0 0 0 0 0 0 0 0 0 0 0 0 0 0 0 0 0 0 0 0 0 0 0 0 0
9e0d37da73d60a7a1173e8bf10da1d2dddaadffe [FaultTracer] Extracted changes: 0 0 0 0 0 0 0 0 0 0 0 0 0 0 0 0 0 0 0 0 0 0 0 0 0 0 0 0
ba966190a1f61520201b7d62fdf69aa6515e2e73 [FaultTracer] Extracted changes: 0 0 4 0 0 0 0 0 0 0 0 0 2 0 0 2 0 0 0 0 0 0 0 0 2 0 0 2
27388c817bf558af48568ce724b9de080e80e8f1 [FaultTracer] Extracted changes: 0 0 1 0 0 0 0 0 0 0 0 0 0 0 0 0 0 0 0 0 0 0 0 0 0 0 0 0
68ae60d779e3bf4a46064fc1b537057478a627e4 [FaultTracer] Extracted changes: 0 0 1 0 0 0 0 0 0 0 0 0 0 0 0 1 0 0 0 0 0 0 0 0 0 0 0 1
c600de52e107d1fd3d5a9c1aa1bdbbd6754622a7 [FaultTracer] Extracted changes: 0 0 0 0 0 0 0 0 0 0 0 0 0 0 0 0 0 0 0 0 0 0 0 0 0 0 0 0
771a3b06f996de58151713ebee53e3906510e561 [FaultTracer] Extracted changes: 0 0 0 0 0 0 0 0 0 0 0 0 0 0 0 0 0 0 0 0 0 0 0 0 0 0 0 0
160c0ceb132cf8841bc4f10f35bb839df8a0999d [FaultTracer] Extracted changes: 0 0 0 0 0 0 0 0 0 0 0 0 0 0 0 0 0 0 0 0 0 0 0 0 0 0 0 0
2286eac40b80248a8f68ceac1f9b0084c2b9e07d [FaultTracer] Extracted changes: 0 0 1 0 0 0 0 0 1 1 3 2 0 1 0 0 0 0 0 0 1 1 1 1 0 1 0 0
8939061a3c0218dd3fd27f96f3e60e48f74622c6 [FaultTracer] Extracted changes: 0 0 3 0 0 0 0 0 1 2 2 2 36 14 20 1 0 0 0 0 1 1 1 1 1 2 2 1
3ea4d5d580a78213504a4611fc7bbab58b93db0c [FaultTracer] Extracted changes: 0 0 1 0 0 0 0 0 3 1 4 0 30 0 0 0 0 0 0 0 1 1 1 0 1 0 0 0
b5955f5948a973a248731b774773bd225af39c82 [FaultTracer] Extracted changes: 0 0 1 0 0 0 0 0 0 0 0 2 0 0 0 0 0 0 0 0 0 0 0 1 0 0 0 0
09db9daa292e74b6bcff84edf406aec41ecf536c [FaultTracer] Extracted changes: 0 0 1 0 0 0 0 0 0 1 0 0 0 0 0 15 0 0 0 0 0 1 0 0 0 0 0 1
410ab04290294dec74180043dc2aa635ca1e4e80 [FaultTracer] Extracted changes: 0 0 1 0 0 0 0 0 0 0 0 0 0 8 0 0 0 0 0 0 0 0 0 0 0 1 0 0
c7b540bae35372e92490fb47f75fac508fbf25ba [FaultTracer] Extracted changes: 0 0 0 0 0 0 0 0 0 0 0 0 0 0 0 0 0 0 0 0 0 0 0 0 0 0 0 0
9c23180caa3477049e7330c05624aa3b98688d2b [FaultTracer] Extracted changes: 0 0 0 0 0 0 0 0 0 0 0 0 0 0 0 0 0 0 0 0 0 0 0 0 0 0 0 0
423a010fa92d89ee1d82fb21f2f6e65c76dab755 [FaultTracer] Extracted changes: 0 0 0 0 0 0 0 0 0 0 0 0 0 0 0 0 0 0 0 0 0 0 0 0 0 0 0 0
81ab00df47a43a7b95731032d3711bcf836b05b4 [FaultTracer] Extracted changes: 0 0 0 0 0 0 0 0 0 0 0 0 0 0 0 0 0 0 0 0 0 0 0 0 0 0 0 0
f42d538b261584ab2a1805af60610cc205e141c6 [FaultTracer] Extracted changes: 0 0 0 0 0 0 0 0 0 0 0 0 0 0 0 0 0 0 0 0 0 0 0 0 0 0 0 0
e99eda74d7308d0ac93ae18a5077772e16cbbbdc [FaultTracer] Extracted changes: 0 0 0 0 0 0 0 0 0 0 0 0 0 0 0 0 0 0 0 0 0 0 0 0 0 0 0 0
457eea0e5e32dd64c1bee30bff7fc4ea3a1421cf [FaultTracer] Extracted changes: 0 0 2 0 0 0 0 1 1 0 0 0 1 0 0 0 0 0 0 1 1 0 0 0 1 0 0 0
db6f9bf17c1cbf9e6ce518318fe4d14119b87d60 [FaultTracer] Extracted changes: 0 0 1 0 1 0 0 0 0 0 0 0 0 0 0 0 1 0 0 0 0 0 0 0 0 0 0 0
337ed8bef567b6b385491ece5c63ffa84f056609 [FaultTracer] Extracted changes: 0 0 1 0 0 0 0 0 0 0 0 0 0 1 3 0 0 0 0 0 0 0 0 0 0 1 1 0
cc279433f33ad0c00e80ff5af734062d92c8a3f7 [FaultTracer] Extracted changes: 0 0 2 0 0 0 0 0 0 0 0 2 0 0 4 0 0 0 0 0 0 0 0 1 0 0 1 0
f0028e1b90f8d10266f3fe26bafa0882a81ffe82 [FaultTracer] Extracted changes: 0 0 2 0 0 0 2 0 0 0 0 0 1 0 0 0 0 0 2 0 0 0 0 0 1 0 0 0
efe3699122699151984e8499da9d42673a42851a [FaultTracer] Extracted changes: 0 0 0 0 0 0 0 0 0 0 0 0 0 0 0 0 0 0 0 0 0 0 0 0 0 0 0 0
e7e4a28b483fd58cd74b0604efb8b21e0c59c77f [FaultTracer] Extracted changes: 0 0 0 0 0 0 0 0 0 0 0 0 0 0 0 0 0 0 0 0 0 0 0 0 0 0 0 0
2a19a7b7507e8e3e02e010d636b355f2f0f3f6e3 [FaultTracer] Extracted changes: 0 0 0 0 0 0 0 0 0 0 0 0 0 0 0 0 0 0 0 0 0 0 0 0 0 0 0 0
07b1c978af613fb3f3b6bd2f7303cf9e9f9e99b8 [FaultTracer] Extracted changes: 0 0 0 0 0 0 0 0 0 0 0 0 0 0 0 0 0 0 0 0 0 0 0 0 0 0 0 0
a724274e58527d83067bc66892ee285c079af8c6 [FaultTracer] Extracted changes: 0 0 0 0 0 0 0 0 0 0 0 0 0 0 0 0 0 0 0 0 0 0 0 0 0 0 0 0
1895d14e1302522f4d9a11c4751573e943ca86bd [FaultTracer] Extracted changes: 0 0 0 0 0 0 0 0 0 0 0 0 0 0 0 0 0 0 0 0 0 0 0 0 0 0 0 0
eabb9149e138833c7f4a0ced15e5b6a919c223f3 [FaultTracer] Extracted changes: 0 0 0 0 0 0 0 0 0 0 0 0 0 0 0 0 0 0 0 0 0 0 0 0 0 0 0 0
1491a45fea0e989a0a59e7ff7c90e4272c18bbc7 [FaultTracer] Extracted changes: 0 0 0 0 0 0 0 0 0 0 0 0 0 0 0 0 0 0 0 0 0 0 0 0 0 0 0 0
12bd925fb23273bdd7e85f838bd50f1907103ecd [FaultTracer] Extracted changes: 0 0 0 0 0 0 0 0 0 0 0 0 0 0 0 0 0 0 0 0 0 0 0 0 0 0 0 0
5096786054bbe6fb3174a567622580a28fc6e386 [FaultTracer] Extracted changes: 0 0 0 0 0 0 0 0 0 0 0 0 0 0 0 0 0 0 0 0 0 0 0 0 0 0 0 0
