[INFO] Scanning for projects...
[INFO]                                                                         
[INFO] ------------------------------------------------------------------------
[INFO] Building stream-lib 2.9.3-SNAPSHOT
[INFO] ------------------------------------------------------------------------
[INFO] 
[INFO] --- jacoco-maven-plugin:0.7.1.201405082137:prepare-agent (default) @ stream ---
[INFO] argLine set to -javaagent:/home/lingming/.m2/repository/org/jacoco/org.jacoco.agent/0.7.1.201405082137/org.jacoco.agent-0.7.1.201405082137-runtime.jar=destfile=/home/lingming/hybrid-rts/subjects/stream-lib/8da108e69a349ac5b55a64f418b7dfe019f8c3a6/target/jacoco.exec
[INFO] 
[INFO] --- maven-resources-plugin:2.6:resources (default-resources) @ stream ---
[INFO] Using 'UTF-8' encoding to copy filtered resources.
[INFO] skip non existing resourceDirectory /home/lingming/hybrid-rts/subjects/stream-lib/8da108e69a349ac5b55a64f418b7dfe019f8c3a6/src/main/resources
[INFO] 
[INFO] --- maven-compiler-plugin:3.1:compile (default-compile) @ stream ---
[INFO] Nothing to compile - all classes are up to date
[INFO] 
[INFO] --- maven-resources-plugin:2.6:testResources (default-testResources) @ stream ---
[INFO] Using 'UTF-8' encoding to copy filtered resources.
[INFO] Copying 1 resource
[INFO] 
[INFO] --- maven-compiler-plugin:3.1:testCompile (default-testCompile) @ stream ---
[INFO] Nothing to compile - all classes are up to date
[INFO] 
[INFO] --- maven-surefire-plugin:2.17:test (default-test) @ stream ---
[INFO] Surefire report directory: /home/lingming/hybrid-rts/subjects/stream-lib/8da108e69a349ac5b55a64f418b7dfe019f8c3a6/target/surefire-reports

-------------------------------------------------------
 T E S T S
-------------------------------------------------------
Running com.clearspring.analytics.hash.TestMurmurHash
Tests run: 2, Failures: 0, Errors: 0, Skipped: 0, Time elapsed: 0.055 sec - in com.clearspring.analytics.hash.TestMurmurHash
Running com.clearspring.analytics.hash.TestLookup3Hash
Tests run: 2, Failures: 0, Errors: 0, Skipped: 0, Time elapsed: 0.034 sec - in com.clearspring.analytics.hash.TestLookup3Hash
Running com.clearspring.analytics.stream.TestConcurrentStreamSummary
Geometric:
0
1
2
3
4
[(24899: 0, e: 0),(18905: 1, e: 0),(13907: 2, e: 0),(10638: 3, e: 3),(7998: 4, e: 0),(5879: 5, e: 11),(4493: 6, e: 438),(4427: 7, e: 4424),(4427: 9, e: 4424),(4427: 13, e: 4426)]
[(1: X, e: 0)]
[(2: X, e: 0)]
[(2: X, e: 0),(1: Y, e: 0)]
[(2: X, e: 0),(1: Y, e: 0),(1: Z, e: 0)]
[(2: X, e: 0),(2: A, e: 1),(1: Z, e: 0)]
[(2: X, e: 0),(2: A, e: 1),(2: B, e: 1)]
[(2: A, e: 1),(2: B, e: 1),(3: C, e: 2)]
[(3: X, e: 2),(2: B, e: 1),(3: C, e: 2)]
[(4: X, e: 2),(2: B, e: 1),(3: C, e: 2)]
[(4: X, e: 2),(3: A, e: 2),(3: C, e: 2)]
[(4: X, e: 2),(4: A, e: 2),(3: C, e: 2)]
[(4: X, e: 2),(5: A, e: 2),(3: C, e: 2)]
Tests run: 4, Failures: 0, Errors: 0, Skipped: 0, Time elapsed: 0.103 sec - in com.clearspring.analytics.stream.TestConcurrentStreamSummary
Running com.clearspring.analytics.stream.quantile.TDigestTest
# big 4506 bytes
# small 4506 bytes
# 3.797072us per point
# 852 centroids
quantile	2	0.001000	0.000016	-0.000010	-0.000010	0.009705
quantile	2	0.010000	0.000266	0.000044	-0.000435	0.043495
quantile	2	0.100000	0.001111	0.000777	0.004654	0.046542
quantile	2	0.200000	0.001048	-0.000857	-0.001655	0.008276
quantile	2	0.300000	0.001002	-0.005428	0.000597	0.001990
quantile	2	0.500000	0.002338	0.003358	0.003051	0.006103
cdf	2	0.001000	-0.000030	0.000006	0.000007	0.007173
cdf	2	0.010000	-0.000190	-0.000059	-0.000113	0.011324
cdf	2	0.100000	-0.001070	-0.000102	0.000222	0.002223
cdf	2	0.200000	-0.000950	0.000023	0.000353	0.001763
cdf	2	0.300000	-0.001110	-0.000750	0.000273	0.000909
cdf	2	0.500000	-0.002440	-0.000864	-0.000272	0.000543
quantile	5	0.001000	0.000219	-0.000003	-0.000011	0.010649
quantile	5	0.010000	-0.000117	0.000098	0.000045	0.004465
quantile	5	0.100000	0.000243	0.001113	-0.002944	0.029439
quantile	5	0.200000	-0.000056	0.001307	-0.003135	0.015673
quantile	5	0.300000	0.001073	-0.004081	0.004474	0.014913
quantile	5	0.500000	0.000891	0.001368	0.007740	0.015480
cdf	5	0.001000	-0.000230	0.000003	-0.000000	0.000326
cdf	5	0.010000	0.000100	-0.000003	-0.000015	0.001527
cdf	5	0.100000	-0.000190	-0.000116	-0.000473	0.004729
cdf	5	0.200000	0.000080	0.000001	-0.000456	0.002279
cdf	5	0.300000	-0.001230	-0.000538	0.000510	0.001699
cdf	5	0.500000	-0.001030	-0.000623	0.000738	0.001476
quantile	10	0.001000	-0.000128	-0.000037	-0.000050	0.050407
quantile	10	0.010000	-0.000259	-0.000004	-0.000040	0.003989
quantile	10	0.100000	-0.000484	0.000241	-0.004207	0.042075
quantile	10	0.200000	0.000581	0.000904	0.004575	0.022875
quantile	10	0.300000	0.002187	-0.001809	-0.001842	0.006141
quantile	10	0.500000	0.001205	-0.006186	-0.000823	0.001645
cdf	10	0.001000	0.000200	0.000002	0.000002	0.002264
cdf	10	0.010000	0.000290	-0.000030	-0.000054	0.005396
cdf	10	0.100000	0.000460	-0.000012	-0.000392	0.003918
cdf	10	0.200000	-0.000430	-0.000150	0.000170	0.000852
cdf	10	0.300000	-0.001990	0.000204	0.000320	0.001068
cdf	10	0.500000	-0.001250	-0.000520	0.001075	0.002150
quantile	20	0.001000	0.000025	-0.000027	-0.000002	0.001728
quantile	20	0.010000	0.000322	-0.000206	-0.000173	0.017287
quantile	20	0.100000	0.002969	0.000448	0.002265	0.022655
quantile	20	0.200000	0.001274	0.001016	0.001852	0.009260
quantile	20	0.300000	0.001187	-0.001313	-0.008982	0.029940
quantile	20	0.500000	-0.000285	-0.007642	0.009524	0.019049
cdf	20	0.001000	-0.000010	-0.000006	-0.000009	0.009441
cdf	20	0.010000	-0.000230	-0.000004	0.000018	0.001779
cdf	20	0.100000	-0.002640	-0.000046	0.000029	0.000293
cdf	20	0.200000	-0.001180	-0.000029	0.000119	0.000597
cdf	20	0.300000	-0.001140	-0.000393	-0.000328	0.001094
cdf	20	0.500000	0.000280	-0.000307	0.000501	0.001002
quantile	50	0.001000	-0.000204	-0.000024	-0.000024	0.023554
quantile	50	0.010000	-0.000009	-0.000031	-0.000050	0.004963
quantile	50	0.100000	-0.000574	0.000184	-0.002290	0.022904
quantile	50	0.200000	-0.000751	0.003277	0.004192	0.020962
quantile	50	0.300000	-0.001017	-0.000319	-0.013869	0.046229
quantile	50	0.500000	0.001029	0.000874	-0.001055	0.002110
cdf	50	0.001000	0.000160	0.000004	0.000006	0.006369
cdf	50	0.010000	0.000010	-0.000002	0.000001	0.000121
cdf	50	0.100000	0.000500	0.000019	-0.000006	0.000060
cdf	50	0.200000	0.000670	0.000385	0.000404	0.002021
cdf	50	0.300000	0.001220	-0.000565	-0.000313	0.001045
cdf	50	0.500000	-0.001130	0.000013	-0.000580	0.001159
quantile	100	0.001000	0.000135	-0.000056	-0.000035	0.035088
quantile	100	0.010000	0.000331	-0.000006	0.000042	0.004232
quantile	100	0.100000	0.000658	0.000751	0.001020	0.010201
quantile	100	0.200000	0.001183	0.000756	0.000565	0.002827
quantile	100	0.300000	0.000474	-0.000654	-0.000943	0.003144
quantile	100	0.500000	0.000067	-0.001080	0.008411	0.016823
cdf	100	0.001000	-0.000120	0.000007	-0.000003	0.003304
cdf	100	0.010000	-0.000390	-0.000030	-0.000038	0.003778
cdf	100	0.100000	-0.000540	-0.000041	0.000067	0.000668
cdf	100	0.200000	-0.001170	0.000323	-0.000462	0.002312
cdf	100	0.300000	-0.000430	-0.000095	0.000176	0.000586
cdf	100	0.500000	-0.000110	-0.000300	0.002432	0.004864
# 1.611113us per point
# 847 centroids
# 1.609590us per point
# 835 centroids
# 3.145422us per point
# 863 centroids
gamma	2	0.00100000	0.0008800000000	0.9978500000	188	108
gamma	2	0.01000000	-0.01000000000	0.9888500000	188	108
gamma	2	0.10000000	0.07174000000	0.8988500000	188	108
gamma	2	0.20000000	0.1724300000	0.7999900000	188	108
gamma	2	0.30000000	0.1041400000	0.6999900000	188	108
gamma	2	0.50000000	0.03798000000	0.4999900000	188	108
gamma	2	0.70000000	-0.0005100000000	0.3000000000	188	108
gamma	2	0.80000000	-0.8000000000	0.2000000000	188	108
gamma	2	0.90000000	0.06937000000	0.1000000000	188	108
gamma	2	0.99000000	0.008020000000	0.01000000000	188	108
gamma	2	0.99900000	-0.0009000000000	0.001000000000	188	108
gamma	5	0.00100000	0.0001700000000	0.8297000000	388	268
gamma	5	0.01000000	0.0006500000000	0.8207000000	388	268
gamma	5	0.10000000	-0.1000000000	0.7307000000	388	268
gamma	5	0.20000000	0.01033000000	0.6832200000	388	268
gamma	5	0.30000000	-0.3000000000	0.5832200000	388	268
gamma	5	0.50000000	0.02103000000	0.4676200000	388	268
gamma	5	0.70000000	0.01584000000	0.2988100000	388	268
gamma	5	0.80000000	0.01627000000	0.1988100000	388	268
gamma	5	0.90000000	0.02333000000	0.1000000000	388	268
gamma	5	0.99000000	0.001340000000	0.01000000000	388	268
gamma	5	0.99900000	9.000000000e-05	0.001000000000	388	268
gamma	10	0.00100000	7.000000000e-05	0.4793400000	664	492
gamma	10	0.01000000	-0.01000000000	0.4703400000	664	492
gamma	10	0.10000000	0.0003100000000	0.4151300000	664	492
gamma	10	0.20000000	0.005280000000	0.3521400000	664	492
gamma	10	0.30000000	-0.3000000000	0.3343500000	664	492
gamma	10	0.50000000	-0.5000000000	0.2752200000	664	492
gamma	10	0.70000000	0.009810000000	0.2274100000	664	492
gamma	10	0.80000000	0.001900000000	0.1663400000	664	492
gamma	10	0.90000000	-0.005280000000	0.09881000000	664	492
gamma	10	0.99000000	-0.002390000000	0.01000000000	664	492
gamma	10	0.99900000	-4.000000000e-05	0.001000000000	664	492
gamma	20	0.00100000	-0.001000000000	0.2064700000	1164	812
gamma	20	0.01000000	-0.003830000000	0.1974700000	1164	812
gamma	20	0.10000000	0.001700000000	0.1383700000	1164	812
gamma	20	0.20000000	2.000000000e-05	0.09286000000	1164	812
gamma	20	0.30000000	-0.003600000000	0.06034000000	1164	812
gamma	20	0.50000000	-0.002320000000	0.05039000000	1164	812
gamma	20	0.70000000	0.009350000000	0.02505000000	1164	812
gamma	20	0.80000000	-0.004190000000	0.005890000000	1164	812
gamma	20	0.90000000	0.004210000000	0.06667000000	1164	812
gamma	20	0.99000000	0.0005600000000	0.009990000000	1164	812
gamma	20	0.99900000	0.000000000	0.001000000000	1164	812
gamma	50	0.00100000	-1.000000000e-05	-0.001000000000	2463	2332
gamma	50	0.01000000	0.0001700000000	-0.01000000000	2463	2332
gamma	50	0.10000000	0.0006200000000	0.03656000000	2463	2332
gamma	50	0.20000000	-0.02591000000	0.007310000000	2463	2332
gamma	50	0.30000000	0.002660000000	0.007160000000	2463	2332
gamma	50	0.50000000	-0.02686000000	0.01387000000	2463	2332
gamma	50	0.70000000	0.0009500000000	0.005920000000	2463	2332
gamma	50	0.80000000	0.0004200000000	0.006990000000	2463	2332
gamma	50	0.90000000	-0.0007400000000	0.008450000000	2463	2332
gamma	50	0.99000000	0.0003400000000	0.009980000000	2463	2332
gamma	50	0.99900000	-5.000000000e-05	0.001000000000	2463	2332
gamma	100	0.00100000	0.000000000	-0.001000000000	4533	4268
gamma	100	0.01000000	0.0002200000000	-0.01000000000	4533	4268
gamma	100	0.10000000	-0.0009200000000	0.006220000000	4533	4268
gamma	100	0.20000000	-0.003420000000	0.008160000000	4533	4268
gamma	100	0.30000000	0.0001900000000	0.005820000000	4533	4268
gamma	100	0.50000000	-0.002890000000	0.01392000000	4533	4268
gamma	100	0.70000000	0.001640000000	0.01071000000	4533	4268
gamma	100	0.80000000	0.001210000000	0.005350000000	4533	4268
gamma	100	0.90000000	0.0005600000000	0.007760000000	4533	4268
gamma	100	0.99000000	-1.000000000e-05	0.008670000000	4533	4268
gamma	100	0.99900000	-3.000000000e-05	0.001000000000	4533	4268
gamma	200	0.00100000	-1.500000000e-05	-0.001000000000	8014	8972
gamma	200	0.01000000	-7.000000000e-05	-0.01000000000	8014	8972
gamma	200	0.10000000	-0.0002100000000	0.003170000000	8014	8972
gamma	200	0.20000000	0.000000000	0.001210000000	8014	8972
gamma	200	0.30000000	0.002030000000	0.001060000000	8014	8972
gamma	200	0.50000000	-0.0006200000000	0.002060000000	8014	8972
gamma	200	0.70000000	0.000000000	0.001010000000	8014	8972
gamma	200	0.80000000	-0.0002800000000	0.004860000000	8014	8972
gamma	200	0.90000000	-9.000000000e-05	0.002970000000	8014	8972
gamma	200	0.99000000	-5.000000000e-05	0.006780000000	8014	8972
gamma	200	0.99900000	-1.500000000e-05	0.001000000000	8014	8972
gamma	500	0.00100000	-1.500000000e-05	-0.001000000000	17230	21132
gamma	500	0.01000000	-3.000000000e-05	-0.01000000000	17230	21132
gamma	500	0.10000000	-0.0003100000000	0.001570000000	17230	21132
gamma	500	0.20000000	-7.000000000e-05	0.004610000000	17230	21132
gamma	500	0.30000000	-0.0004200000000	0.002590000000	17230	21132
gamma	500	0.50000000	-0.0002000000000	0.003200000000	17230	21132
gamma	500	0.70000000	0.001160000000	0.003070000000	17230	21132
gamma	500	0.80000000	0.0003100000000	0.002070000000	17230	21132
gamma	500	0.90000000	-0.0001400000000	0.004470000000	17230	21132
gamma	500	0.99000000	-4.000000000e-05	0.002720000000	17230	21132
gamma	500	0.99900000	-1.500000000e-05	0.0009600000000	17230	21132
gamma	1000	0.00100000	-1.500000000e-05	-0.001000000000	30626	46956
gamma	1000	0.01000000	-4.000000000e-05	-0.01000000000	30626	46956
gamma	1000	0.10000000	4.000000000e-05	0.0005500000000	30626	46956
gamma	1000	0.20000000	-0.0001800000000	0.001490000000	30626	46956
gamma	1000	0.30000000	6.000000000e-05	0.0006500000000	30626	46956
gamma	1000	0.50000000	-0.0003300000000	0.001440000000	30626	46956
gamma	1000	0.70000000	-0.0001400000000	0.001480000000	30626	46956
gamma	1000	0.80000000	-2.000000000e-05	0.001270000000	30626	46956
gamma	1000	0.90000000	1.000000000e-05	0.0009300000000	30626	46956
gamma	1000	0.99000000	-5.000000000e-05	0.0003500000000	30626	46956
gamma	1000	0.99900000	-1.500000000e-05	0.001000000000	30626	46956
gamma	2000	0.00100000	-1.500000000e-05	-0.001000000000	54881	88012
gamma	2000	0.01000000	-1.500000000e-05	-0.01000000000	54881	88012
gamma	2000	0.10000000	3.000000000e-05	0.0004400000000	54881	88012
gamma	2000	0.20000000	-0.0001000000000	0.0007700000000	54881	88012
gamma	2000	0.30000000	0.0002500000000	0.0008000000000	54881	88012
gamma	2000	0.50000000	5.000000000e-05	0.001020000000	54881	88012
gamma	2000	0.70000000	-0.0001700000000	0.001030000000	54881	88012
gamma	2000	0.80000000	-3.000000000e-05	0.0009800000000	54881	88012
gamma	2000	0.90000000	-6.000000000e-05	0.0008500000000	54881	88012
gamma	2000	0.99000000	-1.500000000e-05	0.0005300000000	54881	88012
gamma	2000	0.99900000	-1.500000000e-05	0.0004800000000	54881	88012
uniform	2	0.00100000	-0.0003800000000	0.2494600000	179	124
uniform	2	0.01000000	-0.009380000000	0.2404600000	179	124
uniform	2	0.10000000	0.02127000000	0.4002600000	179	124
uniform	2	0.20000000	-0.02844000000	0.3002600000	179	124
uniform	2	0.30000000	-0.04303000000	0.2002600000	179	124
uniform	2	0.50000000	-0.1464900000	0.0002600000000	179	124
uniform	2	0.70000000	-0.04894000000	0.3000000000	179	124
uniform	2	0.80000000	-0.03059000000	0.2000000000	179	124
uniform	2	0.90000000	-0.01745000000	0.1000000000	179	124
uniform	2	0.99000000	0.0004700000000	0.01000000000	179	124
uniform	2	0.99900000	0.0002400000000	0.001000000000	179	124
uniform	5	0.00100000	-0.0002300000000	0.1240900000	385	236
uniform	5	0.01000000	-0.003830000000	0.1150900000	385	236
uniform	5	0.10000000	-0.001980000000	0.02509000000	385	236
uniform	5	0.20000000	-0.03871000000	0.05050000000	385	236
uniform	5	0.30000000	0.04497000000	0.07565000000	385	236
uniform	5	0.50000000	0.1473700000	0.0009300000000	385	236
uniform	5	0.70000000	0.0002100000000	0.1755000000	385	236
uniform	5	0.80000000	-0.007560000000	0.07550000000	385	236
uniform	5	0.90000000	0.06830000000	0.1000000000	385	236
uniform	5	0.99000000	0.002160000000	0.01000000000	385	236
uniform	5	0.99900000	-7.000000000e-05	0.001000000000	385	236
uniform	10	0.00100000	-0.0001300000000	0.06288000000	622	476
uniform	10	0.01000000	0.0007100000000	0.05388000000	622	476
uniform	10	0.10000000	0.003620000000	0.02666000000	622	476
uniform	10	0.20000000	-0.007800000000	0.05005000000	622	476
uniform	10	0.30000000	0.01425000000	0.01329000000	622	476
uniform	10	0.50000000	-0.02350000000	0.0007800000000	622	476
uniform	10	0.70000000	0.04107000000	0.05098000000	622	476
uniform	10	0.80000000	-0.04723000000	0.01500000000	622	476
uniform	10	0.90000000	-0.01329000000	0.03921000000	622	476
uniform	10	0.99000000	-0.001410000000	0.01000000000	622	476
uniform	10	0.99900000	6.000000000e-05	0.001000000000	622	476
uniform	20	0.00100000	-0.0001100000000	0.06097000000	1114	844
uniform	20	0.01000000	-0.0002300000000	0.05197000000	1114	844
uniform	20	0.10000000	-0.004450000000	0.02562000000	1114	844
uniform	20	0.20000000	-0.003820000000	0.05008000000	1114	844
uniform	20	0.30000000	0.006590000000	0.07421000000	1114	844
uniform	20	0.50000000	-0.03528000000	0.03168000000	1114	844
uniform	20	0.70000000	-0.008910000000	0.05160000000	1114	844
uniform	20	0.80000000	-0.009070000000	0.07568000000	1114	844
uniform	20	0.90000000	-0.004470000000	0.1000000000	1114	844
uniform	20	0.99000000	-0.0002300000000	0.01000000000	1114	844
uniform	20	0.99900000	0.0001200000000	0.001000000000	1114	844
uniform	50	0.00100000	-8.000000000e-05	0.01441000000	2460	2380
uniform	50	0.01000000	1.000000000e-05	0.005410000000	2460	2380
uniform	50	0.10000000	0.0007000000000	0.009500000000	2460	2380
uniform	50	0.20000000	0.003660000000	0.004310000000	2460	2380
uniform	50	0.30000000	-0.01139000000	0.01324000000	2460	2380
uniform	50	0.50000000	0.005480000000	0.01406000000	2460	2380
uniform	50	0.70000000	0.009270000000	0.01858000000	2460	2380
uniform	50	0.80000000	-0.003900000000	0.01305000000	2460	2380
uniform	50	0.90000000	0.0008600000000	0.006450000000	2460	2380
uniform	50	0.99000000	7.000000000e-05	0.01000000000	2460	2380
uniform	50	0.99900000	-3.000000000e-05	0.001000000000	2460	2380
uniform	100	0.00100000	-4.000000000e-05	0.006550000000	4398	4620
uniform	100	0.01000000	-9.000000000e-05	0.005800000000	4398	4620
uniform	100	0.10000000	-0.0007000000000	0.001750000000	4398	4620
uniform	100	0.20000000	0.0004000000000	0.002210000000	4398	4620
uniform	100	0.30000000	-0.002120000000	0.002940000000	4398	4620
uniform	100	0.50000000	-0.001510000000	0.006930000000	4398	4620
uniform	100	0.70000000	-0.002000000000	0.002910000000	4398	4620
uniform	100	0.80000000	-0.001500000000	0.004430000000	4398	4620
uniform	100	0.90000000	-0.003180000000	0.006540000000	4398	4620
uniform	100	0.99000000	0.000000000	0.01000000000	4398	4620
uniform	100	0.99900000	-2.000000000e-05	0.001000000000	4398	4620
uniform	200	0.00100000	-1.500000000e-05	0.002880000000	8112	9388
uniform	200	0.01000000	-5.000000000e-05	0.001520000000	8112	9388
uniform	200	0.10000000	-0.001280000000	0.003960000000	8112	9388
uniform	200	0.20000000	-0.0003400000000	0.001110000000	8112	9388
uniform	200	0.30000000	-0.0002400000000	0.002290000000	8112	9388
uniform	200	0.50000000	0.0001100000000	0.003620000000	8112	9388
uniform	200	0.70000000	-0.0002100000000	0.003050000000	8112	9388
uniform	200	0.80000000	-4.000000000e-05	0.004470000000	8112	9388
uniform	200	0.90000000	-0.0005000000000	0.005230000000	8112	9388
uniform	200	0.99000000	2.000000000e-05	0.002170000000	8112	9388
uniform	200	0.99900000	-1.500000000e-05	0.001000000000	8112	9388
uniform	500	0.00100000	-1.500000000e-05	0.0009800000000	17356	23212
uniform	500	0.01000000	-3.000000000e-05	0.001630000000	17356	23212
uniform	500	0.10000000	-2.000000000e-05	0.002400000000	17356	23212
uniform	500	0.20000000	8.000000000e-05	0.002140000000	17356	23212
uniform	500	0.30000000	0.0005900000000	0.003700000000	17356	23212
uniform	500	0.50000000	0.0002800000000	0.0009100000000	17356	23212
uniform	500	0.70000000	-0.0001600000000	0.001520000000	17356	23212
uniform	500	0.80000000	8.000000000e-05	0.002240000000	17356	23212
uniform	500	0.90000000	0.0001400000000	0.001060000000	17356	23212
uniform	500	0.99000000	-7.000000000e-05	0.002440000000	17356	23212
uniform	500	0.99900000	-1.500000000e-05	0.001000000000	17356	23212
uniform	1000	0.00100000	-1.500000000e-05	9.000000000e-05	30666	46860
uniform	1000	0.01000000	-3.000000000e-05	0.001090000000	30666	46860
uniform	1000	0.10000000	-0.0001800000000	0.0005900000000	30666	46860
uniform	1000	0.20000000	0.0001400000000	0.0003500000000	30666	46860
uniform	1000	0.30000000	0.0005200000000	0.0007400000000	30666	46860
uniform	1000	0.50000000	-0.0002900000000	0.001030000000	30666	46860
uniform	1000	0.70000000	0.0001700000000	0.0008900000000	30666	46860
uniform	1000	0.80000000	0.0001300000000	0.001000000000	30666	46860
uniform	1000	0.90000000	0.0001800000000	0.001330000000	30666	46860
uniform	1000	0.99000000	0.000000000	0.002180000000	30666	46860
uniform	1000	0.99900000	-1.500000000e-05	0.001000000000	30666	46860
uniform	2000	0.00100000	-1.500000000e-05	0.0001100000000	54811	88220
uniform	2000	0.01000000	-1.500000000e-05	0.0007600000000	54811	88220
uniform	2000	0.10000000	-1.000000000e-05	0.0006200000000	54811	88220
uniform	2000	0.20000000	-0.0002600000000	0.001480000000	54811	88220
uniform	2000	0.30000000	-6.000000000e-05	0.0009300000000	54811	88220
uniform	2000	0.50000000	-0.0002100000000	0.0004300000000	54811	88220
uniform	2000	0.70000000	6.000000000e-05	0.0007600000000	54811	88220
uniform	2000	0.80000000	0.0002800000000	0.001970000000	54811	88220
uniform	2000	0.90000000	-6.000000000e-05	0.001120000000	54811	88220
uniform	2000	0.99000000	-1.500000000e-05	0.001790000000	54811	88220
uniform	2000	0.99900000	-1.500000000e-05	0.001000000000	54811	88220
# 25.272851us per point
# 4693 centroids
Tests run: 11, Failures: 0, Errors: 0, Skipped: 1, Time elapsed: 16.863 sec - in com.clearspring.analytics.stream.quantile.TDigestTest
Running com.clearspring.analytics.stream.quantile.QDigestTest
a: 0 .. 0: 3, 1 .. 1: 3
b: 0 .. 0: 4, 1 .. 1: 1, 0 .. 3: 1
ab: 0 .. 0: 4, 1 .. 1: 1, 0 .. 1: 6, 0 .. 3: 1
c: 0 .. 0: 7, 1 .. 1: 4, 0 .. 3: 1
Tests run: 3, Failures: 0, Errors: 0, Skipped: 0, Time elapsed: 0.333 sec - in com.clearspring.analytics.stream.quantile.QDigestTest
Running com.clearspring.analytics.stream.quantile.GroupTreeTest
0:0.0(1)	1:0.0(1)	2:1.0(1)	3:1.0(1)	4:2.0(1)	5:2.5(2)	6:3.0(1)	7:3.0(1)	8:4.0(1)	9:4.0(1)	10:5.0(1)	Tests run: 6, Failures: 0, Errors: 0, Skipped: 0, Time elapsed: 0.092 sec - in com.clearspring.analytics.stream.quantile.GroupTreeTest
Running com.clearspring.analytics.stream.frequency.ConservativeAddSketchTest
Confidence : 1.0   Errors : 0  Error margin : 7501
Total error : 13117189  Average error : 874
Beat base for : 99 percent of values with a total delta of 22878077
Confidence : 1.0   Errors : 0  Error margin : 101
Total error : 15159741  Average error : 16
Beat base for : 100 percent of values with a total delta of 20592878
Tests run: 3, Failures: 0, Errors: 0, Skipped: 0, Time elapsed: 5.234 sec - in com.clearspring.analytics.stream.frequency.ConservativeAddSketchTest
Running com.clearspring.analytics.stream.frequency.CountMinSketchTest
1.0
Tests run: 13, Failures: 0, Errors: 0, Skipped: 0, Time elapsed: 9.094 sec - in com.clearspring.analytics.stream.frequency.CountMinSketchTest
Running com.clearspring.analytics.stream.TestStochasticTopper
Gaussian:
-6
-7
6
-3
-4
Geometric:
0
1
2
3
4
Zipfian:
1
3
2
4
6
0: 25161
1: 18507
2: 14162
3: 10446
4: 7958
5: 6022
6: 4484
7: 3293
8: 2561
9: 1805
10: 1405
11: 1086
12: 785
13: 578
14: 436
15: 340
16: 252
17: 186
18: 132
19: 98
2147483638: 0
2147483639: 0
2147483640: 0
2147483641: 0
2147483642: 0
2147483643: 0
2147483644: 0
2147483645: 0
2147483646: 0
2147483647: 0
Tests run: 4, Failures: 0, Errors: 0, Skipped: 0, Time elapsed: 0.091 sec - in com.clearspring.analytics.stream.TestStochasticTopper
Running com.clearspring.analytics.stream.cardinality.TestAdaptiveCounting
Tests run: 6, Failures: 0, Errors: 0, Skipped: 1, Time elapsed: 0.353 sec - in com.clearspring.analytics.stream.cardinality.TestAdaptiveCounting
Running com.clearspring.analytics.stream.cardinality.TestLogLog
Baseline estimate: 4982198
time: 1255
0.0118965
time: 18329
100000000
98586462
0.01413538
Tests run: 5, Failures: 0, Errors: 0, Skipped: 1, Time elapsed: 19.789 sec - in com.clearspring.analytics.stream.cardinality.TestLogLog
Running com.clearspring.analytics.stream.cardinality.TestCountThenEstimate
Tests run: 7, Failures: 0, Errors: 0, Skipped: 0, Time elapsed: 0.022 sec - in com.clearspring.analytics.stream.cardinality.TestCountThenEstimate
Running com.clearspring.analytics.stream.cardinality.TestHyperLogLog
Baseline estimate: 5059896
Expect estimate: 5059896 is between 4939062.5 and 5060937.5
time: 1271
0.0145803
time: 12689
0.01798444
Tests run: 8, Failures: 0, Errors: 0, Skipped: 1, Time elapsed: 14.22 sec - in com.clearspring.analytics.stream.cardinality.TestHyperLogLog
Running com.clearspring.analytics.stream.cardinality.TestHyperLogLogPlus
Size: 13726
4-16: 0 -> 0
4-17: 0 -> 0
4-18: 0 -> 0
4-19: 0 -> 0
4-20: 0 -> 0
4-21: 0 -> 0
4-22: 0 -> 0
4-23: 0 -> 0
4-24: 0 -> 0
4-25: 0 -> 0
4-26: 0 -> 0
4-27: 0 -> 0
4-28: 0 -> 0
4-29: 0 -> 0
4-30: 0 -> 0
4-31: 0 -> 0
4-32: 0 -> 0
5-16: 0 -> 0
5-17: 0 -> 0
5-18: 0 -> 0
5-19: 0 -> 0
5-20: 0 -> 0
5-21: 0 -> 0
5-22: 0 -> 0
5-23: 0 -> 0
5-24: 0 -> 0
5-25: 0 -> 0
5-26: 0 -> 0
5-27: 0 -> 0
5-28: 0 -> 0
5-29: 0 -> 0
5-30: 0 -> 0
5-31: 0 -> 0
5-32: 0 -> 0
6-16: 0 -> 0
6-17: 0 -> 0
6-18: 0 -> 0
6-19: 0 -> 0
6-20: 0 -> 0
6-21: 0 -> 0
6-22: 0 -> 0
6-23: 0 -> 0
6-24: 0 -> 0
6-25: 0 -> 0
6-26: 0 -> 0
6-27: 0 -> 0
6-28: 0 -> 0
6-29: 0 -> 0
6-30: 0 -> 0
6-31: 0 -> 0
6-32: 0 -> 0
7-16: 0 -> 0
7-17: 0 -> 0
7-18: 0 -> 0
7-19: 0 -> 0
7-20: 0 -> 0
7-21: 0 -> 0
7-22: 0 -> 0
7-23: 0 -> 0
7-24: 0 -> 0
7-25: 0 -> 0
7-26: 0 -> 0
7-27: 0 -> 0
7-28: 0 -> 0
7-29: 0 -> 0
7-30: 0 -> 0
7-31: 0 -> 0
7-32: 0 -> 0
8-16: 0 -> 0
8-17: 0 -> 0
8-18: 0 -> 0
8-19: 0 -> 0
8-20: 0 -> 0
8-21: 0 -> 0
8-22: 0 -> 0
8-23: 0 -> 0
8-24: 0 -> 0
8-25: 0 -> 0
8-26: 0 -> 0
8-27: 0 -> 0
8-28: 0 -> 0
8-29: 0 -> 0
8-30: 0 -> 0
8-31: 0 -> 0
8-32: 0 -> 0
9-16: 0 -> 0
9-17: 0 -> 0
9-18: 0 -> 0
9-19: 0 -> 0
9-20: 0 -> 0
9-21: 0 -> 0
9-22: 0 -> 0
9-23: 0 -> 0
9-24: 0 -> 0
9-25: 0 -> 0
9-26: 0 -> 0
9-27: 0 -> 0
9-28: 0 -> 0
9-29: 0 -> 0
9-30: 0 -> 0
9-31: 0 -> 0
9-32: 0 -> 0
10-16: 0 -> 0
10-17: 0 -> 0
10-18: 0 -> 0
10-19: 0 -> 0
10-20: 0 -> 0
10-21: 0 -> 0
10-22: 0 -> 0
10-23: 0 -> 0
10-24: 0 -> 0
10-25: 0 -> 0
10-26: 0 -> 0
10-27: 0 -> 0
10-28: 0 -> 0
10-29: 0 -> 0
10-30: 0 -> 0
10-31: 0 -> 0
10-32: 0 -> 0
11-16: 0 -> 0
11-17: 0 -> 0
11-18: 0 -> 0
11-19: 0 -> 0
11-20: 0 -> 0
11-21: 0 -> 0
11-22: 0 -> 0
11-23: 0 -> 0
11-24: 0 -> 0
11-25: 0 -> 0
11-26: 0 -> 0
11-27: 0 -> 0
11-28: 0 -> 0
11-29: 0 -> 0
11-30: 0 -> 0
11-31: 0 -> 0
11-32: 0 -> 0
12-16: 0 -> 0
12-17: 0 -> 0
12-18: 0 -> 0
12-19: 0 -> 0
12-20: 0 -> 0
12-21: 0 -> 0
12-22: 0 -> 0
12-23: 0 -> 0
12-24: 0 -> 0
12-25: 0 -> 0
12-26: 0 -> 0
12-27: 0 -> 0
12-28: 0 -> 0
12-29: 0 -> 0
12-30: 0 -> 0
12-31: 0 -> 0
12-32: 0 -> 0
13-16: 0 -> 0
13-17: 0 -> 0
13-18: 0 -> 0
13-19: 0 -> 0
13-20: 0 -> 0
13-21: 0 -> 0
13-22: 0 -> 0
13-23: 0 -> 0
13-24: 0 -> 0
13-25: 0 -> 0
13-26: 0 -> 0
13-27: 0 -> 0
13-28: 0 -> 0
13-29: 0 -> 0
13-30: 0 -> 0
13-31: 0 -> 0
13-32: 0 -> 0
14-16: 0 -> 0
14-17: 0 -> 0
14-18: 0 -> 0
14-19: 0 -> 0
14-20: 0 -> 0
14-21: 0 -> 0
14-22: 0 -> 0
14-23: 0 -> 0
14-24: 0 -> 0
14-25: 0 -> 0
14-26: 0 -> 0
14-27: 0 -> 0
14-28: 0 -> 0
14-29: 0 -> 0
14-30: 0 -> 0
14-31: 0 -> 0
14-32: 0 -> 0
15-16: 0 -> 0
15-17: 0 -> 0
15-18: 0 -> 0
15-19: 0 -> 0
15-20: 0 -> 0
15-21: 0 -> 0
15-22: 0 -> 0
15-23: 0 -> 0
15-24: 0 -> 0
15-25: 0 -> 0
15-26: 0 -> 0
15-27: 0 -> 0
15-28: 0 -> 0
15-29: 0 -> 0
15-30: 0 -> 0
15-31: 0 -> 0
15-32: 0 -> 0
16-16: 0 -> 0
16-17: 0 -> 0
16-18: 0 -> 0
16-19: 0 -> 0
16-20: 0 -> 0
16-21: 0 -> 0
16-22: 0 -> 0
16-23: 0 -> 0
16-24: 0 -> 0
16-25: 0 -> 0
16-26: 0 -> 0
16-27: 0 -> 0
16-28: 0 -> 0
16-29: 0 -> 0
16-30: 0 -> 0
16-31: 0 -> 0
16-32: 0 -> 0
17-17: 0 -> 0
17-18: 0 -> 0
17-19: 0 -> 0
17-20: 0 -> 0
17-21: 0 -> 0
17-22: 0 -> 0
17-23: 0 -> 0
17-24: 0 -> 0
17-25: 0 -> 0
17-26: 0 -> 0
17-27: 0 -> 0
17-28: 0 -> 0
17-29: 0 -> 0
17-30: 0 -> 0
17-31: 0 -> 0
17-32: 0 -> 0
18-18: 0 -> 0
18-19: 0 -> 0
18-20: 0 -> 0
18-21: 0 -> 0
18-22: 0 -> 0
18-23: 0 -> 0
18-24: 0 -> 0
18-25: 0 -> 0
18-26: 0 -> 0
18-27: 0 -> 0
18-28: 0 -> 0
18-29: 0 -> 0
18-30: 0 -> 0
18-31: 0 -> 0
18-32: 0 -> 0
19-19: 0 -> 0
19-20: 0 -> 0
19-21: 0 -> 0
19-22: 0 -> 0
19-23: 0 -> 0
19-24: 0 -> 0
19-25: 0 -> 0
19-26: 0 -> 0
19-27: 0 -> 0
19-28: 0 -> 0
19-29: 0 -> 0
19-30: 0 -> 0
19-31: 0 -> 0
19-32: 0 -> 0
20-20: 0 -> 0
20-21: 0 -> 0
20-22: 0 -> 0
20-23: 0 -> 0
20-24: 0 -> 0
20-25: 0 -> 0
20-26: 0 -> 0
20-27: 0 -> 0
20-28: 0 -> 0
20-29: 0 -> 0
20-30: 0 -> 0
20-31: 0 -> 0
20-32: 0 -> 0
4-16: 1 -> 1
4-17: 1 -> 1
4-18: 1 -> 1
4-19: 1 -> 1
4-20: 1 -> 1
4-21: 1 -> 1
4-22: 1 -> 1
4-23: 1 -> 1
4-24: 1 -> 1
4-25: 1 -> 1
4-26: 1 -> 1
4-27: 1 -> 1
4-28: 1 -> 1
4-29: 1 -> 1
4-30: 1 -> 1
4-31: 1 -> 1
4-32: 1 -> 1
5-16: 1 -> 1
5-17: 1 -> 1
5-18: 1 -> 1
5-19: 1 -> 1
5-20: 1 -> 1
5-21: 1 -> 1
5-22: 1 -> 1
5-23: 1 -> 1
5-24: 1 -> 1
5-25: 1 -> 1
5-26: 1 -> 1
5-27: 1 -> 1
5-28: 1 -> 1
5-29: 1 -> 1
5-30: 1 -> 1
5-31: 1 -> 1
5-32: 1 -> 1
6-16: 1 -> 1
6-17: 1 -> 1
6-18: 1 -> 1
6-19: 1 -> 1
6-20: 1 -> 1
6-21: 1 -> 1
6-22: 1 -> 1
6-23: 1 -> 1
6-24: 1 -> 1
6-25: 1 -> 1
6-26: 1 -> 1
6-27: 1 -> 1
6-28: 1 -> 1
6-29: 1 -> 1
6-30: 1 -> 1
6-31: 1 -> 1
6-32: 1 -> 1
7-16: 1 -> 1
7-17: 1 -> 1
7-18: 1 -> 1
7-19: 1 -> 1
7-20: 1 -> 1
7-21: 1 -> 1
7-22: 1 -> 1
7-23: 1 -> 1
7-24: 1 -> 1
7-25: 1 -> 1
7-26: 1 -> 1
7-27: 1 -> 1
7-28: 1 -> 1
7-29: 1 -> 1
7-30: 1 -> 1
7-31: 1 -> 1
7-32: 1 -> 1
8-16: 1 -> 1
8-17: 1 -> 1
8-18: 1 -> 1
8-19: 1 -> 1
8-20: 1 -> 1
8-21: 1 -> 1
8-22: 1 -> 1
8-23: 1 -> 1
8-24: 1 -> 1
8-25: 1 -> 1
8-26: 1 -> 1
8-27: 1 -> 1
8-28: 1 -> 1
8-29: 1 -> 1
8-30: 1 -> 1
8-31: 1 -> 1
8-32: 1 -> 1
9-16: 1 -> 1
9-17: 1 -> 1
9-18: 1 -> 1
9-19: 1 -> 1
9-20: 1 -> 1
9-21: 1 -> 1
9-22: 1 -> 1
9-23: 1 -> 1
9-24: 1 -> 1
9-25: 1 -> 1
9-26: 1 -> 1
9-27: 1 -> 1
9-28: 1 -> 1
9-29: 1 -> 1
9-30: 1 -> 1
9-31: 1 -> 1
9-32: 1 -> 1
10-16: 1 -> 1
10-17: 1 -> 1
10-18: 1 -> 1
10-19: 1 -> 1
10-20: 1 -> 1
10-21: 1 -> 1
10-22: 1 -> 1
10-23: 1 -> 1
10-24: 1 -> 1
10-25: 1 -> 1
10-26: 1 -> 1
10-27: 1 -> 1
10-28: 1 -> 1
10-29: 1 -> 1
10-30: 1 -> 1
10-31: 1 -> 1
10-32: 1 -> 1
11-16: 1 -> 1
11-17: 1 -> 1
11-18: 1 -> 1
11-19: 1 -> 1
11-20: 1 -> 1
11-21: 1 -> 1
11-22: 1 -> 1
11-23: 1 -> 1
11-24: 1 -> 1
11-25: 1 -> 1
11-26: 1 -> 1
11-27: 1 -> 1
11-28: 1 -> 1
11-29: 1 -> 1
11-30: 1 -> 1
11-31: 1 -> 1
11-32: 1 -> 1
12-16: 1 -> 1
12-17: 1 -> 1
12-18: 1 -> 1
12-19: 1 -> 1
12-20: 1 -> 1
12-21: 1 -> 1
12-22: 1 -> 1
12-23: 1 -> 1
12-24: 1 -> 1
12-25: 1 -> 1
12-26: 1 -> 1
12-27: 1 -> 1
12-28: 1 -> 1
12-29: 1 -> 1
12-30: 1 -> 1
12-31: 1 -> 1
12-32: 1 -> 1
13-16: 1 -> 1
13-17: 1 -> 1
13-18: 1 -> 1
13-19: 1 -> 1
13-20: 1 -> 1
13-21: 1 -> 1
13-22: 1 -> 1
13-23: 1 -> 1
13-24: 1 -> 1
13-25: 1 -> 1
13-26: 1 -> 1
13-27: 1 -> 1
13-28: 1 -> 1
13-29: 1 -> 1
13-30: 1 -> 1
13-31: 1 -> 1
13-32: 1 -> 1
14-16: 1 -> 1
14-17: 1 -> 1
14-18: 1 -> 1
14-19: 1 -> 1
14-20: 1 -> 1
14-21: 1 -> 1
14-22: 1 -> 1
14-23: 1 -> 1
14-24: 1 -> 1
14-25: 1 -> 1
14-26: 1 -> 1
14-27: 1 -> 1
14-28: 1 -> 1
14-29: 1 -> 1
14-30: 1 -> 1
14-31: 1 -> 1
14-32: 1 -> 1
15-16: 1 -> 1
15-17: 1 -> 1
15-18: 1 -> 1
15-19: 1 -> 1
15-20: 1 -> 1
15-21: 1 -> 1
15-22: 1 -> 1
15-23: 1 -> 1
15-24: 1 -> 1
15-25: 1 -> 1
15-26: 1 -> 1
15-27: 1 -> 1
15-28: 1 -> 1
15-29: 1 -> 1
15-30: 1 -> 1
15-31: 1 -> 1
15-32: 1 -> 1
16-16: 1 -> 1
16-17: 1 -> 1
16-18: 1 -> 1
16-19: 1 -> 1
16-20: 1 -> 1
16-21: 1 -> 1
16-22: 1 -> 1
16-23: 1 -> 1
16-24: 1 -> 1
16-25: 1 -> 1
16-26: 1 -> 1
16-27: 1 -> 1
16-28: 1 -> 1
16-29: 1 -> 1
16-30: 1 -> 1
16-31: 1 -> 1
16-32: 1 -> 1
17-17: 1 -> 1
17-18: 1 -> 1
17-19: 1 -> 1
17-20: 1 -> 1
17-21: 1 -> 1
17-22: 1 -> 1
17-23: 1 -> 1
17-24: 1 -> 1
17-25: 1 -> 1
17-26: 1 -> 1
17-27: 1 -> 1
17-28: 1 -> 1
17-29: 1 -> 1
17-30: 1 -> 1
17-31: 1 -> 1
17-32: 1 -> 1
18-18: 1 -> 1
18-19: 1 -> 1
18-20: 1 -> 1
18-21: 1 -> 1
18-22: 1 -> 1
18-23: 1 -> 1
18-24: 1 -> 1
18-25: 1 -> 1
18-26: 1 -> 1
18-27: 1 -> 1
18-28: 1 -> 1
18-29: 1 -> 1
18-30: 1 -> 1
18-31: 1 -> 1
18-32: 1 -> 1
19-19: 1 -> 1
19-20: 1 -> 1
19-21: 1 -> 1
19-22: 1 -> 1
19-23: 1 -> 1
19-24: 1 -> 1
19-25: 1 -> 1
19-26: 1 -> 1
19-27: 1 -> 1
19-28: 1 -> 1
19-29: 1 -> 1
19-30: 1 -> 1
19-31: 1 -> 1
19-32: 1 -> 1
20-20: 1 -> 1
20-21: 1 -> 1
20-22: 1 -> 1
20-23: 1 -> 1
20-24: 1 -> 1
20-25: 1 -> 1
20-26: 1 -> 1
20-27: 1 -> 1
20-28: 1 -> 1
20-29: 1 -> 1
20-30: 1 -> 1
20-31: 1 -> 1
20-32: 1 -> 1
4-16: 10 -> 10
4-17: 10 -> 10
4-18: 10 -> 10
4-19: 10 -> 10
4-20: 10 -> 10
4-21: 10 -> 10
4-22: 10 -> 10
4-23: 10 -> 10
4-24: 10 -> 10
4-25: 10 -> 10
4-26: 10 -> 10
4-27: 10 -> 10
4-28: 10 -> 10
4-29: 10 -> 10
4-30: 10 -> 10
4-31: 10 -> 10
4-32: 10 -> 10
5-16: 10 -> 10
5-17: 10 -> 10
5-18: 10 -> 10
5-19: 10 -> 10
5-20: 10 -> 10
5-21: 10 -> 10
5-22: 10 -> 10
5-23: 10 -> 10
5-24: 10 -> 10
5-25: 10 -> 10
5-26: 10 -> 10
5-27: 10 -> 10
5-28: 10 -> 10
5-29: 10 -> 10
5-30: 10 -> 10
5-31: 10 -> 10
5-32: 10 -> 10
6-16: 10 -> 10
6-17: 10 -> 10
6-18: 10 -> 10
6-19: 10 -> 10
6-20: 10 -> 10
6-21: 10 -> 10
6-22: 10 -> 10
6-23: 10 -> 10
6-24: 10 -> 10
6-25: 10 -> 10
6-26: 10 -> 10
6-27: 10 -> 10
6-28: 10 -> 10
6-29: 10 -> 10
6-30: 10 -> 10
6-31: 10 -> 10
6-32: 10 -> 10
7-16: 10 -> 10
7-17: 10 -> 10
7-18: 10 -> 10
7-19: 10 -> 10
7-20: 10 -> 10
7-21: 10 -> 10
7-22: 10 -> 10
7-23: 10 -> 10
7-24: 10 -> 10
7-25: 10 -> 10
7-26: 10 -> 10
7-27: 10 -> 10
7-28: 10 -> 10
7-29: 10 -> 10
7-30: 10 -> 10
7-31: 10 -> 10
7-32: 10 -> 10
8-16: 10 -> 10
8-17: 10 -> 10
8-18: 10 -> 10
8-19: 10 -> 10
8-20: 10 -> 10
8-21: 10 -> 10
8-22: 10 -> 10
8-23: 10 -> 10
8-24: 10 -> 10
8-25: 10 -> 10
8-26: 10 -> 10
8-27: 10 -> 10
8-28: 10 -> 10
8-29: 10 -> 10
8-30: 10 -> 10
8-31: 10 -> 10
8-32: 10 -> 10
9-16: 10 -> 10
9-17: 10 -> 10
9-18: 10 -> 10
9-19: 10 -> 10
9-20: 10 -> 10
9-21: 10 -> 10
9-22: 10 -> 10
9-23: 10 -> 10
9-24: 10 -> 10
9-25: 10 -> 10
9-26: 10 -> 10
9-27: 10 -> 10
9-28: 10 -> 10
9-29: 10 -> 10
9-30: 10 -> 10
9-31: 10 -> 10
9-32: 10 -> 10
10-16: 10 -> 10
10-17: 10 -> 10
10-18: 10 -> 10
10-19: 10 -> 10
10-20: 10 -> 10
10-21: 10 -> 10
10-22: 10 -> 10
10-23: 10 -> 10
10-24: 10 -> 10
10-25: 10 -> 10
10-26: 10 -> 10
10-27: 10 -> 10
10-28: 10 -> 10
10-29: 10 -> 10
10-30: 10 -> 10
10-31: 10 -> 10
10-32: 10 -> 10
11-16: 10 -> 10
11-17: 10 -> 10
11-18: 10 -> 10
11-19: 10 -> 10
11-20: 10 -> 10
11-21: 10 -> 10
11-22: 10 -> 10
11-23: 10 -> 10
11-24: 10 -> 10
11-25: 10 -> 10
11-26: 10 -> 10
11-27: 10 -> 10
11-28: 10 -> 10
11-29: 10 -> 10
11-30: 10 -> 10
11-31: 10 -> 10
11-32: 10 -> 10
12-16: 10 -> 10
12-17: 10 -> 10
12-18: 10 -> 10
12-19: 10 -> 10
12-20: 10 -> 10
12-21: 10 -> 10
12-22: 10 -> 10
12-23: 10 -> 10
12-24: 10 -> 10
12-25: 10 -> 10
12-26: 10 -> 10
12-27: 10 -> 10
12-28: 10 -> 10
12-29: 10 -> 10
12-30: 10 -> 10
12-31: 10 -> 10
12-32: 10 -> 10
13-16: 10 -> 10
13-17: 10 -> 10
13-18: 10 -> 10
13-19: 10 -> 10
13-20: 10 -> 10
13-21: 10 -> 10
13-22: 10 -> 10
13-23: 10 -> 10
13-24: 10 -> 10
13-25: 10 -> 10
13-26: 10 -> 10
13-27: 10 -> 10
13-28: 10 -> 10
13-29: 10 -> 10
13-30: 10 -> 10
13-31: 10 -> 10
13-32: 10 -> 10
14-16: 10 -> 10
14-17: 10 -> 10
14-18: 10 -> 10
14-19: 10 -> 10
14-20: 10 -> 10
14-21: 10 -> 10
14-22: 10 -> 10
14-23: 10 -> 10
14-24: 10 -> 10
14-25: 10 -> 10
14-26: 10 -> 10
14-27: 10 -> 10
14-28: 10 -> 10
14-29: 10 -> 10
14-30: 10 -> 10
14-31: 10 -> 10
14-32: 10 -> 10
15-16: 10 -> 10
15-17: 10 -> 10
15-18: 10 -> 10
15-19: 10 -> 10
15-20: 10 -> 10
15-21: 10 -> 10
15-22: 10 -> 10
15-23: 10 -> 10
15-24: 10 -> 10
15-25: 10 -> 10
15-26: 10 -> 10
15-27: 10 -> 10
15-28: 10 -> 10
15-29: 10 -> 10
15-30: 10 -> 10
15-31: 10 -> 10
15-32: 10 -> 10
16-16: 10 -> 10
16-17: 10 -> 10
16-18: 10 -> 10
16-19: 10 -> 10
16-20: 10 -> 10
16-21: 10 -> 10
16-22: 10 -> 10
16-23: 10 -> 10
16-24: 10 -> 10
16-25: 10 -> 10
16-26: 10 -> 10
16-27: 10 -> 10
16-28: 10 -> 10
16-29: 10 -> 10
16-30: 10 -> 10
16-31: 10 -> 10
16-32: 10 -> 10
17-17: 10 -> 10
17-18: 10 -> 10
17-19: 10 -> 10
17-20: 10 -> 10
17-21: 10 -> 10
17-22: 10 -> 10
17-23: 10 -> 10
17-24: 10 -> 10
17-25: 10 -> 10
17-26: 10 -> 10
17-27: 10 -> 10
17-28: 10 -> 10
17-29: 10 -> 10
17-30: 10 -> 10
17-31: 10 -> 10
17-32: 10 -> 10
18-18: 10 -> 10
18-19: 10 -> 10
18-20: 10 -> 10
18-21: 10 -> 10
18-22: 10 -> 10
18-23: 10 -> 10
18-24: 10 -> 10
18-25: 10 -> 10
18-26: 10 -> 10
18-27: 10 -> 10
18-28: 10 -> 10
18-29: 10 -> 10
18-30: 10 -> 10
18-31: 10 -> 10
18-32: 10 -> 10
19-19: 10 -> 10
19-20: 10 -> 10
19-21: 10 -> 10
19-22: 10 -> 10
19-23: 10 -> 10
19-24: 10 -> 10
19-25: 10 -> 10
19-26: 10 -> 10
19-27: 10 -> 10
19-28: 10 -> 10
19-29: 10 -> 10
19-30: 10 -> 10
19-31: 10 -> 10
19-32: 10 -> 10
20-20: 10 -> 10
20-21: 10 -> 10
20-22: 10 -> 10
20-23: 10 -> 10
20-24: 10 -> 10
20-25: 10 -> 10
20-26: 10 -> 10
20-27: 10 -> 10
20-28: 10 -> 10
20-29: 10 -> 10
20-30: 10 -> 10
20-31: 10 -> 10
20-32: 10 -> 10
4-16: 100 -> 86
4-17: 100 -> 109
4-18: 100 -> 105
4-19: 100 -> 78
4-20: 100 -> 84
4-21: 100 -> 103
4-22: 100 -> 92
4-23: 100 -> 133
4-24: 100 -> 102
4-25: 100 -> 80
4-26: 100 -> 112
4-27: 100 -> 133
4-28: 100 -> 88
4-29: 100 -> 79
4-30: 100 -> 80
4-31: 100 -> 78
4-32: 100 -> 74
5-16: 100 -> 90
5-17: 100 -> 92
5-18: 100 -> 96
5-19: 100 -> 82
5-20: 100 -> 109
5-21: 100 -> 104
5-22: 100 -> 144
5-23: 100 -> 78
5-24: 100 -> 89
5-25: 100 -> 113
5-26: 100 -> 97
5-27: 100 -> 83
5-28: 100 -> 87
5-29: 100 -> 88
5-30: 100 -> 69
5-31: 100 -> 55
5-32: 100 -> 77
6-16: 100 -> 102
6-17: 100 -> 88
6-18: 100 -> 96
6-19: 100 -> 110
6-20: 100 -> 84
6-21: 100 -> 103
6-22: 100 -> 100
6-23: 100 -> 126
6-24: 100 -> 102
6-25: 100 -> 96
6-26: 100 -> 85
6-27: 100 -> 70
6-28: 100 -> 72
6-29: 100 -> 52
6-30: 100 -> 47
6-31: 100 -> 44
6-32: 100 -> 50
7-16: 100 -> 101
7-17: 100 -> 101
7-18: 100 -> 101
7-19: 100 -> 92
7-20: 100 -> 95
7-21: 100 -> 92
7-22: 100 -> 107
7-23: 100 -> 104
7-24: 100 -> 95
7-25: 100 -> 98
7-26: 100 -> 63
7-27: 100 -> 35
7-28: 100 -> 17
7-29: 100 -> 8
7-30: 100 -> 4
7-31: 100 -> 2
7-32: 100 -> 1
8-16: 100 -> 100
8-17: 100 -> 100
8-18: 100 -> 100
8-19: 100 -> 100
8-20: 100 -> 100
8-21: 100 -> 100
8-22: 100 -> 100
8-23: 100 -> 100
8-24: 100 -> 100
8-25: 100 -> 100
8-26: 100 -> 100
8-27: 100 -> 100
8-28: 100 -> 100
8-29: 100 -> 100
8-30: 100 -> 100
8-31: 100 -> 100
8-32: 100 -> 100
9-16: 100 -> 100
9-17: 100 -> 100
9-18: 100 -> 100
9-19: 100 -> 100
9-20: 100 -> 100
9-21: 100 -> 100
9-22: 100 -> 100
9-23: 100 -> 100
9-24: 100 -> 100
9-25: 100 -> 100
9-26: 100 -> 100
9-27: 100 -> 100
9-28: 100 -> 100
9-29: 100 -> 100
9-30: 100 -> 100
9-31: 100 -> 100
9-32: 100 -> 100
10-16: 100 -> 100
10-17: 100 -> 100
10-18: 100 -> 100
10-19: 100 -> 100
10-20: 100 -> 100
10-21: 100 -> 100
10-22: 100 -> 100
10-23: 100 -> 100
10-24: 100 -> 100
10-25: 100 -> 100
10-26: 100 -> 100
10-27: 100 -> 100
10-28: 100 -> 100
10-29: 100 -> 100
10-30: 100 -> 100
10-31: 100 -> 100
10-32: 100 -> 100
11-16: 100 -> 100
11-17: 100 -> 100
11-18: 100 -> 100
11-19: 100 -> 100
11-20: 100 -> 100
11-21: 100 -> 100
11-22: 100 -> 100
11-23: 100 -> 100
11-24: 100 -> 100
11-25: 100 -> 100
11-26: 100 -> 100
11-27: 100 -> 100
11-28: 100 -> 100
11-29: 100 -> 100
11-30: 100 -> 100
11-31: 100 -> 100
11-32: 100 -> 100
12-16: 100 -> 100
12-17: 100 -> 100
12-18: 100 -> 100
12-19: 100 -> 100
12-20: 100 -> 99
12-21: 100 -> 100
12-22: 100 -> 100
12-23: 100 -> 100
12-24: 100 -> 100
12-25: 100 -> 100
12-26: 100 -> 100
12-27: 100 -> 100
12-28: 100 -> 100
12-29: 100 -> 100
12-30: 100 -> 100
12-31: 100 -> 100
12-32: 100 -> 100
13-16: 100 -> 100
13-17: 100 -> 100
13-18: 100 -> 100
13-19: 100 -> 100
13-20: 100 -> 100
13-21: 100 -> 100
13-22: 100 -> 100
13-23: 100 -> 100
13-24: 100 -> 100
13-25: 100 -> 100
13-26: 100 -> 100
13-27: 100 -> 100
13-28: 100 -> 100
13-29: 100 -> 100
13-30: 100 -> 100
13-31: 100 -> 100
13-32: 100 -> 100
14-16: 100 -> 100
14-17: 100 -> 100
14-18: 100 -> 100
14-19: 100 -> 100
14-20: 100 -> 100
14-21: 100 -> 100
14-22: 100 -> 100
14-23: 100 -> 100
14-24: 100 -> 100
14-25: 100 -> 100
14-26: 100 -> 100
14-27: 100 -> 100
14-28: 100 -> 100
14-29: 100 -> 100
14-30: 100 -> 100
14-31: 100 -> 100
14-32: 100 -> 100
15-16: 100 -> 99
15-17: 100 -> 100
15-18: 100 -> 100
15-19: 100 -> 100
15-20: 100 -> 100
15-21: 100 -> 100
15-22: 100 -> 100
15-23: 100 -> 100
15-24: 100 -> 100
15-25: 100 -> 100
15-26: 100 -> 100
15-27: 100 -> 100
15-28: 100 -> 100
15-29: 100 -> 100
15-30: 100 -> 100
15-31: 100 -> 100
15-32: 100 -> 100
16-16: 100 -> 100
16-17: 100 -> 100
16-18: 100 -> 100
16-19: 100 -> 100
16-20: 100 -> 100
16-21: 100 -> 100
16-22: 100 -> 100
16-23: 100 -> 100
16-24: 100 -> 100
16-25: 100 -> 100
16-26: 100 -> 100
16-27: 100 -> 100
16-28: 100 -> 100
16-29: 100 -> 100
16-30: 100 -> 100
16-31: 100 -> 100
16-32: 100 -> 100
17-17: 100 -> 100
17-18: 100 -> 100
17-19: 100 -> 100
17-20: 100 -> 100
17-21: 100 -> 100
17-22: 100 -> 100
17-23: 100 -> 100
17-24: 100 -> 100
17-25: 100 -> 100
17-26: 100 -> 100
17-27: 100 -> 100
17-28: 100 -> 100
17-29: 100 -> 100
17-30: 100 -> 100
17-31: 100 -> 100
17-32: 100 -> 100
18-18: 100 -> 100
18-19: 100 -> 100
18-20: 100 -> 100
18-21: 100 -> 100
18-22: 100 -> 100
18-23: 100 -> 100
18-24: 100 -> 100
18-25: 100 -> 100
18-26: 100 -> 100
18-27: 100 -> 100
18-28: 100 -> 100
18-29: 100 -> 100
18-30: 100 -> 100
18-31: 100 -> 100
18-32: 100 -> 100
19-19: 100 -> 100
19-20: 100 -> 100
19-21: 100 -> 100
19-22: 100 -> 100
19-23: 100 -> 100
19-24: 100 -> 100
19-25: 100 -> 100
19-26: 100 -> 100
19-27: 100 -> 100
19-28: 100 -> 100
19-29: 100 -> 100
19-30: 100 -> 100
19-31: 100 -> 100
19-32: 100 -> 100
20-20: 100 -> 100
20-21: 100 -> 100
20-22: 100 -> 100
20-23: 100 -> 100
20-24: 100 -> 100
20-25: 100 -> 100
20-26: 100 -> 100
20-27: 100 -> 100
20-28: 100 -> 100
20-29: 100 -> 100
20-30: 100 -> 100
20-31: 100 -> 100
20-32: 100 -> 100
4-16: 1000 -> 933
4-17: 1000 -> 873
4-18: 1000 -> 793
4-19: 1000 -> 1238
4-20: 1000 -> 921
4-21: 1000 -> 1381
4-22: 1000 -> 955
4-23: 1000 -> 1288
4-24: 1000 -> 1130
4-25: 1000 -> 606
4-26: 1000 -> 1269
4-27: 1000 -> 882
4-28: 1000 -> 958
4-29: 1000 -> 1470
4-30: 1000 -> 934
4-31: 1000 -> 1097
4-32: 1000 -> 662
5-16: 1000 -> 947
5-17: 1000 -> 1097
5-18: 1000 -> 1153
5-19: 1000 -> 959
5-20: 1000 -> 812
5-21: 1000 -> 990
5-22: 1000 -> 743
5-23: 1000 -> 1109
5-24: 1000 -> 1078
5-25: 1000 -> 1422
5-26: 1000 -> 955
5-27: 1000 -> 886
5-28: 1000 -> 911
5-29: 1000 -> 908
5-30: 1000 -> 1247
5-31: 1000 -> 1118
5-32: 1000 -> 721
6-16: 1000 -> 1263
6-17: 1000 -> 1179
6-18: 1000 -> 976
6-19: 1000 -> 1076
6-20: 1000 -> 813
6-21: 1000 -> 1133
6-22: 1000 -> 1054
6-23: 1000 -> 1371
6-24: 1000 -> 1166
6-25: 1000 -> 1066
6-26: 1000 -> 991
6-27: 1000 -> 1018
6-28: 1000 -> 1031
6-29: 1000 -> 1063
6-30: 1000 -> 1090
6-31: 1000 -> 1040
6-32: 1000 -> 819
7-16: 1000 -> 1192
7-17: 1000 -> 793
7-18: 1000 -> 957
7-19: 1000 -> 1043
7-20: 1000 -> 1034
7-21: 1000 -> 928
7-22: 1000 -> 1002
7-23: 1000 -> 1049
7-24: 1000 -> 896
7-25: 1000 -> 954
7-26: 1000 -> 917
7-27: 1000 -> 1133
7-28: 1000 -> 937
7-29: 1000 -> 802
7-30: 1000 -> 945
7-31: 1000 -> 957
7-32: 1000 -> 859
8-16: 1000 -> 931
8-17: 1000 -> 983
8-18: 1000 -> 1038
8-19: 1000 -> 918
8-20: 1000 -> 984
8-21: 1000 -> 866
8-22: 1000 -> 996
8-23: 1000 -> 1002
8-24: 1000 -> 1028
8-25: 1000 -> 1032
8-26: 1000 -> 977
8-27: 1000 -> 935
8-28: 1000 -> 840
8-29: 1000 -> 796
8-30: 1000 -> 812
8-31: 1000 -> 690
8-32: 1000 -> 799
9-16: 1000 -> 896
9-17: 1000 -> 980
9-18: 1000 -> 1002
9-19: 1000 -> 957
9-20: 1000 -> 1001
9-21: 1000 -> 997
9-22: 1000 -> 993
9-23: 1000 -> 976
9-24: 1000 -> 1055
9-25: 1000 -> 1013
9-26: 1000 -> 869
9-27: 1000 -> 749
9-28: 1000 -> 727
9-29: 1000 -> 650
9-30: 1000 -> 625
9-31: 1000 -> 625
9-32: 1000 -> 607
10-16: 1000 -> 1012
10-17: 1000 -> 989
10-18: 1000 -> 1039
10-19: 1000 -> 984
10-20: 1000 -> 989
10-21: 1000 -> 989
10-22: 1000 -> 965
10-23: 1000 -> 994
10-24: 1000 -> 982
10-25: 1000 -> 989
10-26: 1000 -> 700
10-27: 1000 -> 467
10-28: 1000 -> 330
10-29: 1000 -> 260
10-30: 1000 -> 226
10-31: 1000 -> 206
10-32: 1000 -> 191
11-16: 1000 -> 998
11-17: 1000 -> 999
11-18: 1000 -> 1000
11-19: 1000 -> 1001
11-20: 1000 -> 999
11-21: 1000 -> 1000
11-22: 1000 -> 1000
11-23: 1000 -> 1000
11-24: 1000 -> 1000
11-25: 1000 -> 1000
11-26: 1000 -> 1000
11-27: 1000 -> 1000
11-28: 1000 -> 1000
11-29: 1000 -> 1000
11-30: 1000 -> 1000
11-31: 1000 -> 1000
11-32: 1000 -> 1000
12-16: 1000 -> 1002
12-17: 1000 -> 1000
12-18: 1000 -> 1002
12-19: 1000 -> 1000
12-20: 1000 -> 999
12-21: 1000 -> 1000
12-22: 1000 -> 1000
12-23: 1000 -> 1000
12-24: 1000 -> 1000
12-25: 1000 -> 1000
12-26: 1000 -> 1000
12-27: 1000 -> 1000
12-28: 1000 -> 1000
12-29: 1000 -> 1000
12-30: 1000 -> 1000
12-31: 1000 -> 1000
12-32: 1000 -> 1000
13-16: 1000 -> 1006
13-17: 1000 -> 1003
13-18: 1000 -> 1000
13-19: 1000 -> 999
13-20: 1000 -> 999
13-21: 1000 -> 1000
13-22: 1000 -> 1000
13-23: 1000 -> 1000
13-24: 1000 -> 1000
13-25: 1000 -> 1000
13-26: 1000 -> 1000
13-27: 1000 -> 1000
13-28: 1000 -> 1000
13-29: 1000 -> 1000
13-30: 1000 -> 1000
13-31: 1000 -> 1000
13-32: 1000 -> 1000
14-16: 1000 -> 1000
14-17: 1000 -> 994
14-18: 1000 -> 999
14-19: 1000 -> 1001
14-20: 1000 -> 1000
14-21: 1000 -> 998
14-22: 1000 -> 1000
14-23: 1000 -> 1000
14-24: 1000 -> 1000
14-25: 1000 -> 1000
14-26: 1000 -> 1000
14-27: 1000 -> 1000
14-28: 1000 -> 1000
14-29: 1000 -> 1000
14-30: 1000 -> 1000
14-31: 1000 -> 1000
14-32: 1000 -> 1000
15-16: 1000 -> 997
15-17: 1000 -> 998
15-18: 1000 -> 1001
15-19: 1000 -> 1001
15-20: 1000 -> 1000
15-21: 1000 -> 1000
15-22: 1000 -> 1000
15-23: 1000 -> 1000
15-24: 1000 -> 1000
15-25: 1000 -> 1000
15-26: 1000 -> 1000
15-27: 1000 -> 1000
15-28: 1000 -> 1000
15-29: 1000 -> 1000
15-30: 1000 -> 1000
15-31: 1000 -> 1000
15-32: 1000 -> 1000
16-16: 1000 -> 1001
16-17: 1000 -> 999
16-18: 1000 -> 1001
16-19: 1000 -> 1000
16-20: 1000 -> 1000
16-21: 1000 -> 1000
16-22: 1000 -> 1000
16-23: 1000 -> 1000
16-24: 1000 -> 1000
16-25: 1000 -> 1000
16-26: 1000 -> 1000
16-27: 1000 -> 1000
16-28: 1000 -> 1000
16-29: 1000 -> 1000
16-30: 1000 -> 1000
16-31: 1000 -> 1000
16-32: 1000 -> 1000
17-17: 1000 -> 999
17-18: 1000 -> 1000
17-19: 1000 -> 1000
17-20: 1000 -> 1000
17-21: 1000 -> 1000
17-22: 1000 -> 1000
17-23: 1000 -> 1000
17-24: 1000 -> 1000
17-25: 1000 -> 1000
17-26: 1000 -> 1000
17-27: 1000 -> 1000
17-28: 1000 -> 1000
17-29: 1000 -> 1000
17-30: 1000 -> 1000
17-31: 1000 -> 1000
17-32: 1000 -> 1000
18-18: 1000 -> 1001
18-19: 1000 -> 1001
18-20: 1000 -> 1000
18-21: 1000 -> 1000
18-22: 1000 -> 1000
18-23: 1000 -> 999
18-24: 1000 -> 1000
18-25: 1000 -> 1000
18-26: 1000 -> 1000
18-27: 1000 -> 1000
18-28: 1000 -> 1000
18-29: 1000 -> 1000
18-30: 1000 -> 1000
18-31: 1000 -> 1000
18-32: 1000 -> 1000
19-19: 1000 -> 1000
19-20: 1000 -> 1000
19-21: 1000 -> 1000
19-22: 1000 -> 1000
19-23: 1000 -> 1000
19-24: 1000 -> 1000
19-25: 1000 -> 1000
19-26: 1000 -> 1000
19-27: 1000 -> 1000
19-28: 1000 -> 1000
19-29: 1000 -> 1000
19-30: 1000 -> 1000
19-31: 1000 -> 1000
19-32: 1000 -> 1000
20-20: 1000 -> 999
20-21: 1000 -> 999
20-22: 1000 -> 1000
20-23: 1000 -> 1000
20-24: 1000 -> 1000
20-25: 1000 -> 1000
20-26: 1000 -> 1000
20-27: 1000 -> 1000
20-28: 1000 -> 1000
20-29: 1000 -> 1000
20-30: 1000 -> 1000
20-31: 1000 -> 1000
20-32: 1000 -> 1000
4-16: 10000 -> 8339
4-17: 10000 -> 12273
4-18: 10000 -> 6372
4-19: 10000 -> 12773
4-20: 10000 -> 9887
4-21: 10000 -> 9394
4-22: 10000 -> 8905
4-23: 10000 -> 10733
4-24: 10000 -> 9926
4-25: 10000 -> 7650
4-26: 10000 -> 7124
4-27: 10000 -> 9536
4-28: 10000 -> 10340
4-29: 10000 -> 9343
4-30: 10000 -> 9504
4-31: 10000 -> 6721
4-32: 10000 -> 20529
5-16: 10000 -> 12258
5-17: 10000 -> 11431
5-18: 10000 -> 8062
5-19: 10000 -> 9415
5-20: 10000 -> 7415
5-21: 10000 -> 9184
5-22: 10000 -> 10330
5-23: 10000 -> 8155
5-24: 10000 -> 7663
5-25: 10000 -> 11972
5-26: 10000 -> 11249
5-27: 10000 -> 8592
5-28: 10000 -> 8484
5-29: 10000 -> 9532
5-30: 10000 -> 10488
5-31: 10000 -> 9093
5-32: 10000 -> 8839
6-16: 10000 -> 8240
6-17: 10000 -> 10599
6-18: 10000 -> 8522
6-19: 10000 -> 8750
6-20: 10000 -> 8785
6-21: 10000 -> 9679
6-22: 10000 -> 8323
6-23: 10000 -> 9722
6-24: 10000 -> 10013
6-25: 10000 -> 10599
6-26: 10000 -> 10915
6-27: 10000 -> 10867
6-28: 10000 -> 10038
6-29: 10000 -> 9262
6-30: 10000 -> 10744
6-31: 10000 -> 11585
6-32: 10000 -> 8536
7-16: 10000 -> 11025
7-17: 10000 -> 11611
7-18: 10000 -> 9854
7-19: 10000 -> 9685
7-20: 10000 -> 9448
7-21: 10000 -> 9986
7-22: 10000 -> 9176
7-23: 10000 -> 9944
7-24: 10000 -> 10607
7-25: 10000 -> 10355
7-26: 10000 -> 9129
7-27: 10000 -> 9421
7-28: 10000 -> 8815
7-29: 10000 -> 10104
7-30: 10000 -> 10947
7-31: 10000 -> 12477
7-32: 10000 -> 9436
8-16: 10000 -> 10589
8-17: 10000 -> 8994
8-18: 10000 -> 9929
8-19: 10000 -> 9618
8-20: 10000 -> 8730
8-21: 10000 -> 9561
8-22: 10000 -> 9096
8-23: 10000 -> 8740
8-24: 10000 -> 10800
8-25: 10000 -> 9054
8-26: 10000 -> 9044
8-27: 10000 -> 9071
8-28: 10000 -> 10061
8-29: 10000 -> 10211
8-30: 10000 -> 11667
8-31: 10000 -> 10147
8-32: 10000 -> 9279
9-16: 10000 -> 10021
9-17: 10000 -> 9638
9-18: 10000 -> 9764
9-19: 10000 -> 10706
9-20: 10000 -> 10018
9-21: 10000 -> 9786
9-22: 10000 -> 10485
9-23: 10000 -> 10710
9-24: 10000 -> 10540
9-25: 10000 -> 10230
9-26: 10000 -> 10246
9-27: 10000 -> 9323
9-28: 10000 -> 9967
9-29: 10000 -> 9925
9-30: 10000 -> 9830
9-31: 10000 -> 9660
9-32: 10000 -> 9731
10-16: 10000 -> 10546
10-17: 10000 -> 10337
10-18: 10000 -> 9970
10-19: 10000 -> 10512
10-20: 10000 -> 10120
10-21: 10000 -> 9858
10-22: 10000 -> 9835
10-23: 10000 -> 9859
10-24: 10000 -> 10316
10-25: 10000 -> 9842
10-26: 10000 -> 10168
10-27: 10000 -> 9260
10-28: 10000 -> 9826
10-29: 10000 -> 9312
10-30: 10000 -> 9887
10-31: 10000 -> 8533
10-32: 10000 -> 9161
11-16: 10000 -> 9718
11-17: 10000 -> 10039
11-18: 10000 -> 10241
11-19: 10000 -> 9961
11-20: 10000 -> 10264
11-21: 10000 -> 9971
11-22: 10000 -> 10088
11-23: 10000 -> 10103
11-24: 10000 -> 10300
11-25: 10000 -> 9687
11-26: 10000 -> 9672
11-27: 10000 -> 9359
11-28: 10000 -> 8962
11-29: 10000 -> 8995
11-30: 10000 -> 8579
11-31: 10000 -> 8760
11-32: 10000 -> 8596
12-16: 10000 -> 10051
12-17: 10000 -> 9796
12-18: 10000 -> 10086
12-19: 10000 -> 9785
12-20: 10000 -> 9896
12-21: 10000 -> 9842
12-22: 10000 -> 10169
12-23: 10000 -> 9877
12-24: 10000 -> 10014
12-25: 10000 -> 10289
12-26: 10000 -> 9136
12-27: 10000 -> 8271
12-28: 10000 -> 7412
12-29: 10000 -> 7047
12-30: 10000 -> 6727
12-31: 10000 -> 6426
12-32: 10000 -> 6544
13-16: 10000 -> 9878
13-17: 10000 -> 10149
13-18: 10000 -> 9962
13-19: 10000 -> 10107
13-20: 10000 -> 9945
13-21: 10000 -> 10083
13-22: 10000 -> 9974
13-23: 10000 -> 9957
13-24: 10000 -> 9941
13-25: 10000 -> 10121
13-26: 10000 -> 7857
13-27: 10000 -> 5307
13-28: 10000 -> 4249
13-29: 10000 -> 3660
13-30: 10000 -> 3331
13-31: 10000 -> 3236
13-32: 10000 -> 3163
14-16: 10000 -> 9994
14-17: 10000 -> 9984
14-18: 10000 -> 10032
14-19: 10000 -> 10016
14-20: 10000 -> 10000
14-21: 10000 -> 10002
14-22: 10000 -> 9997
14-23: 10000 -> 9999
14-24: 10000 -> 10002
14-25: 10000 -> 10000
14-26: 10000 -> 10000
14-27: 10000 -> 10000
14-28: 10000 -> 9998
14-29: 10000 -> 9999
14-30: 10000 -> 9999
14-31: 10000 -> 9999
14-32: 10000 -> 9999
15-16: 10000 -> 10005
15-17: 10000 -> 10022
15-18: 10000 -> 9962
15-19: 10000 -> 9999
15-20: 10000 -> 9993
15-21: 10000 -> 10007
15-22: 10000 -> 9997
15-23: 10000 -> 9999
15-24: 10000 -> 10001
15-25: 10000 -> 10000
15-26: 10000 -> 9999
15-27: 10000 -> 9998
15-28: 10000 -> 9999
15-29: 10000 -> 9997
15-30: 10000 -> 9998
15-31: 10000 -> 9999
15-32: 10000 -> 9998
16-16: 10000 -> 9954
16-17: 10000 -> 10001
16-18: 10000 -> 9998
16-19: 10000 -> 9987
16-20: 10000 -> 10001
16-21: 10000 -> 9997
16-22: 10000 -> 9997
16-23: 10000 -> 9997
16-24: 10000 -> 9999
16-25: 10000 -> 10000
16-26: 10000 -> 9997
16-27: 10000 -> 9998
16-28: 10000 -> 9999
16-29: 10000 -> 9998
16-30: 10000 -> 9999
16-31: 10000 -> 9999
16-32: 10000 -> 10000
17-17: 10000 -> 9999
17-18: 10000 -> 9998
17-19: 10000 -> 9995
17-20: 10000 -> 9991
17-21: 10000 -> 9992
17-22: 10000 -> 10006
17-23: 10000 -> 9996
17-24: 10000 -> 9999
17-25: 10000 -> 9999
17-26: 10000 -> 10000
17-27: 10000 -> 9998
17-28: 10000 -> 9998
17-29: 10000 -> 9997
17-30: 10000 -> 9999
17-31: 10000 -> 9996
17-32: 10000 -> 9999
18-18: 10000 -> 10000
18-19: 10000 -> 10006
18-20: 10000 -> 9999
18-21: 10000 -> 10002
18-22: 10000 -> 9995
18-23: 10000 -> 10002
18-24: 10000 -> 10002
18-25: 10000 -> 9998
18-26: 10000 -> 9998
18-27: 10000 -> 9998
18-28: 10000 -> 9996
18-29: 10000 -> 9997
18-30: 10000 -> 9999
18-31: 10000 -> 9999
18-32: 10000 -> 9999
19-19: 10000 -> 10006
19-20: 10000 -> 9994
19-21: 10000 -> 9999
19-22: 10000 -> 10002
19-23: 10000 -> 9998
19-24: 10000 -> 10001
19-25: 10000 -> 10000
19-26: 10000 -> 9996
19-27: 10000 -> 9999
19-28: 10000 -> 10000
19-29: 10000 -> 9998
19-30: 10000 -> 9999
19-31: 10000 -> 10000
19-32: 10000 -> 9999
20-20: 10000 -> 10002
20-21: 10000 -> 9999
20-22: 10000 -> 10002
20-23: 10000 -> 9996
20-24: 10000 -> 10002
20-25: 10000 -> 10000
20-26: 10000 -> 10000
20-27: 10000 -> 9997
20-28: 10000 -> 9999
20-29: 10000 -> 9999
20-30: 10000 -> 9999
20-31: 10000 -> 10000
20-32: 10000 -> 9999
4-16: 100000 -> 140262
4-17: 100000 -> 73438
4-18: 100000 -> 86771
4-19: 100000 -> 76291
4-20: 100000 -> 164533
4-21: 100000 -> 77253
4-22: 100000 -> 97970
4-23: 100000 -> 99044
4-24: 100000 -> 62554
4-25: 100000 -> 114051
4-26: 100000 -> 81450
4-27: 100000 -> 74775
4-28: 100000 -> 56438
4-29: 100000 -> 78139
4-30: 100000 -> 82851
4-31: 100000 -> 102297
4-32: 100000 -> 84577
5-16: 100000 -> 104642
5-17: 100000 -> 113946
5-18: 100000 -> 96493
5-19: 100000 -> 100295
5-20: 100000 -> 117084
5-21: 100000 -> 81066
5-22: 100000 -> 96047
5-23: 100000 -> 85434
5-24: 100000 -> 91179
5-25: 100000 -> 82934
5-26: 100000 -> 102689
5-27: 100000 -> 105053
5-28: 100000 -> 73365
5-29: 100000 -> 94686
5-30: 100000 -> 89930
5-31: 100000 -> 68888
5-32: 100000 -> 91805
6-16: 100000 -> 107495
6-17: 100000 -> 91369
6-18: 100000 -> 96597
6-19: 100000 -> 108368
6-20: 100000 -> 79745
6-21: 100000 -> 89185
6-22: 100000 -> 106622
6-23: 100000 -> 90543
6-24: 100000 -> 142991
6-25: 100000 -> 120829
6-26: 100000 -> 108206
6-27: 100000 -> 85126
6-28: 100000 -> 74812
6-29: 100000 -> 93616
6-30: 100000 -> 118969
6-31: 100000 -> 86016
6-32: 100000 -> 95513
7-16: 100000 -> 108993
7-17: 100000 -> 108396
7-18: 100000 -> 102600
7-19: 100000 -> 97438
7-20: 100000 -> 89395
7-21: 100000 -> 101000
7-22: 100000 -> 112919
7-23: 100000 -> 97266
7-24: 100000 -> 95465
7-25: 100000 -> 106019
7-26: 100000 -> 96466
7-27: 100000 -> 85874
7-28: 100000 -> 89057
7-29: 100000 -> 116551
7-30: 100000 -> 94693
7-31: 100000 -> 107192
7-32: 100000 -> 102930
8-16: 100000 -> 94104
8-17: 100000 -> 90373
8-18: 100000 -> 104682
8-19: 100000 -> 107449
8-20: 100000 -> 100269
8-21: 100000 -> 101980
8-22: 100000 -> 100150
8-23: 100000 -> 101669
8-24: 100000 -> 102341
8-25: 100000 -> 98319
8-26: 100000 -> 110465
8-27: 100000 -> 91220
8-28: 100000 -> 103618
8-29: 100000 -> 95055
8-30: 100000 -> 91475
8-31: 100000 -> 101958
8-32: 100000 -> 96946
9-16: 100000 -> 102434
9-17: 100000 -> 98748
9-18: 100000 -> 97315
9-19: 100000 -> 98828
9-20: 100000 -> 91819
9-21: 100000 -> 97297
9-22: 100000 -> 107104
9-23: 100000 -> 92800
9-24: 100000 -> 101125
9-25: 100000 -> 94331
9-26: 100000 -> 109561
9-27: 100000 -> 99440
9-28: 100000 -> 101494
9-29: 100000 -> 101953
9-30: 100000 -> 109920
9-31: 100000 -> 103731
9-32: 100000 -> 96289
10-16: 100000 -> 104231
10-17: 100000 -> 95770
10-18: 100000 -> 102980
10-19: 100000 -> 103592
10-20: 100000 -> 93815
10-21: 100000 -> 98107
10-22: 100000 -> 97693
10-23: 100000 -> 97750
10-24: 100000 -> 101553
10-25: 100000 -> 98965
10-26: 100000 -> 97263
10-27: 100000 -> 101872
10-28: 100000 -> 100186
10-29: 100000 -> 95566
10-30: 100000 -> 101894
10-31: 100000 -> 100683
10-32: 100000 -> 103854
11-16: 100000 -> 98429
11-17: 100000 -> 97547
11-18: 100000 -> 98771
11-19: 100000 -> 100422
11-20: 100000 -> 101488
11-21: 100000 -> 98125
11-22: 100000 -> 99925
11-23: 100000 -> 103607
11-24: 100000 -> 103256
11-25: 100000 -> 97912
11-26: 100000 -> 101768
11-27: 100000 -> 98450
11-28: 100000 -> 100081
11-29: 100000 -> 97521
11-30: 100000 -> 99489
11-31: 100000 -> 103084
11-32: 100000 -> 99667
12-16: 100000 -> 101163
12-17: 100000 -> 101131
12-18: 100000 -> 99145
12-19: 100000 -> 100732
12-20: 100000 -> 101789
12-21: 100000 -> 98097
12-22: 100000 -> 100018
12-23: 100000 -> 98539
12-24: 100000 -> 101072
12-25: 100000 -> 99846
12-26: 100000 -> 99273
12-27: 100000 -> 101947
12-28: 100000 -> 97941
12-29: 100000 -> 100242
12-30: 100000 -> 98384
12-31: 100000 -> 96128
12-32: 100000 -> 94599
13-16: 100000 -> 100377
13-17: 100000 -> 98958
13-18: 100000 -> 99031
13-19: 100000 -> 98815
13-20: 100000 -> 100671
13-21: 100000 -> 100883
13-22: 100000 -> 102215
13-23: 100000 -> 99465
13-24: 100000 -> 99152
13-25: 100000 -> 98533
13-26: 100000 -> 101945
13-27: 100000 -> 96638
13-28: 100000 -> 97843
13-29: 100000 -> 96036
13-30: 100000 -> 96031
13-31: 100000 -> 92435
13-32: 100000 -> 92576
14-16: 100000 -> 99418
14-17: 100000 -> 100150
14-18: 100000 -> 99964
14-19: 100000 -> 98246
14-20: 100000 -> 100280
14-21: 100000 -> 101519
14-22: 100000 -> 100990
14-23: 100000 -> 99526
14-24: 100000 -> 99632
14-25: 100000 -> 100952
14-26: 100000 -> 98227
14-27: 100000 -> 96357
14-28: 100000 -> 94163
14-29: 100000 -> 89971
14-30: 100000 -> 89073
14-31: 100000 -> 87206
14-32: 100000 -> 87020
15-16: 100000 -> 100176
15-17: 100000 -> 99830
15-18: 100000 -> 99435
15-19: 100000 -> 100203
15-20: 100000 -> 99893
15-21: 100000 -> 100244
15-22: 100000 -> 100200
15-23: 100000 -> 100016
15-24: 100000 -> 99542
15-25: 100000 -> 99574
15-26: 100000 -> 92952
15-27: 100000 -> 85256
15-28: 100000 -> 79524
15-29: 100000 -> 75943
15-30: 100000 -> 73001
15-31: 100000 -> 72697
15-32: 100000 -> 72442
16-16: 100000 -> 100150
16-17: 100000 -> 99386
16-18: 100000 -> 100745
16-19: 100000 -> 100131
16-20: 100000 -> 100238
16-21: 100000 -> 100477
16-22: 100000 -> 99496
16-23: 100000 -> 99588
16-24: 100000 -> 100297
16-25: 100000 -> 100233
16-26: 100000 -> 85744
16-27: 100000 -> 71171
16-28: 100000 -> 60344
16-29: 100000 -> 54575
16-30: 100000 -> 49788
16-31: 100000 -> 48598
16-32: 100000 -> 48334
17-17: 100000 -> 100268
17-18: 100000 -> 100016
17-19: 100000 -> 100068
17-20: 100000 -> 99935
17-21: 100000 -> 99971
17-22: 100000 -> 100301
17-23: 100000 -> 100200
17-24: 100000 -> 100346
17-25: 100000 -> 99837
17-26: 100000 -> 65046
17-27: 100000 -> 35618
17-28: 100000 -> 17469
17-29: 100000 -> 8459
17-30: 100000 -> 4161
17-31: 100000 -> 2064
17-32: 100000 -> 1028
18-18: 100000 -> 99861
18-19: 100000 -> 99988
18-20: 100000 -> 99998
18-21: 100000 -> 99935
18-22: 100000 -> 100037
18-23: 100000 -> 100002
18-24: 100000 -> 99979
18-25: 100000 -> 99997
18-26: 100000 -> 99929
18-27: 100000 -> 99867
18-28: 100000 -> 99857
18-29: 100000 -> 99854
18-30: 100000 -> 99859
18-31: 100000 -> 99857
18-32: 100000 -> 99860
19-19: 100000 -> 99934
19-20: 100000 -> 100081
19-21: 100000 -> 100122
19-22: 100000 -> 100028
19-23: 100000 -> 100026
19-24: 100000 -> 99981
19-25: 100000 -> 99983
19-26: 100000 -> 99929
19-27: 100000 -> 99897
19-28: 100000 -> 99876
19-29: 100000 -> 99894
19-30: 100000 -> 99863
19-31: 100000 -> 99857
19-32: 100000 -> 99868
20-20: 100000 -> 100022
20-21: 100000 -> 100036
20-22: 100000 -> 99985
20-23: 100000 -> 99994
20-24: 100000 -> 100002
20-25: 100000 -> 99994
20-26: 100000 -> 99916
20-27: 100000 -> 99875
20-28: 100000 -> 99872
20-29: 100000 -> 99854
20-30: 100000 -> 99851
20-31: 100000 -> 99868
20-32: 100000 -> 99878
104408
expected: 10000000, estimate: 10013881, time: 1336
Percentage error  0.0013881
Expect estimate: 70630 is between 68293.75 and 71706.25
104408
Expect estimate: 19999 is between 19878.125 and 20121.875
Expect estimate: 16001 is between 15902.5 and 16097.5
Percentage error  6.25E-5
p=4
hllcardinality=0 cardinality=0
0 : 0
p=5
hllcardinality=0 cardinality=0
0 : 0
p=6
hllcardinality=0 cardinality=0
0 : 0
p=7
hllcardinality=0 cardinality=0
0 : 0
p=8
hllcardinality=0 cardinality=0
0 : 0
p=9
hllcardinality=0 cardinality=0
0 : 0
p=10
hllcardinality=0 cardinality=0
0 : 0
p=11
hllcardinality=0 cardinality=0
0 : 0
p=12
hllcardinality=0 cardinality=0
0 : 0
p=13
hllcardinality=0 cardinality=0
0 : 0
p=14
hllcardinality=0 cardinality=0
0 : 0
p=15
hllcardinality=0 cardinality=0
0 : 0
p=16
hllcardinality=0 cardinality=0
0 : 0
p=17
hllcardinality=0 cardinality=0
0 : 0
p=18
hllcardinality=0 cardinality=0
0 : 0
p=19
hllcardinality=0 cardinality=0
0 : 0
p=20
hllcardinality=0 cardinality=0
0 : 0
p=21
hllcardinality=0 cardinality=0
0 : 0
p=22
hllcardinality=0 cardinality=0
0 : 0
p=23
hllcardinality=0 cardinality=0
0 : 0
p=4
hllcardinality=1 cardinality=1
1 : 1
p=5
hllcardinality=1 cardinality=1
1 : 1
p=6
hllcardinality=1 cardinality=1
1 : 1
p=7
hllcardinality=1 cardinality=1
1 : 1
p=8
hllcardinality=1 cardinality=1
1 : 1
p=9
hllcardinality=1 cardinality=1
1 : 1
p=10
hllcardinality=1 cardinality=1
1 : 1
p=11
hllcardinality=1 cardinality=1
1 : 1
p=12
hllcardinality=1 cardinality=1
1 : 1
p=13
hllcardinality=1 cardinality=1
1 : 1
p=14
hllcardinality=1 cardinality=1
1 : 1
p=15
hllcardinality=1 cardinality=1
1 : 1
p=16
hllcardinality=1 cardinality=1
1 : 1
p=17
hllcardinality=1 cardinality=1
1 : 1
p=18
hllcardinality=1 cardinality=1
1 : 1
p=19
hllcardinality=1 cardinality=1
1 : 1
p=20
hllcardinality=1 cardinality=1
1 : 1
p=21
hllcardinality=1 cardinality=1
1 : 1
p=22
hllcardinality=1 cardinality=1
1 : 1
p=23
hllcardinality=1 cardinality=1
1 : 1
p=4
hllcardinality=9 cardinality=10
9 : 9
p=5
hllcardinality=12 cardinality=10
12 : 12
p=6
hllcardinality=10 cardinality=10
10 : 10
p=7
hllcardinality=10 cardinality=10
10 : 10
p=8
hllcardinality=10 cardinality=10
10 : 10
p=9
hllcardinality=10 cardinality=10
10 : 10
p=10
hllcardinality=9 cardinality=10
9 : 9
p=11
hllcardinality=10 cardinality=10
10 : 10
p=12
hllcardinality=10 cardinality=10
10 : 10
p=13
hllcardinality=10 cardinality=10
10 : 10
p=14
hllcardinality=10 cardinality=10
10 : 10
p=15
hllcardinality=10 cardinality=10
10 : 10
p=16
hllcardinality=10 cardinality=10
10 : 10
p=17
hllcardinality=10 cardinality=10
10 : 10
p=18
hllcardinality=10 cardinality=10
10 : 10
p=19
hllcardinality=10 cardinality=10
10 : 10
p=20
hllcardinality=10 cardinality=10
10 : 10
p=21
hllcardinality=10 cardinality=10
10 : 10
p=22
hllcardinality=10 cardinality=10
10 : 10
p=23
hllcardinality=10 cardinality=10
10 : 10
p=4
hllcardinality=81 cardinality=100
81 : 81
p=5
hllcardinality=106 cardinality=100
106 : 106
p=6
hllcardinality=96 cardinality=100
96 : 96
p=7
hllcardinality=97 cardinality=100
97 : 97
p=8
hllcardinality=105 cardinality=100
105 : 105
p=9
hllcardinality=99 cardinality=100
99 : 99
p=10
hllcardinality=100 cardinality=100
100 : 100
p=11
hllcardinality=98 cardinality=100
98 : 98
p=12
hllcardinality=101 cardinality=100
101 : 101
p=13
hllcardinality=101 cardinality=100
101 : 101
p=14
hllcardinality=100 cardinality=100
100 : 100
p=15
hllcardinality=100 cardinality=100
100 : 100
p=16
hllcardinality=100 cardinality=100
100 : 100
p=17
hllcardinality=100 cardinality=100
100 : 100
p=18
hllcardinality=100 cardinality=100
100 : 100
p=19
hllcardinality=100 cardinality=100
100 : 100
p=20
hllcardinality=100 cardinality=100
100 : 100
p=21
hllcardinality=100 cardinality=100
100 : 100
p=22
hllcardinality=100 cardinality=100
100 : 100
p=23
hllcardinality=100 cardinality=100
100 : 100
p=4
hllcardinality=902 cardinality=1000
902 : 902
p=5
hllcardinality=936 cardinality=1000
936 : 936
p=6
hllcardinality=1105 cardinality=1000
1105 : 1105
p=7
hllcardinality=1116 cardinality=1000
1116 : 1116
p=8
hllcardinality=973 cardinality=1000
973 : 973
p=9
hllcardinality=951 cardinality=1000
951 : 951
p=10
hllcardinality=981 cardinality=1000
981 : 981
p=11
hllcardinality=1011 cardinality=1000
1011 : 1011
p=12
hllcardinality=998 cardinality=1000
998 : 998
p=13
hllcardinality=1003 cardinality=1000
1003 : 1003
p=14
hllcardinality=1003 cardinality=1000
1003 : 1003
p=15
hllcardinality=1002 cardinality=1000
1002 : 1002
p=16
hllcardinality=1001 cardinality=1000
1001 : 1001
p=17
hllcardinality=1003 cardinality=1000
1003 : 1003
p=18
hllcardinality=1001 cardinality=1000
1001 : 1001
p=19
hllcardinality=1001 cardinality=1000
1001 : 1001
p=20
hllcardinality=998 cardinality=1000
998 : 998
p=21
hllcardinality=1000 cardinality=1000
1000 : 1000
p=22
hllcardinality=1000 cardinality=1000
1000 : 1000
p=23
hllcardinality=1000 cardinality=1000
1000 : 1000
p=4
hllcardinality=11961 cardinality=10000
11961 : 11961
p=5
hllcardinality=10738 cardinality=10000
10738 : 10738
p=6
hllcardinality=9206 cardinality=10000
9206 : 9206
p=7
hllcardinality=11218 cardinality=10000
11218 : 11218
p=8
hllcardinality=10756 cardinality=10000
10756 : 10756
p=9
hllcardinality=10055 cardinality=10000
10055 : 10055
p=10
hllcardinality=9762 cardinality=10000
9762 : 9762
p=11
hllcardinality=9738 cardinality=10000
9738 : 9738
p=12
hllcardinality=10050 cardinality=10000
10050 : 10050
p=13
hllcardinality=10175 cardinality=10000
10175 : 10175
p=14
hllcardinality=9943 cardinality=10000
9943 : 9943
p=15
hllcardinality=9921 cardinality=10000
9921 : 9921
p=16
hllcardinality=9989 cardinality=10000
9989 : 9989
p=17
hllcardinality=9978 cardinality=10000
9978 : 9978
p=18
hllcardinality=9994 cardinality=10000
9994 : 9994
p=19
hllcardinality=10019 cardinality=10000
10019 : 10019
p=20
hllcardinality=9992 cardinality=10000
9992 : 9992
p=21
hllcardinality=10003 cardinality=10000
10003 : 10003
p=22
hllcardinality=10003 cardinality=10000
10003 : 10003
p=23
hllcardinality=9994 cardinality=10000
9994 : 9994
p=4
hllcardinality=54778 cardinality=100000
54778 : 54778
p=5
hllcardinality=102915 cardinality=100000
102915 : 102915
p=6
hllcardinality=83879 cardinality=100000
83879 : 83879
p=7
hllcardinality=120748 cardinality=100000
120748 : 120748
p=8
hllcardinality=110094 cardinality=100000
110094 : 110094
p=9
hllcardinality=97889 cardinality=100000
97889 : 97889
p=10
hllcardinality=105334 cardinality=100000
105334 : 105334
p=11
hllcardinality=101890 cardinality=100000
101890 : 101890
p=12
hllcardinality=100413 cardinality=100000
100413 : 100413
p=13
hllcardinality=97866 cardinality=100000
97866 : 97866
p=14
hllcardinality=100963 cardinality=100000
100963 : 100963
p=15
hllcardinality=100086 cardinality=100000
100086 : 100086
p=16
hllcardinality=100228 cardinality=100000
100228 : 100228
p=17
hllcardinality=99906 cardinality=100000
99906 : 99906
p=18
hllcardinality=99982 cardinality=100000
99982 : 99982
p=19
hllcardinality=100067 cardinality=100000
100067 : 100067
p=20
hllcardinality=100014 cardinality=100000
100014 : 100014
p=21
hllcardinality=100021 cardinality=100000
100021 : 100021
p=22
hllcardinality=99991 cardinality=100000
99991 : 99991
p=23
hllcardinality=100041 cardinality=100000
100041 : 100041
p=4
hllcardinality=960942 cardinality=1000000
960942 : 960942
p=5
hllcardinality=989280 cardinality=1000000
989280 : 989280
p=6
hllcardinality=1189040 cardinality=1000000
1189040 : 1189040
p=7
hllcardinality=1147095 cardinality=1000000
1147095 : 1147095
p=8
hllcardinality=918124 cardinality=1000000
918124 : 918124
p=9
hllcardinality=1013256 cardinality=1000000
1013256 : 1013256
p=10
hllcardinality=1066765 cardinality=1000000
1066765 : 1066765
p=11
hllcardinality=1001414 cardinality=1000000
1001414 : 1001414
p=12
hllcardinality=1028519 cardinality=1000000
1028519 : 1028519
p=13
hllcardinality=1012919 cardinality=1000000
1012919 : 1012919
p=14
hllcardinality=1003077 cardinality=1000000
1003077 : 1003077
p=15
hllcardinality=1007111 cardinality=1000000
1007111 : 1007111
p=16
hllcardinality=1004714 cardinality=1000000
1004714 : 1004714
p=17
hllcardinality=997085 cardinality=1000000
997085 : 997085
p=18
hllcardinality=997766 cardinality=1000000
997766 : 997766
p=19
hllcardinality=1000923 cardinality=1000000
1000923 : 1000923
p=20
hllcardinality=1000278 cardinality=1000000
1000278 : 1000278
p=21
hllcardinality=999400 cardinality=1000000
999400 : 999400
p=22
hllcardinality=999952 cardinality=1000000
999952 : 999952
p=23
hllcardinality=1000085 cardinality=1000000
1000085 : 1000085
Expect estimate: 200110 is between 198781.25 and 201218.75
Expect estimate: 14988 is between 14634.375 and 15365.625
Tests run: 21, Failures: 0, Errors: 0, Skipped: 0, Time elapsed: 29.958 sec - in com.clearspring.analytics.stream.cardinality.TestHyperLogLogPlus
Running com.clearspring.analytics.stream.cardinality.TestLinearCounting
Tests run: 8, Failures: 0, Errors: 0, Skipped: 0, Time elapsed: 0.008 sec - in com.clearspring.analytics.stream.cardinality.TestLinearCounting
Running com.clearspring.analytics.stream.cardinality.RegisterSetTest
Tests run: 5, Failures: 0, Errors: 0, Skipped: 0, Time elapsed: 0 sec - in com.clearspring.analytics.stream.cardinality.RegisterSetTest
Running com.clearspring.analytics.stream.cardinality.TestAndGraphResults
Tests run: 1, Failures: 0, Errors: 0, Skipped: 1, Time elapsed: 0 sec - in com.clearspring.analytics.stream.cardinality.TestAndGraphResults
Running com.clearspring.analytics.stream.cardinality.TestICardinality
size: 65536 bytes
1004405
% Error: 0.4405
Tests run: 2, Failures: 0, Errors: 0, Skipped: 0, Time elapsed: 0.122 sec - in com.clearspring.analytics.stream.cardinality.TestICardinality
Running com.clearspring.analytics.stream.TestStreamSummary
Geometric:
0
1
2
3
4
[{24953:[{0:0}]},{18676:[{1:0}]},{14008:[{2:0}]},{10445:[{3:0}]},{8036:[{4:3}]},{5932:[{5:9}]},{4499:[{6:4443}]},{4484:[{7:4482},{9:4482}]},{4483:[{8:4482}]}]
[{1:[{X:0}]}]
[{2:[{X:0}]}]
[{2:[{X:0}]},{1:[{Y:0}]}]
[{2:[{X:0}]},{1:[{Y:0},{Z:0}]}]
[{2:[{X:0},{A:1}]},{1:[{Z:0}]}]
[{2:[{X:0},{A:1},{B:1}]}]
[{3:[{C:2}]},{2:[{A:1},{B:1}]}]
[{3:[{C:2},{X:2}]},{2:[{B:1}]}]
[{4:[{X:2}]},{3:[{C:2}]},{2:[{B:1}]}]
[{4:[{X:2}]},{3:[{C:2},{A:2}]}]
[{4:[{X:2},{A:2}]},{3:[{C:2}]}]
[{5:[{A:2}]},{4:[{X:2}]},{3:[{C:2}]}]
Insert with counts vs. single inserts:
[{45:[{D:15}]},{25:[{C:0}]},{21:[{A:20}]}]
[{45:[{D:15}]},{25:[{C:0}]},{21:[{A:20}]}]
Tests run: 8, Failures: 0, Errors: 0, Skipped: 0, Time elapsed: 0.034 sec - in com.clearspring.analytics.stream.TestStreamSummary
Running com.clearspring.analytics.stream.TestSampleSet
Tests run: 4, Failures: 0, Errors: 0, Skipped: 0, Time elapsed: 0.001 sec - in com.clearspring.analytics.stream.TestSampleSet
Running com.clearspring.analytics.stream.membership.BloomFilterTest
1/11 - got 0.00885, math says 0.00819
2/11 - got 0.00462, math says 0.00509
3/11 - got 0.00237, math says 0.00314
4/11 - got 0.00197, math says 0.00194
5/11 - got 0.00113, math says 0.0012
6/11 - got 9.8E-4, math says 7.44E-4
7/11 - got 5.2E-4, math says 4.59E-4
8/11 - got 5.8E-4, math says 2.84E-4
9/11 - got 1.8E-4, math says 1.76E-4
10/11 - got 1.9E-4, math says 1.09E-4
11/11 - got 2.7E-4, math says 6.71E-5
expectedFalsePositiveProbability
Tests run: 15, Failures: 0, Errors: 0, Skipped: 4, Time elapsed: 4.9 sec - in com.clearspring.analytics.stream.membership.BloomFilterTest
Running com.clearspring.analytics.stream.membership.Base64Test
Tests run: 1, Failures: 0, Errors: 0, Skipped: 0, Time elapsed: 0.096 sec - in com.clearspring.analytics.stream.membership.Base64Test
Running com.clearspring.analytics.stream.membership.FilterTest
Tests run: 1, Failures: 0, Errors: 0, Skipped: 0, Time elapsed: 0.054 sec - in com.clearspring.analytics.stream.membership.FilterTest
Running com.clearspring.analytics.util.TestDoublyLinkedList
Tests run: 7, Failures: 0, Errors: 0, Skipped: 0, Time elapsed: 0.001 sec - in com.clearspring.analytics.util.TestDoublyLinkedList

Results :

Tests run: 147, Failures: 0, Errors: 0, Skipped: 9

[INFO] ------------------------------------------------------------------------
[INFO] BUILD SUCCESS
[INFO] ------------------------------------------------------------------------
[INFO] Total time: 01:43 min
[INFO] Finished at: 2017-01-05T21:45:12-06:00
[INFO] Final Memory: 29M/1930M
[INFO] ------------------------------------------------------------------------
