f4e6a32b3e1c9ccc68323179e43a10801e6d6f92 [FaultTracer] Extracted changes: 0 3 1 0 0 0 0 0 0 0 0 0 0 0 0 1 0 0 0 0 0 0 0 0 0 0 0 1
79a950fb82406b333cc83c1366e7e72ae1e86a9e [FaultTracer] Extracted changes: 0 0 1 0 0 0 0 0 0 0 0 0 0 0 0 1 0 0 0 0 0 0 0 0 0 0 0 1
69a316a5a78e3867552408ce09ef098382f84ae9 [FaultTracer] Extracted changes: 0 0 0 0 0 0 0 0 0 0 0 0 0 0 0 0 0 0 0 0 0 0 0 0 0 0 0 0
37a935b3b41f446efaed6ae58dad71388c5e2070 [FaultTracer] Extracted changes: 0 0 0 0 0 0 0 0 0 0 0 0 0 0 0 0 0 0 0 0 0 0 0 0 0 0 0 0
40bef683cea1f093a613ab79fc224b9e450e6d91 [FaultTracer] Extracted changes: 0 2 3 0 0 0 0 0 0 1 0 0 0 1 6 2 0 0 0 0 0 1 0 0 0 1 3 1
458e86866a753dc22f5b6fa8f62843c269e020e3 [FaultTracer] Extracted changes: 0 0 1 0 0 0 0 0 0 0 0 0 0 3 1 3 0 0 0 0 0 0 0 0 0 1 1 1
e30aaf5f479d50dcdc76a77daa06da09fef130fa [FaultTracer] Extracted changes: 0 0 0 0 0 0 0 0 0 0 0 0 0 0 0 0 0 0 0 0 0 0 0 0 0 0 0 0
cc60fb564b639112352f3ba7d3f5568d8460fd8b [FaultTracer] Extracted changes: 0 0 0 0 0 0 0 0 0 0 0 0 0 0 0 0 0 0 0 0 0 0 0 0 0 0 0 0
edb85e1cc78f1aecce0a9a4af32cea103d5a4b03 [FaultTracer] Extracted changes: 0 9 3 0 0 0 0 0 0 0 0 0 0 0 3 4 0 0 0 0 0 0 0 0 0 0 2 1
af14e026bf270e09ec03ef4d72ee30aaeb815d95 [FaultTracer] Extracted changes: 7 8 14 4 0 0 0 0 2 2 5 5 0 4 6 18 0 0 0 0 2 2 1 1 0 1 3 7
a522ad09aef5f774338c2876e08cfdaae460ea36 [FaultTracer] Extracted changes: 0 0 5 2 0 0 0 0 0 1 0 0 0 6 0 0 0 0 0 0 0 1 0 0 0 3 0 0
b5ae0bbc6fa3de2073f4147a817cb4114027544b [FaultTracer] Extracted changes: 11 1 17 5 0 0 0 2 0 2 5 5 0 3 3 20 0 0 0 2 0 2 1 1 0 3 2 6
732b210ec81a7dc44474297f3854b344c8791bcb [FaultTracer] Extracted changes: 1 12 17 5 0 0 0 0 2 2 5 5 0 3 3 20 0 0 0 0 2 2 1 1 0 2 3 6
e24427b3037a02b5803eb1b92f33e4f200239572 [FaultTracer] Extracted changes: 12 1 17 5 0 0 0 2 0 2 5 5 0 3 3 20 0 0 0 2 0 2 1 1 0 3 2 6
efdaf40c8aa6a5dd27b226961e1faefe699b8ebc [FaultTracer] Extracted changes: 0 0 0 0 0 0 0 0 0 0 0 0 0 0 0 0 0 0 0 0 0 0 0 0 0 0 0 0
e7dca95d7fc913737e8de25164c9f7b3347f0f32 [FaultTracer] Extracted changes: 0 11 16 4 0 0 0 0 2 2 5 5 0 3 3 20 0 0 0 0 2 2 1 1 0 2 3 6
875c5153011472af12c9ec22a94ba907c8ca0a0f [FaultTracer] Extracted changes: 0 2 5 5 0 0 0 0 0 0 0 0 0 0 0 0 0 0 0 0 0 0 0 0 0 0 0 0
4258af532ad29138e806e9e33a4d2b0dfe0d03d1 [FaultTracer] Extracted changes: 0 0 0 0 0 0 0 0 0 0 0 0 0 0 0 0 0 0 0 0 0 0 0 0 0 0 0 0
4db33f9de92bab087634801595eb1b2519944b1a [FaultTracer] Extracted changes: 0 0 0 0 0 0 0 0 0 0 0 0 0 0 0 0 0 0 0 0 0 0 0 0 0 0 0 0
be9969a1e54c88c576ee985a655118be1920d602 [FaultTracer] Extracted changes: 0 0 0 0 0 0 0 0 0 0 0 0 0 0 0 0 0 0 0 0 0 0 0 0 0 0 0 0
b996bdc3a2097370dbc5d4800d9b00aab51d0d34 [FaultTracer] Extracted changes: 0 0 3 1 0 0 0 0 0 0 0 0 0 0 1 4 0 0 0 0 0 0 0 0 0 0 1 2
287f1b77838d7fbf01080f691374ee68c7aed5e8 [FaultTracer] Extracted changes: 0 1 2 2 0 0 0 0 0 0 0 0 0 0 0 0 0 0 0 0 0 0 0 0 0 0 0 0
19fd76016c62d848ea3f7cad495543fa93c46919 [FaultTracer] Extracted changes: 0 1 4 2 0 0 0 0 0 1 0 0 1 2 2 1 0 0 0 0 0 1 0 0 1 1 1 1
3ab5875cea7b5771854a5695a51b0dbe40edd160 [FaultTracer] Extracted changes: 2 0 3 3 0 0 0 0 0 0 0 0 0 0 0 0 0 0 0 0 0 0 0 0 0 0 0 0
63a3423c326b00015c6a560c026de3526510cf32 [FaultTracer] Extracted changes: 0 2 3 3 0 0 0 0 0 0 0 0 0 0 0 0 0 0 0 0 0 0 0 0 0 0 0 0
8ca35ecfbc361376cd23efad5bcc7348b818c469 [FaultTracer] Extracted changes: 2 0 4 3 0 0 0 0 0 0 0 0 0 0 0 2 0 0 0 0 0 0 0 0 0 0 0 1
2f8f1be05b0d82e29cbcf832d1c215d358bd5078 [FaultTracer] Extracted changes: 0 0 0 0 0 0 0 0 0 0 0 0 0 0 0 0 0 0 0 0 0 0 0 0 0 0 0 0
f53490c45dabeb98bafbfbca718765e0a69aacb8 [FaultTracer] Extracted changes: 0 0 1 0 0 0 0 0 0 0 0 0 0 1 1 0 0 0 0 0 0 0 0 0 0 1 1 0
13000b4a1726166aaa99db1ed56572729b278dca [FaultTracer] Extracted changes: 0 0 1 0 0 0 0 0 0 0 0 0 0 0 1 1 0 0 0 0 0 0 0 0 0 0 1 1
a9eaef3d4681f03082476419b0474a9b2bf8e799 [FaultTracer] Extracted changes: 0 0 0 0 0 0 0 0 0 0 0 0 0 0 0 0 0 0 0 0 0 0 0 0 0 0 0 0
15ea80d72985c7b33509257aa9b573fb6a020122 [FaultTracer] Extracted changes: 0 0 0 0 0 0 0 0 0 0 0 0 0 0 0 0 0 0 0 0 0 0 0 0 0 0 0 0
498fa445931dabe051ed84326cb97dd978923fec [FaultTracer] Extracted changes: 0 2 3 3 0 0 0 0 0 0 0 0 0 0 0 0 0 0 0 0 0 0 0 0 0 0 0 0
24748ac965f759c160f6d1e172a1d6341590bffa [FaultTracer] Extracted changes: 0 0 3 0 0 0 0 0 0 2 0 0 1 2 2 3 0 0 0 0 0 2 0 0 1 1 1 2
19c9b3e005e37a2a1a9e1f491763b61c4256b8fe [FaultTracer] Extracted changes: 1 3 7 2 0 0 0 0 0 3 2 1 0 2 4 5 0 0 0 0 0 3 1 1 0 1 1 4
b0e7400ca16d5ec8211c0b5fe4b7203975bc30ad [FaultTracer] Extracted changes: 0 0 0 0 0 0 0 0 0 0 0 0 0 0 0 0 0 0 0 0 0 0 0 0 0 0 0 0
21f03e2a5463fc55cf0c578507c2365f27522dde [FaultTracer] Extracted changes: 1 0 4 0 0 0 0 0 0 0 0 0 1 3 1 7 0 0 0 0 0 0 0 0 1 2 1 3
508e9fe1edd5f6dd2657f48614bf7a4cf3c0d577 [FaultTracer] Extracted changes: 0 2 3 2 0 0 0 0 0 0 4 4 0 0 1 1 0 0 0 0 0 0 1 1 0 0 1 1
af3c5cc4e65eaaa7b407c431acb5b17f0e3e70e7 [FaultTracer] Extracted changes: 0 0 1 0 0 0 0 0 0 0 0 0 0 0 2 0 0 0 0 0 0 0 0 0 0 0 1 0
110af494340e705e333f7a4c17b1f3215656fda5 [FaultTracer] Extracted changes: 0 0 0 0 0 0 0 0 0 0 0 0 0 0 0 0 0 0 0 0 0 0 0 0 0 0 0 0
f7282334980d64b62b049b42ca979c3741b1e01e [FaultTracer] Extracted changes: 0 0 0 0 0 0 0 0 0 0 0 0 0 0 0 0 0 0 0 0 0 0 0 0 0 0 0 0
ead4f020f4ac8445766161cce694bfe9ae144bf1 [FaultTracer] Extracted changes: 0 0 0 0 0 0 0 0 0 0 0 0 0 0 0 0 0 0 0 0 0 0 0 0 0 0 0 0
cdeffc68d715c4abb9f49ef505693e3052b9baca [FaultTracer] Extracted changes: 0 0 0 0 0 0 0 0 0 0 0 0 0 0 0 0 0 0 0 0 0 0 0 0 0 0 0 0
2b011599146c29a9b3839e6f8504f2beede68cb6 [FaultTracer] Extracted changes: 0 0 2 0 0 0 0 0 0 0 1 0 0 0 0 2 0 0 0 0 0 0 1 0 0 0 0 2
08a08225ed6915ab449bad7b8ee774dbfbdf79c2 [FaultTracer] Extracted changes: 0 0 2 0 0 0 0 0 0 1 0 1 0 0 2 5 0 0 0 0 0 1 0 1 0 0 1 2
34e6b22e24e08122d2bcae7711f6c2227616be31 [FaultTracer] Extracted changes: 0 0 0 0 0 0 0 0 0 0 0 0 0 0 0 0 0 0 0 0 0 0 0 0 0 0 0 0
2d42021dbc0337734c1397902b6107f97f8678e9 [FaultTracer] Extracted changes: 0 0 0 0 0 0 0 0 0 0 0 0 0 0 0 0 0 0 0 0 0 0 0 0 0 0 0 0
6bfbe1e51b2279889b49ea3df50ea89d0bcd6692 [FaultTracer] Extracted changes: 0 0 0 0 0 0 0 0 0 0 0 0 0 0 0 0 0 0 0 0 0 0 0 0 0 0 0 0
ddd1d59eb15b0b95b6ee6a44289ba10503553db0 [FaultTracer] Extracted changes: 0 0 2 0 0 0 0 0 0 0 1 0 0 0 0 2 0 0 0 0 0 0 1 0 0 0 0 2
5f40811520decaf6d5b93a425f797e6438b68710 [FaultTracer] Extracted changes: 0 5 3 0 0 0 0 0 0 0 0 0 0 0 2 2 0 0 0 0 0 0 0 0 0 0 2 1
011554010a26d9ecf1a364642c02549adcff783e [FaultTracer] Extracted changes: 0 0 0 0 0 0 0 0 0 0 0 0 0 0 0 0 0 0 0 0 0 0 0 0 0 0 0 0
89603c064d31e87b0393d4e1839315858d9d80a8 [FaultTracer] Extracted changes: 0 0 0 0 0 0 0 0 0 0 0 0 0 0 0 0 0 0 0 0 0 0 0 0 0 0 0 0
e53efb31912d46ebad66826a35ed9402d358bb55 [FaultTracer] Extracted changes: 0 0 2 0 0 0 0 0 0 0 0 0 1 0 1 0 0 0 0 0 0 0 0 0 1 0 1 0
9746b8654869819aa7bf1b5a472acf7d19e21359 [FaultTracer] Extracted changes: 0 2 2 0 0 0 0 0 0 0 0 0 0 0 1 4 0 0 0 0 0 0 0 0 0 0 1 1
0d203131e58432c80fe7722fc378b71d56724492 [FaultTracer] Extracted changes: 0 0 0 0 0 0 0 0 0 0 0 0 0 0 0 0 0 0 0 0 0 0 0 0 0 0 0 0
8b3d47c0200ccfd6fa5109fb12d6700cae5a3611 [FaultTracer] Extracted changes: 0 0 0 0 0 0 0 0 0 0 0 0 0 0 0 0 0 0 0 0 0 0 0 0 0 0 0 0
bf623672a3a5a4e63493f3da8f49f8db1708b317 [FaultTracer] Extracted changes: 0 0 0 0 0 0 0 0 0 0 0 0 0 0 0 0 0 0 0 0 0 0 0 0 0 0 0 0
c18303bcfddc3e5a3220f59b09a59ad5a91fd1fa [FaultTracer] Extracted changes: 0 0 0 0 0 0 0 0 0 0 0 0 0 0 0 0 0 0 0 0 0 0 0 0 0 0 0 0
1dc031e14bb2a2114d6512f4e9d771af50ecd0fc [FaultTracer] Extracted changes: 0 0 0 0 0 0 0 0 0 0 0 0 0 0 0 0 0 0 0 0 0 0 0 0 0 0 0 0
71ec69c5778c8024fc1990fdfa5b201d48cb0c6f [FaultTracer] Extracted changes: 0 0 0 0 0 0 0 0 0 0 0 0 0 0 0 0 0 0 0 0 0 0 0 0 0 0 0 0
6506ac28682140d17cf98791c2c889f4b4fbccfe [FaultTracer] Extracted changes: 0 0 0 0 0 0 0 0 0 0 0 0 0 0 0 0 0 0 0 0 0 0 0 0 0 0 0 0
433714c353ffc589181a42e4370e9e3981b4b5a9 [FaultTracer] Extracted changes: 0 0 1 0 0 0 0 0 0 0 0 0 0 0 0 1 0 0 0 0 0 0 0 0 0 0 0 1
8f926f6939c3cd461a16bbf55e09f5b78ec54b4e [FaultTracer] Extracted changes: 0 0 0 0 0 0 0 0 0 0 0 0 0 0 0 0 0 0 0 0 0 0 0 0 0 0 0 0
fe55084d24aabc87d719125ef9193ab2a9cae143 [FaultTracer] Extracted changes: 2 2 6 0 0 0 0 0 0 1 0 0 0 1 7 4 0 0 0 0 0 1 0 0 0 1 4 2
9826d9f00d44ed3e08558a4fc633707e51851b6a [FaultTracer] Extracted changes: 2 2 6 0 0 0 0 0 0 1 0 0 0 7 1 4 0 0 0 0 0 1 0 0 0 4 1 2
88b0c369e6223393e93844ae842fb8f8241657e6 [FaultTracer] Extracted changes: 0 0 2 0 0 0 0 0 0 0 0 0 0 0 0 3 0 0 0 0 0 0 0 0 0 0 0 2
37b157b195efb2a30487e322a4603fadd9cf3e04 [FaultTracer] Extracted changes: 0 0 5 0 0 0 0 0 0 0 0 0 0 0 2 3 0 0 0 0 0 0 0 0 0 0 2 3
fe31841952d4ca665cc17f89fb4d3a6a6539eb74 [FaultTracer] Extracted changes: 0 0 0 0 0 0 0 0 0 0 0 0 0 0 0 0 0 0 0 0 0 0 0 0 0 0 0 0
79e403559ce9618423b42a27b16c3af1d6dfb491 [FaultTracer] Extracted changes: 0 0 0 0 0 0 0 0 0 0 0 0 0 0 0 0 0 0 0 0 0 0 0 0 0 0 0 0
e68f5174656a53fc66ae2df0d09a727d3b242bf0 [FaultTracer] Extracted changes: 2 2 6 0 0 0 0 0 0 1 0 0 0 1 7 5 0 0 0 0 0 1 0 0 0 1 4 2
5881dd05968ccb242052ae9002dcf58532837f91 [FaultTracer] Extracted changes: 0 0 2 0 0 0 0 0 0 0 0 0 0 0 1 1 0 0 0 0 0 0 0 0 0 0 1 1
e15e42d1d2aae8af5fe33b1c4f7e81f2e56773d8 [FaultTracer] Extracted changes: 0 0 0 0 0 0 0 0 0 0 0 0 0 0 0 0 0 0 0 0 0 0 0 0 0 0 0 0
3a8c536a5bd516292786365f038a9d02c5146a2b [FaultTracer] Extracted changes: 0 0 1 0 0 0 0 0 0 0 0 0 0 0 1 0 0 0 0 0 0 0 0 0 0 0 1 0
ff7bcaae70a8cf28d9f99ce685846957e55744e7 [FaultTracer] Extracted changes: 0 0 0 0 0 0 0 0 0 0 0 0 0 0 0 0 0 0 0 0 0 0 0 0 0 0 0 0
619790643a2d1dd71c8362eddf60e3a1f3941905 [FaultTracer] Extracted changes: 0 2 6 0 0 0 0 0 0 0 0 1 1 0 12 2 0 0 0 0 0 0 0 1 1 0 5 2
f7bbfd7f2e065b424b727f64cf3427640e61a4e4 [FaultTracer] Extracted changes: 0 0 0 0 0 0 0 0 0 0 0 0 0 0 0 0 0 0 0 0 0 0 0 0 0 0 0 0
a0cf70b1f73622d061149d9779e4c825bac8d53a [FaultTracer] Extracted changes: 0 0 0 0 0 0 0 0 0 0 0 0 0 0 0 0 0 0 0 0 0 0 0 0 0 0 0 0
8d8bb766ee8d30bc77fe983fb72b107448cf048f [FaultTracer] Extracted changes: 0 0 0 0 0 0 0 0 0 0 0 0 0 0 0 0 0 0 0 0 0 0 0 0 0 0 0 0
088cc8aa66f057865e1b59b812e3ffcf84175eea [FaultTracer] Extracted changes: 0 0 0 0 0 0 0 0 0 0 0 0 0 0 0 0 0 0 0 0 0 0 0 0 0 0 0 0
f15db9a5ec851d891a148c970fa1b1f7fbfccdaf [FaultTracer] Extracted changes: 0 0 0 0 0 0 0 0 0 0 0 0 0 0 0 0 0 0 0 0 0 0 0 0 0 0 0 0
fe17c8bd3c016149bb68ae0730b283ffa94b7c64 [FaultTracer] Extracted changes: 0 0 0 0 0 0 0 0 0 0 0 0 0 0 0 0 0 0 0 0 0 0 0 0 0 0 0 0
247b4eca158cbbe579ff2e3e9f2569db0ef4d78b [FaultTracer] Extracted changes: 0 0 1 0 0 0 0 0 0 0 0 0 0 0 0 1 0 0 0 0 0 0 0 0 0 0 0 1
889a01b43b7bfa3f033fcc0e6a582bbbfd9ed939 [FaultTracer] Extracted changes: 0 0 0 0 0 0 0 0 0 0 0 0 0 0 0 0 0 0 0 0 0 0 0 0 0 0 0 0
0733871b2b6a38bd876e6befdd1a7df8f5d8ee2b [FaultTracer] Extracted changes: 0 1 8 0 0 0 0 0 0 1 0 0 0 0 26 3 0 0 0 0 0 1 0 0 0 0 7 2
530db74f6e650d2232b5a95b5f8fe43197288af2 [FaultTracer] Extracted changes: 0 0 1 0 0 0 0 0 0 0 0 0 0 0 0 1 0 0 0 0 0 0 0 0 0 0 0 1
fa552cceacae1e78fdde51e5c253a523c164c5f1 [FaultTracer] Extracted changes: 0 0 0 0 0 0 0 0 0 0 0 0 0 0 0 0 0 0 0 0 0 0 0 0 0 0 0 0
ae1e3d91137d69b327f9977f096c145fbc893004 [FaultTracer] Extracted changes: 0 0 0 0 0 0 0 0 0 0 0 0 0 0 0 0 0 0 0 0 0 0 0 0 0 0 0 0
26e8574cda3d25e42eea29b6b99043ab58c98fff [FaultTracer] Extracted changes: 0 0 0 0 0 0 0 0 0 0 0 0 0 0 0 0 0 0 0 0 0 0 0 0 0 0 0 0
1ab0e83345e328b5477d9348bf623e351708fb72 [FaultTracer] Extracted changes: 0 2 3 0 0 0 0 0 0 1 0 0 0 0 1 2 0 0 0 0 0 1 0 0 0 0 1 2
7d21a2f1973bd504e515a37b5f7a1363095bf871 [FaultTracer] Extracted changes: 0 0 0 0 0 0 0 0 0 0 0 0 0 0 0 0 0 0 0 0 0 0 0 0 0 0 0 0
a270d8c5aa9c82be72d6e031773b6d03c449460c [FaultTracer] Extracted changes: 0 0 0 0 0 0 0 0 0 0 0 0 0 0 0 0 0 0 0 0 0 0 0 0 0 0 0 0
0e233fae4865d7cbd0967217b274a289796f3805 [FaultTracer] Extracted changes: 0 0 0 0 0 0 0 0 0 0 0 0 0 0 0 0 0 0 0 0 0 0 0 0 0 0 0 0
6fa9e320609bda3c0bbe55d931769f4c6e2ac0df [FaultTracer] Extracted changes: 0 0 0 0 0 0 0 0 0 0 0 0 0 0 0 0 0 0 0 0 0 0 0 0 0 0 0 0
e89544edeb7512d2423496a111dd2d9964463c3c [FaultTracer] Extracted changes: 0 0 0 0 0 0 0 0 0 0 0 0 0 0 0 0 0 0 0 0 0 0 0 0 0 0 0 0
330711ebedcf83350c191b6c24fd0d5dee8f732f [FaultTracer] Extracted changes: 0 0 0 0 0 0 0 0 0 0 0 0 0 0 0 0 0 0 0 0 0 0 0 0 0 0 0 0
