76cbb3d7c60acef3b4f1f9a811adf0555b3242c0 [FaultTracer] Extracted changes: 0 1 1 1 0 0 0 0 0 0 0 0 0 0 0 0 0 0 0 0 0 0 0 0 0 0 0 0
bd31b864ae2abef48362476aabc26fb9bcdc3939 [FaultTracer] Extracted changes: 0 0 4 1 0 0 0 0 0 0 1 4 1 0 1 3 0 0 0 0 0 0 1 3 1 0 1 2
a085e81d2fd3c31e837cb3c255bb8ea84346f843 [FaultTracer] Extracted changes: 0 0 0 0 0 0 0 0 0 0 0 0 0 0 0 0 0 0 0 0 0 0 0 0 0 0 0 0
4bca9af4dc3c9846703fba732f4b30ba49ec03d2 [FaultTracer] Extracted changes: 0 0 1 0 0 0 0 0 0 1 0 0 0 0 0 0 0 0 0 0 0 1 0 0 0 0 0 0
5db50cfb5ce3e40846d5a98c080471575691d387 [FaultTracer] Extracted changes: 1 1 1 1 0 0 0 0 0 0 0 0 0 0 0 0 0 0 0 0 0 0 0 0 0 0 0 0
a7067abf0b54db2899fc2656051d8dd74a01bc33 [FaultTracer] Extracted changes: 0 0 0 0 0 0 0 0 0 0 0 0 0 0 0 0 0 0 0 0 0 0 0 0 0 0 0 0
7981c63489c48d368e3c3aeb803b3874aa276e30 [FaultTracer] Extracted changes: 0 0 1 1 0 0 0 0 0 0 0 0 0 0 0 0 0 0 0 0 0 0 0 0 0 0 0 0
1acbe600d3587191e0fceb0d6a0394dfaf8bae02 [FaultTracer] Extracted changes: 0 1 4 2 0 0 0 0 0 0 2 3 1 0 1 0 0 0 0 0 0 0 1 1 1 0 1 0
04fbab90e177b3d3369d012a6af037c09e84d302 [FaultTracer] Extracted changes: 0 0 1 1 0 0 0 0 0 0 0 0 0 0 0 0 0 0 0 0 0 0 0 0 0 0 0 0
6180e24153ddfab84c3eaf5fc278b2ec405be633 [FaultTracer] Extracted changes: 0 0 0 0 0 0 0 0 0 0 0 0 0 0 0 0 0 0 0 0 0 0 0 0 0 0 0 0
64d25016b0caff16f39465abc14d65f55729700e [FaultTracer] Extracted changes: 0 0 0 0 0 0 0 0 0 0 0 0 0 0 0 0 0 0 0 0 0 0 0 0 0 0 0 0
2bce525507f5aee4c3f9e74152633cd295564a48 [FaultTracer] Extracted changes: 0 0 0 0 0 0 0 0 0 0 0 0 0 0 0 0 0 0 0 0 0 0 0 0 0 0 0 0
86ead8d866244c558c22013384744ab8805c6300 [FaultTracer] Extracted changes: 0 0 0 0 0 0 0 0 0 0 0 0 0 0 0 0 0 0 0 0 0 0 0 0 0 0 0 0
df0d9b0c1b356546f24be210f79ec44e6e06b341 [FaultTracer] Extracted changes: 0 0 0 0 0 0 0 0 0 0 0 0 0 0 0 0 0 0 0 0 0 0 0 0 0 0 0 0
526da903d49d979bcaf2732e8a854247aeec5ad0 [FaultTracer] Extracted changes: 0 0 0 0 0 0 0 0 0 0 0 0 0 0 0 0 0 0 0 0 0 0 0 0 0 0 0 0
47a362087f3755a1d59a3cb0a866ddf148052ddb [FaultTracer] Extracted changes: 0 0 4 2 0 0 0 0 0 0 0 0 1 0 0 1 0 0 0 0 0 0 0 0 1 0 0 1
64b14e677ef51b29b7c2089e3a4edc2e75914ebd [FaultTracer] Extracted changes: 0 0 7 5 0 0 0 0 0 0 0 0 0 0 0 2 0 0 0 0 0 0 0 0 0 0 0 2
8331d78f9ac694e0fc08b15b427b22d0cd744c0c [FaultTracer] Extracted changes: 0 0 2 0 0 0 0 0 0 0 0 0 0 1 3 0 0 0 0 0 0 0 0 0 0 1 2 0
8bf4a6df60383133ef561170519a5c530a82969c [FaultTracer] Extracted changes: 0 0 1 0 0 0 0 0 0 0 0 0 0 0 0 1 0 0 0 0 0 0 0 0 0 0 0 1
071ce57f7ba9661d058de088618924372c8cd68c [FaultTracer] Extracted changes: 0 0 0 0 0 0 0 0 0 0 0 0 0 0 0 0 0 0 0 0 0 0 0 0 0 0 0 0
f6cad60f6e02219f0bca1934bb1d5248885989d4 [FaultTracer] Extracted changes: 0 0 2 0 0 0 0 0 1 2 0 4 0 0 0 2 0 0 0 0 1 2 0 2 0 0 0 1
06bdb3f569a7fac50d5e1801359324e16929c270 [FaultTracer] Extracted changes: 0 2 4 1 0 0 0 1 0 3 4 0 0 0 2 2 0 0 0 1 0 3 2 0 0 0 1 1
86ec626601cc140529a34a6c3579bcffef0bc7c7 [FaultTracer] Extracted changes: 2 0 4 1 0 0 0 0 1 3 0 4 0 2 0 2 0 0 0 0 1 3 0 2 0 1 0 1
4929e511ec5910721a6aa457a5e7cff60f830f24 [FaultTracer] Extracted changes: 0 2 4 1 0 0 0 1 0 3 4 0 0 0 2 2 0 0 0 1 0 3 2 0 0 0 1 1
e08e0fac3523225aa7d97e652bf416e494028cd8 [FaultTracer] Extracted changes: 2 0 2 1 0 0 0 0 0 0 0 0 0 0 0 1 0 0 0 0 0 0 0 0 0 0 0 1
e6bdac199c343738d026f15a89504e5e8ed31234 [FaultTracer] Extracted changes: 0 0 2 0 0 0 0 0 0 0 0 0 0 0 0 0 0 0 0 0 0 0 0 0 0 0 0 0
5c87dd82f8c058a7b8282427c2fe4021a382c538 [FaultTracer] Extracted changes: 0 0 2 0 0 0 0 0 1 2 0 4 0 0 0 2 0 0 0 0 1 2 0 2 0 0 0 1
1a2799fbff3ef0426fdaadd37e4c744eeaeff908 [FaultTracer] Extracted changes: 0 0 2 0 0 0 0 0 0 0 0 0 0 0 1 1 0 0 0 0 0 0 0 0 0 0 1 1
696551fabb98b0c76802904beb94d4e7902674f6 [FaultTracer] Extracted changes: 0 0 0 0 0 0 0 0 0 0 0 0 0 0 0 0 0 0 0 0 0 0 0 0 0 0 0 0
8d46dd73675480ca795facfd574ac2c00d6bdaf3 [FaultTracer] Extracted changes: 0 0 0 0 0 0 0 0 0 0 0 0 0 0 0 0 0 0 0 0 0 0 0 0 0 0 0 0
6f76e28bf8197416524a2acf5ee9f561947d72b4 [FaultTracer] Extracted changes: 0 0 3 0 0 0 0 0 0 2 0 2 0 0 1 0 0 0 0 0 0 1 0 1 0 0 1 0
5c7241ad1ff1e05b5207179261889fb7ed1594aa [FaultTracer] Extracted changes: 0 0 0 0 0 0 0 0 0 0 0 0 0 0 0 0 0 0 0 0 0 0 0 0 0 0 0 0
31cef5e072f07cec36510d8567b935bdeaa73836 [FaultTracer] Extracted changes: 0 0 0 0 0 0 0 0 0 0 0 0 0 0 0 0 0 0 0 0 0 0 0 0 0 0 0 0
7a4c1d3d62fb18befd4610989b843c01e2f0d444 [FaultTracer] Extracted changes: 0 0 0 0 0 0 0 0 0 0 0 0 0 0 0 0 0 0 0 0 0 0 0 0 0 0 0 0
367a8dc17e3433e8af8592df93e432911c244d8b [FaultTracer] Extracted changes: 0 0 0 0 0 0 0 0 0 0 0 0 0 0 0 0 0 0 0 0 0 0 0 0 0 0 0 0
24e99b25c7790d95036543d00128ba5304ecf961 [FaultTracer] Extracted changes: 0 0 0 0 0 0 0 0 0 0 0 0 0 0 0 0 0 0 0 0 0 0 0 0 0 0 0 0
1cae6828e8e7d3e6be5428e42fa9e088fc8c6b1a [FaultTracer] Extracted changes: 0 0 1 0 0 0 0 0 0 1 0 0 0 0 1 3 0 0 0 0 0 1 0 0 0 0 1 1
0e4ecd89b72b301fb855981268b1e7d81af7d349 [FaultTracer] Extracted changes: 0 0 1 0 0 0 0 0 0 0 0 0 0 0 0 1 0 0 0 0 0 0 0 0 0 0 0 1
fff66622cf8c299ad7833f3aaf82d3dc562a5fd8 [FaultTracer] Extracted changes: 0 0 2 0 0 0 0 0 0 1 0 0 0 1 0 10 0 0 0 0 0 1 0 0 0 1 0 2
7103e9af57ee106f94514e39a0c652c97cecaf0c [FaultTracer] Extracted changes: 0 0 1 0 0 0 0 0 0 1 0 0 0 0 1 2 0 0 0 0 0 1 0 0 0 0 1 1
a946396485c9f3cb1aeb11230a19233a0c9c88c0 [FaultTracer] Extracted changes: 0 0 1 0 0 0 0 0 0 0 0 0 0 1 0 2 0 0 0 0 0 0 0 0 0 1 0 1
32d5fd9c606d19c7a547b1b16346d1f627b2315c [FaultTracer] Extracted changes: 0 0 1 0 0 0 0 0 0 0 0 0 0 0 0 1 0 0 0 0 0 0 0 0 0 0 0 1
48405db94aea580e14fbce0888d0bf74154a1d3e [FaultTracer] Extracted changes: 0 0 0 0 0 0 0 0 0 0 0 0 0 0 0 0 0 0 0 0 0 0 0 0 0 0 0 0
a0ca2f04ddcdefa1ebb53f35aa919b4fcd1d08b4 [FaultTracer] Extracted changes: 0 0 112 112 0 0 0 0 0 0 0 0 0 0 0 0 0 0 0 0 0 0 0 0 0 0 0 0
a568f60d9a31448a2035d89f0919b22335e512da [FaultTracer] Extracted changes: 0 0 0 0 0 0 0 0 0 0 0 0 0 0 0 0 0 0 0 0 0 0 0 0 0 0 0 0
95013715a4ce463cd06c18dc5a75c9935e511059 [FaultTracer] Extracted changes: 0 0 0 0 0 0 0 0 0 0 0 0 0 0 0 0 0 0 0 0 0 0 0 0 0 0 0 0
3f57515a2d2db0c58846aef8db59592452a034c4 [FaultTracer] Extracted changes: 0 0 0 0 0 0 0 0 0 0 0 0 0 0 0 0 0 0 0 0 0 0 0 0 0 0 0 0
0990c2c3ff3ef51b307deab46bbc9a16cb45073b [FaultTracer] Extracted changes: 0 0 0 0 0 0 0 0 0 0 0 0 0 0 0 0 0 0 0 0 0 0 0 0 0 0 0 0
3fd10b46f5845f39feb649eba9b408c27d2cd053 [FaultTracer] Extracted changes: 0 0 112 112 0 0 0 0 0 0 0 0 0 0 0 0 0 0 0 0 0 0 0 0 0 0 0 0
31a8695201de10571ccbcc6c8507190293dc9f31 [FaultTracer] Extracted changes: 0 0 0 0 0 0 0 0 0 0 0 0 0 0 0 0 0 0 0 0 0 0 0 0 0 0 0 0
7a78453bd04b40f4d3142317590bab279ae9380a [FaultTracer] Extracted changes: 0 0 0 0 0 0 0 0 0 0 0 0 0 0 0 0 0 0 0 0 0 0 0 0 0 0 0 0
9d94f62fd968fe7d5e3437adfb71131808485f0a [FaultTracer] Extracted changes: 0 0 0 0 0 0 0 0 0 0 0 0 0 0 0 0 0 0 0 0 0 0 0 0 0 0 0 0
8bc9657a001a00fcc43266112b9e3b425bc00bca [FaultTracer] Extracted changes: 0 0 112 112 0 0 0 0 0 0 0 0 0 0 0 0 0 0 0 0 0 0 0 0 0 0 0 0
4dc3705ea267cdebfb566c1b0ee886e3e6cbf320 [FaultTracer] Extracted changes: 0 0 4 0 0 0 0 0 0 0 0 0 0 0 0 21 0 0 0 0 0 0 0 0 0 0 0 4
a2598c9ba12427fc50e0b0879f2b71fe4dc3690b [FaultTracer] Extracted changes: 0 0 4 0 0 0 0 0 0 0 0 0 0 0 0 21 0 0 0 0 0 0 0 0 0 0 0 4
af045cb4199959c07fb4422e605573e180491191 [FaultTracer] Extracted changes: 0 0 1 0 0 0 1 0 0 0 0 0 0 0 0 0 0 0 1 0 0 0 0 0 0 0 0 0
0d854bc3036bdebf6b206ec7009a6b05adf8ee20 [FaultTracer] Extracted changes: 0 0 0 0 0 0 0 0 0 0 0 0 0 0 0 0 0 0 0 0 0 0 0 0 0 0 0 0
cd414200a31db22318809dfa8baa200f1a3aea73 [FaultTracer] Extracted changes: 0 0 2 0 0 0 0 0 0 1 0 0 2 0 0 4 0 0 0 0 0 1 0 0 1 0 0 2
e6aa33ac7d9ba47bd7c602cc0dc6f29115b33878 [FaultTracer] Extracted changes: 1 0 4 3 0 0 0 0 0 0 0 0 0 0 0 1 0 0 0 0 0 0 0 0 0 0 0 1
b05dbce28a6dab82f20f31e4da28b29d2b736cef [FaultTracer] Extracted changes: 0 1 4 3 0 0 0 0 0 0 0 0 0 0 0 1 0 0 0 0 0 0 0 0 0 0 0 1
2fb2b977a8846fc01e1bb18a76200d870bbebe07 [FaultTracer] Extracted changes: 0 0 2 0 0 0 0 0 0 1 0 0 3 0 0 5 0 0 0 0 0 1 0 0 2 0 0 2
0095214a0c73e04c63e277468a930ed3b45480e0 [FaultTracer] Extracted changes: 0 0 1 0 0 0 0 0 0 0 0 0 1 0 0 1 0 0 0 0 0 0 0 0 1 0 0 1
323e3010615a0f5b3b5356cc77297df94a92cfbb [FaultTracer] Extracted changes: 1 0 4 3 0 0 0 0 0 0 0 0 0 0 0 1 0 0 0 0 0 0 0 0 0 0 0 1
e221cb6ab7841007e68d9a6e215f39600ff27502 [FaultTracer] Extracted changes: 0 0 3 0 0 0 0 0 0 1 0 0 5 0 1 5 0 0 0 0 0 1 0 0 2 0 1 2
35816a5396ba66280229d3b0d1c8570f62b6ae4a [FaultTracer] Extracted changes: 0 0 2 0 0 0 0 0 0 1 0 0 3 0 0 5 0 0 0 0 0 1 0 0 2 0 0 2
644e4e9be40e0eb69a9aef6acee6ca28643f174b [FaultTracer] Extracted changes: 0 0 0 0 0 0 0 0 0 0 0 0 0 0 0 0 0 0 0 0 0 0 0 0 0 0 0 0
1bd9d89c01b3e94dcfa7cbdf324b3ccede269911 [FaultTracer] Extracted changes: 0 0 0 0 0 0 0 0 0 0 0 0 0 0 0 0 0 0 0 0 0 0 0 0 0 0 0 0
0d655d23e81d646f38350de170f1272ad6cbc44f [FaultTracer] Extracted changes: 0 0 0 0 0 0 0 0 0 0 0 0 0 0 0 0 0 0 0 0 0 0 0 0 0 0 0 0
90bd13d0d134c879e32194daa723fb701647d68c [FaultTracer] Extracted changes: 0 0 0 0 0 0 0 0 0 0 0 0 0 0 0 0 0 0 0 0 0 0 0 0 0 0 0 0
82e762f7f680db0426d85df3ee7f3bae91000c3b [FaultTracer] Extracted changes: 0 0 0 0 0 0 0 0 0 0 0 0 0 0 0 0 0 0 0 0 0 0 0 0 0 0 0 0
415f0aee2ade463d89334be67662997214e0676c [FaultTracer] Extracted changes: 0 0 0 0 0 0 0 0 0 0 0 0 0 0 0 0 0 0 0 0 0 0 0 0 0 0 0 0
aac6b4d23a8686b000f80baa447e0922ecac3bcb [FaultTracer] Extracted changes: 0 0 0 0 0 0 0 0 0 0 0 0 0 0 0 0 0 0 0 0 0 0 0 0 0 0 0 0
aa58062a8ec228be2ab980001919f2e883f8a634 [FaultTracer] Extracted changes: 0 0 0 0 0 0 0 0 0 0 0 0 0 0 0 0 0 0 0 0 0 0 0 0 0 0 0 0
51d1bd215ee78b8ff1527ad1e79cab6c797a36b5 [FaultTracer] Extracted changes: 0 0 2 0 0 0 0 0 0 1 0 0 0 0 3 0 0 0 0 0 0 1 0 0 0 0 2 0
6a66455ad1e96559ece781ab446fbb93bdd40fd2 [FaultTracer] Extracted changes: 0 0 0 0 0 0 0 0 0 0 0 0 0 0 0 0 0 0 0 0 0 0 0 0 0 0 0 0
052797ea66f49fafa773ab62ce68b94a035d1cd5 [FaultTracer] Extracted changes: 0 0 1 1 0 0 0 0 0 0 0 0 0 0 0 0 0 0 0 0 0 0 0 0 0 0 0 0
91d2157982edfc06ac7885c5baecb4e6f4c10896 [FaultTracer] Extracted changes: 0 0 0 0 0 0 0 0 0 0 0 0 0 0 0 0 0 0 0 0 0 0 0 0 0 0 0 0
98b98f2a06e68a85c88eea951ba76010b2857318 [FaultTracer] Extracted changes: 0 0 0 0 0 0 0 0 0 0 0 0 0 0 0 0 0 0 0 0 0 0 0 0 0 0 0 0
fb75d8318216ec0baecfadd191731ad7e32ebb93 [FaultTracer] Extracted changes: 0 0 1 1 0 0 0 0 0 0 0 0 0 0 0 0 0 0 0 0 0 0 0 0 0 0 0 0
c0e2386ba02a12e9e7a7a735e6f3e777c22c4dc8 [FaultTracer] Extracted changes: 0 0 2 0 0 0 0 0 0 0 0 1 0 0 1 0 0 0 0 0 0 0 0 1 0 0 1 0
63255dde90e90a3b9179fec2f1685957ede42e94 [FaultTracer] Extracted changes: 0 0 1 0 0 0 0 0 0 0 0 0 0 1 2 1 0 0 0 0 0 0 0 0 0 1 1 1
0f21839c0610d3cc8f589a408047ab073efefbcd [FaultTracer] Extracted changes: 0 0 1 0 0 0 0 0 0 0 0 0 0 0 0 1 0 0 0 0 0 0 0 0 0 0 0 1
98b91386eff840b60d04306ea1f3620aef3d90d4 [FaultTracer] Extracted changes: 0 0 0 0 0 0 0 0 0 0 0 0 0 0 0 0 0 0 0 0 0 0 0 0 0 0 0 0
9f1bbda6f783d4b13c6a95f670986364a050a4ea [FaultTracer] Extracted changes: 0 0 0 0 0 0 0 0 0 0 0 0 0 0 0 0 0 0 0 0 0 0 0 0 0 0 0 0
9ee3e13a22baac94865dba80dc18eebd395a19cf [FaultTracer] Extracted changes: 0 0 0 0 0 0 0 0 0 0 0 0 0 0 0 0 0 0 0 0 0 0 0 0 0 0 0 0
9394c33c94a79ba1df426eb22578ca36cd0a6170 [FaultTracer] Extracted changes: 0 0 3 0 0 0 0 1 1 1 0 0 1 0 2 0 0 0 0 1 1 1 0 0 1 0 1 0
43aecb9fce9ed814dd3f4891bd75e3b6aad43cd6 [FaultTracer] Extracted changes: 0 0 1 0 0 0 0 0 0 0 0 0 0 0 0 2 0 0 0 0 0 0 0 0 0 0 0 1
0c33f1e53055ec449055b19b07352280930016bb [FaultTracer] Extracted changes: 0 0 0 0 0 0 0 0 0 0 0 0 0 0 0 0 0 0 0 0 0 0 0 0 0 0 0 0
d2825cc9f14036159b6a98d475a7da71ce7d52ea [FaultTracer] Extracted changes: 0 0 0 0 0 0 0 0 0 0 0 0 0 0 0 0 0 0 0 0 0 0 0 0 0 0 0 0
1b59213c8e861137d595e7b6494d012867df940d [FaultTracer] Extracted changes: 0 0 0 0 0 0 0 0 0 0 0 0 0 0 0 0 0 0 0 0 0 0 0 0 0 0 0 0
3c47f4c08a6fdba811facd57e7bc8c27c08a2f49 [FaultTracer] Extracted changes: 0 0 2 0 0 0 0 1 1 0 0 0 0 0 0 1 0 0 0 1 1 0 0 0 0 0 0 1
0eca1753f988fab904ad5315010467a9f0378048 [FaultTracer] Extracted changes: 0 0 2 0 0 0 0 0 0 0 0 0 1 0 5 0 0 0 0 0 0 0 0 0 1 0 2 0
7433eaede7d509016760ac9bc34231b03bb8b60c [FaultTracer] Extracted changes: 0 0 2 0 0 0 0 0 0 0 0 0 1 5 0 0 0 0 0 0 0 0 0 0 1 2 0 0
d09977bc89dd17bda7736b46024536eb912c243e [FaultTracer] Extracted changes: 0 0 2 0 0 0 0 0 0 0 0 0 1 0 5 0 0 0 0 0 0 0 0 0 1 0 2 0
70fe5233468e50f3bf6afbb8ae5544e15fbeea0b [FaultTracer] Extracted changes: 0 0 2 0 0 0 0 0 0 1 0 1 1 0 3 2 0 0 0 0 0 1 0 1 1 0 2 1
8da108e69a349ac5b55a64f418b7dfe019f8c3a6 [FaultTracer] Extracted changes: 0 0 0 0 0 0 0 0 0 0 0 0 0 0 0 0 0 0 0 0 0 0 0 0 0 0 0 0
f9224d69dd0c73be8c0f3ec9273c92470e95ee52 [FaultTracer] Extracted changes: 0 0 0 0 0 0 0 0 0 0 0 0 0 0 0 0 0 0 0 0 0 0 0 0 0 0 0 0
147283287b23e89bbb2cc8277be358c8d8c85f04 [FaultTracer] Extracted changes: 0 0 0 0 0 0 0 0 0 0 0 0 0 0 0 0 0 0 0 0 0 0 0 0 0 0 0 0
