3775e6d352985cac43e3b00572f8dcc9fe826ac5 [FaultTracer] Extracted changes: 0 0 0 0 0 0 0 0 0 0 0 0 0 0 0 0 0 0 0 0 0 0 0 0 0 0 0 0
54eeaee27c4d73a5b3b6ee84e53ee9046919a18b [FaultTracer] Extracted changes: 0 0 0 0 0 0 0 0 0 0 0 0 0 0 0 0 0 0 0 0 0 0 0 0 0 0 0 0
284886bd96c93740a26cac4c6e39a255fecf6062 [FaultTracer] Extracted changes: 0 0 1 0 0 0 0 0 0 0 0 0 1 0 0 0 0 0 0 0 0 0 0 0 1 0 0 0
b2da444800d4c5d472da58a6b776891621d11718 [FaultTracer] Extracted changes: 0 0 0 0 0 0 0 0 0 0 0 0 0 0 0 0 0 0 0 0 0 0 0 0 0 0 0 0
2e72f7494ae59cb11b11a43f87839315390beaf4 [FaultTracer] Extracted changes: 0 0 0 0 0 0 0 0 0 0 0 0 0 0 0 0 0 0 0 0 0 0 0 0 0 0 0 0
9146eca01bc208c9923aff6880b220a0fe3e6894 [FaultTracer] Extracted changes: 0 0 0 0 0 0 0 0 0 0 0 0 0 0 0 0 0 0 0 0 0 0 0 0 0 0 0 0
76c4ec233c1a61b1f46df6d6847b889c0a7a978a [FaultTracer] Extracted changes: 0 0 0 0 0 0 0 0 0 0 0 0 0 0 0 0 0 0 0 0 0 0 0 0 0 0 0 0
7506aa1a2c648ca3da724aa83de41bf526239add [FaultTracer] Extracted changes: 0 0 0 0 0 0 0 0 0 0 0 0 0 0 0 0 0 0 0 0 0 0 0 0 0 0 0 0
8f06c0ddc6fb9d17075e688265ac3767259bc5e4 [FaultTracer] Extracted changes: 0 0 1 0 0 0 0 0 0 1 0 0 0 0 0 4 0 0 0 0 0 1 0 0 0 0 0 1
1d031d6eb6e6861f38e228bd587ff74e7f6fcce8 [FaultTracer] Extracted changes: 0 0 0 0 0 0 0 0 0 0 0 0 0 0 0 0 0 0 0 0 0 0 0 0 0 0 0 0
426cd8c52ef1732ad3a57171429bf7704d80bcc0 [FaultTracer] Extracted changes: 0 0 0 0 0 0 0 0 0 0 0 0 0 0 0 0 0 0 0 0 0 0 0 0 0 0 0 0
24df623ed69f86a13a2ec453f480a4e3f93b04ff [FaultTracer] Extracted changes: 0 0 0 0 0 0 0 0 0 0 0 0 0 0 0 0 0 0 0 0 0 0 0 0 0 0 0 0
d2edcde68b3fbaa68aa892f90ebcd0d7ec104176 [FaultTracer] Extracted changes: 0 0 0 0 0 0 0 0 0 0 0 0 0 0 0 0 0 0 0 0 0 0 0 0 0 0 0 0
2f02e64b2e90766ec1c35437b03b7d127c70af58 [FaultTracer] Extracted changes: 0 0 0 0 0 0 0 0 0 0 0 0 0 0 0 0 0 0 0 0 0 0 0 0 0 0 0 0
7c7c9372db6d79f950ee16ec8943dd76fc0f06e4 [FaultTracer] Extracted changes: 0 0 0 0 0 0 0 0 0 0 0 0 0 0 0 0 0 0 0 0 0 0 0 0 0 0 0 0
45524d8bdb5640b81d13ee63a072e88c81981a7e [FaultTracer] Extracted changes: 0 0 0 0 0 0 0 0 0 0 0 0 0 0 0 0 0 0 0 0 0 0 0 0 0 0 0 0
318d3a57394781e05d2372fc2b2c095c02c25379 [FaultTracer] Extracted changes: 0 0 0 0 0 0 0 0 0 0 0 0 0 0 0 0 0 0 0 0 0 0 0 0 0 0 0 0
87a126f7cf7df3a3f83551a6421ab2ed1426a2d7 [FaultTracer] Extracted changes: 0 0 0 0 0 0 0 0 0 0 0 0 0 0 0 0 0 0 0 0 0 0 0 0 0 0 0 0
7908be284dc2e24e3d89787e64e272409d25338a [FaultTracer] Extracted changes: 0 0 0 0 0 0 0 0 0 0 0 0 0 0 0 0 0 0 0 0 0 0 0 0 0 0 0 0
14a08584c7cf63dfadddaeec102820f9de901c60 [FaultTracer] Extracted changes: 0 0 0 0 0 0 0 0 0 0 0 0 0 0 0 0 0 0 0 0 0 0 0 0 0 0 0 0
31373778a21bf4124ba2c120e384db8062f0a2b6 [FaultTracer] Extracted changes: 0 0 0 0 0 0 0 0 0 0 0 0 0 0 0 0 0 0 0 0 0 0 0 0 0 0 0 0
4a0bf370411e027ee9c7e835f4834593917aa35d [FaultTracer] Extracted changes: 0 0 0 0 0 0 0 0 0 0 0 0 0 0 0 0 0 0 0 0 0 0 0 0 0 0 0 0
db551e3eb6805a69d4967265570811b011fd89f4 [FaultTracer] Extracted changes: 0 0 0 0 0 0 0 0 0 0 0 0 0 0 0 0 0 0 0 0 0 0 0 0 0 0 0 0
679e9cfe62ff26b1205f0a9de7a96f12fc771230 [FaultTracer] Extracted changes: 0 0 0 0 0 0 0 0 0 0 0 0 0 0 0 0 0 0 0 0 0 0 0 0 0 0 0 0
67f6f50a013d6eb6bdc4d0ed20b11081723d7054 [FaultTracer] Extracted changes: 0 0 0 0 0 0 0 0 0 0 0 0 0 0 0 0 0 0 0 0 0 0 0 0 0 0 0 0
e1c5de1bbe2bf93ea9e5212c0f71fb7255dbdcff [FaultTracer] Extracted changes: 0 0 1 0 0 0 0 0 0 0 0 0 0 0 0 1 0 0 0 0 0 0 0 0 0 0 0 1
d9406824aeba0e977c0692971a6dbb2e62823886 [FaultTracer] Extracted changes: 0 0 1 0 0 0 0 0 0 0 0 0 1 0 0 0 0 0 0 0 0 0 0 0 1 0 0 0
6c3a1bb78c3e92fded50c1c1e9f4c3e2e6e9dd4c [FaultTracer] Extracted changes: 0 0 1 0 0 0 1 0 0 0 0 0 0 0 0 0 0 0 1 0 0 0 0 0 0 0 0 0
6aa7ba1d927cc57769d4ed589326053849b235ea [FaultTracer] Extracted changes: 0 0 308 308 0 0 0 0 0 0 0 0 0 0 0 0 0 0 0 0 0 0 0 0 0 0 0 0
3733512df9b172e0fdcf6cb0bdb7bc76131f0c8f [FaultTracer] Extracted changes: 0 0 0 0 0 0 0 0 0 0 0 0 0 0 0 0 0 0 0 0 0 0 0 0 0 0 0 0
aa5a7fb583802372a8898b87bfd708412f839a0f [FaultTracer] Extracted changes: 0 0 0 0 0 0 0 0 0 0 0 0 0 0 0 0 0 0 0 0 0 0 0 0 0 0 0 0
10b116c6559cd8ef555ac0962db515ec00b8ec0f [FaultTracer] Extracted changes: 0 0 0 0 0 0 0 0 0 0 0 0 0 0 0 0 0 0 0 0 0 0 0 0 0 0 0 0
ac1a0ccf92a8ae27f1cd9562da400b636b2feabd [FaultTracer] Extracted changes: 0 0 0 0 0 0 0 0 0 0 0 0 0 0 0 0 0 0 0 0 0 0 0 0 0 0 0 0
be499afb078e7c64c59ace84f811bfd2edfa9be6 [FaultTracer] Extracted changes: 0 0 0 0 0 0 0 0 0 0 0 0 0 0 0 0 0 0 0 0 0 0 0 0 0 0 0 0
0ac6369a0239d5ba310b9a86e7c26e35acecb982 [FaultTracer] Extracted changes: 0 0 1 0 0 0 0 0 0 0 0 0 4 0 0 0 0 0 0 0 0 0 0 0 1 0 0 0
3206b41cc6b60ef2854273ab0eee5e406f9f6efa [FaultTracer] Extracted changes: 0 0 0 0 0 0 0 0 0 0 0 0 0 0 0 0 0 0 0 0 0 0 0 0 0 0 0 0
0c3612764955e209ecf1ebdae609b2656d6debc3 [FaultTracer] Extracted changes: 0 0 1 1 0 0 0 0 0 0 0 0 0 0 0 0 0 0 0 0 0 0 0 0 0 0 0 0
c1d92d87157b7d5a27aa989eff14e302e15f96d7 [FaultTracer] Extracted changes: 0 1 0 0 0 0 0 0 0 0 0 0 0 0 0 0 0 0 0 0 0 0 0 0 0 0 0 0
842bf6f447aac7d05c75c6143a5affe9e383b3b3 [FaultTracer] Extracted changes: 0 0 7 0 0 0 0 0 0 0 0 0 24 1 0 5 0 0 0 0 0 0 0 0 3 1 0 4
4dc97b64005f0083b2facaa70f661138a4fa3fc0 [FaultTracer] Extracted changes: 0 1 0 0 0 0 0 0 0 0 0 0 0 0 0 0 0 0 0 0 0 0 0 0 0 0 0 0
eaeffded81ec88f4d0e7494bd544821412435ce8 [FaultTracer] Extracted changes: 0 0 0 0 0 0 0 0 0 0 0 0 0 0 0 0 0 0 0 0 0 0 0 0 0 0 0 0
59bc597a256f0146b5bb05d951ae2d84963cf3df [FaultTracer] Extracted changes: 0 0 0 0 0 0 0 0 0 0 0 0 0 0 0 0 0 0 0 0 0 0 0 0 0 0 0 0
d58f0dd73515f5e2226aeaa4f431f7e43444432d [FaultTracer] Extracted changes: 0 0 0 0 0 0 0 0 0 0 0 0 0 0 0 0 0 0 0 0 0 0 0 0 0 0 0 0
a2396b4637c11992de40d3715dfb41a738d5913b [FaultTracer] Extracted changes: 0 0 0 0 0 0 0 0 0 0 0 0 0 0 0 0 0 0 0 0 0 0 0 0 0 0 0 0
fedbfc171fdfcb2b5e36a73e56f86d2d233f2439 [FaultTracer] Extracted changes: 0 0 10 0 0 0 1 0 0 0 0 0 8 0 0 45 0 0 1 0 0 0 0 0 4 0 0 6
51f13c846dae950e1d27693c9e23c1063945210f [FaultTracer] Extracted changes: 0 0 2 0 0 0 0 0 0 0 0 0 0 0 1 1 0 0 0 0 0 0 0 0 0 0 1 1
81210eb267181b766acaf201a424a80d96bb5bed [FaultTracer] Extracted changes: 0 0 0 0 0 0 0 0 0 0 0 0 0 0 0 0 0 0 0 0 0 0 0 0 0 0 0 0
e6832682adbd29fc47e90109a59ed5dca0c9d742 [FaultTracer] Extracted changes: 0 0 0 0 0 0 0 0 0 0 0 0 0 0 0 0 0 0 0 0 0 0 0 0 0 0 0 0
b8225108253fc5e3bb83607200611024521609a9 [FaultTracer] Extracted changes: 0 0 0 0 0 0 0 0 0 0 0 0 0 0 0 0 0 0 0 0 0 0 0 0 0 0 0 0
5815293807b55cef2792edd9c440160ca8292b3f [FaultTracer] Extracted changes: 0 0 0 0 0 0 0 0 0 0 0 0 0 0 0 0 0 0 0 0 0 0 0 0 0 0 0 0
261e73236c58e094d5d68c5a063152a7169beafd [FaultTracer] Extracted changes: 0 0 1 0 0 0 0 0 0 0 0 0 1 0 0 0 0 0 0 0 0 0 0 0 1 0 0 0
209976ee53c9b584c013a9b0b21ec98ef733c6f1 [FaultTracer] Extracted changes: 0 0 0 0 0 0 0 0 0 0 0 0 0 0 0 0 0 0 0 0 0 0 0 0 0 0 0 0
cf402c948b2144ea83c40edb00163b74505335d1 [FaultTracer] Extracted changes: 0 0 5 0 0 0 0 0 0 0 0 0 0 0 1 4 0 0 0 0 0 0 0 0 0 0 1 4
5e3359388b0732fd1b3d055036187525eea76521 [FaultTracer] Extracted changes: 0 0 1 0 0 0 1 0 0 0 0 0 1 0 0 0 0 0 1 0 0 0 0 0 1 0 0 0
ab2aa8d6fdcdf5b3d326e7e86ac9d045f4859e98 [FaultTracer] Extracted changes: 0 0 0 0 0 0 0 0 0 0 0 0 0 0 0 0 0 0 0 0 0 0 0 0 0 0 0 0
2b9443351e9c89e812b4166f38c0f137eeaa0777 [FaultTracer] Extracted changes: 0 9 0 0 0 0 0 0 0 0 0 0 0 0 0 0 0 0 0 0 0 0 0 0 0 0 0 0
e180578289a5c65e19e430bd3300a72c9ba97a9b [FaultTracer] Extracted changes: 0 0 0 0 0 0 0 0 0 0 0 0 0 0 0 0 0 0 0 0 0 0 0 0 0 0 0 0
c6e63f2aae570a99bccbe8caf4f2164fb926d09a [FaultTracer] Extracted changes: 0 0 0 0 0 0 0 0 0 0 0 0 0 0 0 0 0 0 0 0 0 0 0 0 0 0 0 0
092bc1c46f3fcb90bb5eaba1d502aa13ff365ba7 [FaultTracer] Extracted changes: 0 0 0 0 0 0 0 0 0 0 0 0 0 0 0 0 0 0 0 0 0 0 0 0 0 0 0 0
fe24fcae4fa7c308dcc8ac232e06f310e52545d6 [FaultTracer] Extracted changes: 0 0 2 0 0 0 1 0 0 0 0 0 4 0 0 1 0 0 1 0 0 0 0 0 1 0 0 1
65e1c9c38becbee2f84d822cd65fd7dbce42b903 [FaultTracer] Extracted changes: 0 0 0 0 0 0 0 0 0 0 0 0 0 0 0 0 0 0 0 0 0 0 0 0 0 0 0 0
2c771decc2fb117d73e40b17d2691cf9c1c3569d [FaultTracer] Extracted changes: 0 0 0 0 0 0 0 0 0 0 0 0 0 0 0 0 0 0 0 0 0 0 0 0 0 0 0 0
dd5db159f7ab0e5ef8861d3e1d5a5cda5434073b [FaultTracer] Extracted changes: 0 0 0 0 0 0 0 0 0 0 0 0 0 0 0 0 0 0 0 0 0 0 0 0 0 0 0 0
9ba9b49af72269568ff4bdf516ee233642d761f3 [FaultTracer] Extracted changes: 0 0 0 0 0 0 0 0 0 0 0 0 0 0 0 0 0 0 0 0 0 0 0 0 0 0 0 0
822bd135f3a54b8fbeb23c313535b13c18198c3a [FaultTracer] Extracted changes: 0 0 0 0 0 0 0 0 0 0 0 0 0 0 0 0 0 0 0 0 0 0 0 0 0 0 0 0
941a9a6c2735543607e55fa0d54546b9b229c8e8 [FaultTracer] Extracted changes: 0 0 0 0 0 0 0 0 0 0 0 0 0 0 0 0 0 0 0 0 0 0 0 0 0 0 0 0
9e2b2c09732ca596331f7ca34ba4e0f03d70093d [FaultTracer] Extracted changes: 0 0 2 0 0 0 0 0 0 0 0 0 1 0 0 1 0 0 0 0 0 0 0 0 1 0 0 1
a7bd568249f9ec20b69b2a700da6a0648e93a842 [FaultTracer] Extracted changes: 0 0 5 1 0 0 0 1 3 2 0 0 1 0 0 1 0 0 0 1 1 1 0 0 1 0 0 1
c5f2e40e7a8234fe48e08d451d3152ba58a03ac6 [FaultTracer] Extracted changes: 0 0 0 0 0 0 0 0 0 0 0 0 0 0 0 0 0 0 0 0 0 0 0 0 0 0 0 0
c8dadeedd7255814bb282968f2092a1aa71e4ea1 [FaultTracer] Extracted changes: 0 0 0 0 0 0 0 0 0 0 0 0 0 0 0 0 0 0 0 0 0 0 0 0 0 0 0 0
96b43a3d6b731d38b4bc55456f12de7fcca7c3a1 [FaultTracer] Extracted changes: 0 0 0 0 0 0 0 0 0 0 0 0 0 0 0 0 0 0 0 0 0 0 0 0 0 0 0 0
46696f44ed3628ff660ef7c12aaed256a4450d87 [FaultTracer] Extracted changes: 0 0 0 0 0 0 0 0 0 0 0 0 0 0 0 0 0 0 0 0 0 0 0 0 0 0 0 0
3813270dcc2820f98872f061c26c75b36c569534 [FaultTracer] Extracted changes: 0 0 0 0 0 0 0 0 0 0 0 0 0 0 0 0 0 0 0 0 0 0 0 0 0 0 0 0
97fdb4b3a174b011ec1fa45125bf46c2edf4d6df [FaultTracer] Extracted changes: 0 0 0 0 0 0 0 0 0 0 0 0 0 0 0 0 0 0 0 0 0 0 0 0 0 0 0 0
0b3139a73e03b5a92f2370d9b086d3208fe0b5a0 [FaultTracer] Extracted changes: 0 0 0 0 0 0 0 0 0 0 0 0 0 0 0 0 0 0 0 0 0 0 0 0 0 0 0 0
948e0271b96774552a0b0f69d0ae2d53b34e575e [FaultTracer] Extracted changes: 3 0 1 1 0 0 0 0 0 0 0 0 0 0 0 0 0 0 0 0 0 0 0 0 0 0 0 0
9d432121e1c60557da3e159252a88885944e5f00 [FaultTracer] Extracted changes: 0 0 7 0 0 0 0 0 0 1 0 0 0 0 0 13 0 0 0 0 0 1 0 0 0 0 0 6
0c838a799ace7673e721bd29f0570097eb8f2925 [FaultTracer] Extracted changes: 0 0 0 0 0 0 0 0 0 0 0 0 0 0 0 0 0 0 0 0 0 0 0 0 0 0 0 0
5ea5c9624eee945ba6bf41e181066343e48272ce [FaultTracer] Extracted changes: 0 0 0 0 0 0 0 0 0 0 0 0 0 0 0 0 0 0 0 0 0 0 0 0 0 0 0 0
7479b372cd4291d2a51e51dd10690952d9fd7019 [FaultTracer] Extracted changes: 0 0 0 0 0 0 0 0 0 0 0 0 0 0 0 0 0 0 0 0 0 0 0 0 0 0 0 0
30e5713a9b1cd210542aa574cf026c0417c202d9 [FaultTracer] Extracted changes: 0 0 0 0 0 0 0 0 0 0 0 0 0 0 0 0 0 0 0 0 0 0 0 0 0 0 0 0
676401d298098a99f9262c26b8e084628b1e3009 [FaultTracer] Extracted changes: 0 0 0 0 0 0 0 0 0 0 0 0 0 0 0 0 0 0 0 0 0 0 0 0 0 0 0 0
3867ddb393cadb8ecfe87509e922c0679c02947b [FaultTracer] Extracted changes: 0 0 0 0 0 0 0 0 0 0 0 0 0 0 0 0 0 0 0 0 0 0 0 0 0 0 0 0
9b1882cf4a53c3d293d47a6e6bb6e0ba9b710529 [FaultTracer] Extracted changes: 0 0 0 0 0 0 0 0 0 0 0 0 0 0 0 0 0 0 0 0 0 0 0 0 0 0 0 0
bb3334507c5c9e9d3fd0462cb9366e8ce93eb7ba [FaultTracer] Extracted changes: 0 0 0 0 0 0 0 0 0 0 0 0 0 0 0 0 0 0 0 0 0 0 0 0 0 0 0 0
6e33d3df3233e66f98a8dd2ae470752b768fcd54 [FaultTracer] Extracted changes: 0 0 4 0 0 0 0 0 0 0 0 0 0 0 0 10 0 0 0 0 0 0 0 0 0 0 0 4
6b57d2a14089735cf1c653a2717d05023a3be441 [FaultTracer] Extracted changes: 0 0 9 0 0 0 0 0 0 0 0 0 1 0 0 20 0 0 0 0 0 0 0 0 1 0 0 8
79b4df582d0035e196d4dc10894778fae58311ce [FaultTracer] Extracted changes: 0 0 0 0 0 0 0 0 0 0 0 0 0 0 0 0 0 0 0 0 0 0 0 0 0 0 0 0
2bb4bec8391aa03f0e4d3a6f9292630243044726 [FaultTracer] Extracted changes: 0 0 0 0 0 0 0 0 0 0 0 0 0 0 0 0 0 0 0 0 0 0 0 0 0 0 0 0
8fce0fa77cddae14af022b6aacc32eb861fde99b [FaultTracer] Extracted changes: 0 0 1 0 0 0 0 0 0 0 0 0 0 0 0 1 0 0 0 0 0 0 0 0 0 0 0 1
933796e9330ed5043ad8e76d9fa2cb8b1d3a8e3a [FaultTracer] Extracted changes: 0 0 0 0 0 0 0 0 0 0 0 0 0 0 0 0 0 0 0 0 0 0 0 0 0 0 0 0
2a915f5872beca562a72a1ded95652f87b5daaa3 [FaultTracer] Extracted changes: 0 0 0 0 0 0 0 0 0 0 0 0 0 0 0 0 0 0 0 0 0 0 0 0 0 0 0 0
b1ee00d701a7bb247bc8f24e226cb8ad7411cb0a [FaultTracer] Extracted changes: 0 0 2 0 0 0 0 0 0 0 0 6 0 0 26 0 0 0 0 0 0 0 0 1 0 0 1 0
31c0d3a8e94b1016843596acea17a63bed9d4558 [FaultTracer] Extracted changes: 0 0 1 0 0 0 0 0 0 0 0 0 1 0 0 0 0 0 0 0 0 0 0 0 1 0 0 0
e95134229b9066aa2f1d312a53f5a670d271dbfa [FaultTracer] Extracted changes: 0 2 0 0 0 0 0 0 0 0 0 0 0 0 0 0 0 0 0 0 0 0 0 0 0 0 0 0
699d6f0eca65837501d7ab7a92ae2c614f8e6cbf [FaultTracer] Extracted changes: 0 0 0 0 0 0 0 0 0 0 0 0 0 0 0 0 0 0 0 0 0 0 0 0 0 0 0 0
fcc6361946b1809771e136af566518320006c01e [FaultTracer] Extracted changes: 0 0 2 0 0 0 0 0 0 0 0 0 1 0 0 1 0 0 0 0 0 0 0 0 1 0 0 1
703228a3d40881ea52faada723726b05f6d77b8a [FaultTracer] Extracted changes: 0 0 0 0 0 0 0 0 0 0 0 0 0 0 0 0 0 0 0 0 0 0 0 0 0 0 0 0
