3775e6d352985cac43e3b00572f8dcc9fe826ac5
54eeaee27c4d73a5b3b6ee84e53ee9046919a18b
284886bd96c93740a26cac4c6e39a255fecf6062
b2da444800d4c5d472da58a6b776891621d11718
2e72f7494ae59cb11b11a43f87839315390beaf4
9146eca01bc208c9923aff6880b220a0fe3e6894
76c4ec233c1a61b1f46df6d6847b889c0a7a978a
7506aa1a2c648ca3da724aa83de41bf526239add
8f06c0ddc6fb9d17075e688265ac3767259bc5e4
1d031d6eb6e6861f38e228bd587ff74e7f6fcce8
426cd8c52ef1732ad3a57171429bf7704d80bcc0
24df623ed69f86a13a2ec453f480a4e3f93b04ff
d2edcde68b3fbaa68aa892f90ebcd0d7ec104176
2f02e64b2e90766ec1c35437b03b7d127c70af58
7c7c9372db6d79f950ee16ec8943dd76fc0f06e4
45524d8bdb5640b81d13ee63a072e88c81981a7e
318d3a57394781e05d2372fc2b2c095c02c25379
87a126f7cf7df3a3f83551a6421ab2ed1426a2d7
7908be284dc2e24e3d89787e64e272409d25338a
14a08584c7cf63dfadddaeec102820f9de901c60
31373778a21bf4124ba2c120e384db8062f0a2b6
4a0bf370411e027ee9c7e835f4834593917aa35d
db551e3eb6805a69d4967265570811b011fd89f4
679e9cfe62ff26b1205f0a9de7a96f12fc771230
67f6f50a013d6eb6bdc4d0ed20b11081723d7054
e1c5de1bbe2bf93ea9e5212c0f71fb7255dbdcff
d9406824aeba0e977c0692971a6dbb2e62823886
6c3a1bb78c3e92fded50c1c1e9f4c3e2e6e9dd4c
6aa7ba1d927cc57769d4ed589326053849b235ea
3733512df9b172e0fdcf6cb0bdb7bc76131f0c8f
aa5a7fb583802372a8898b87bfd708412f839a0f
10b116c6559cd8ef555ac0962db515ec00b8ec0f
ac1a0ccf92a8ae27f1cd9562da400b636b2feabd
be499afb078e7c64c59ace84f811bfd2edfa9be6
0ac6369a0239d5ba310b9a86e7c26e35acecb982
3206b41cc6b60ef2854273ab0eee5e406f9f6efa
0c3612764955e209ecf1ebdae609b2656d6debc3
c1d92d87157b7d5a27aa989eff14e302e15f96d7
842bf6f447aac7d05c75c6143a5affe9e383b3b3
4dc97b64005f0083b2facaa70f661138a4fa3fc0
eaeffded81ec88f4d0e7494bd544821412435ce8
59bc597a256f0146b5bb05d951ae2d84963cf3df
d58f0dd73515f5e2226aeaa4f431f7e43444432d
a2396b4637c11992de40d3715dfb41a738d5913b
fedbfc171fdfcb2b5e36a73e56f86d2d233f2439
51f13c846dae950e1d27693c9e23c1063945210f
81210eb267181b766acaf201a424a80d96bb5bed
e6832682adbd29fc47e90109a59ed5dca0c9d742
b8225108253fc5e3bb83607200611024521609a9
5815293807b55cef2792edd9c440160ca8292b3f
261e73236c58e094d5d68c5a063152a7169beafd
209976ee53c9b584c013a9b0b21ec98ef733c6f1
cf402c948b2144ea83c40edb00163b74505335d1
5e3359388b0732fd1b3d055036187525eea76521
ab2aa8d6fdcdf5b3d326e7e86ac9d045f4859e98
2b9443351e9c89e812b4166f38c0f137eeaa0777
e180578289a5c65e19e430bd3300a72c9ba97a9b
c6e63f2aae570a99bccbe8caf4f2164fb926d09a
092bc1c46f3fcb90bb5eaba1d502aa13ff365ba7
fe24fcae4fa7c308dcc8ac232e06f310e52545d6
65e1c9c38becbee2f84d822cd65fd7dbce42b903
2c771decc2fb117d73e40b17d2691cf9c1c3569d
dd5db159f7ab0e5ef8861d3e1d5a5cda5434073b
9ba9b49af72269568ff4bdf516ee233642d761f3
822bd135f3a54b8fbeb23c313535b13c18198c3a
941a9a6c2735543607e55fa0d54546b9b229c8e8
9e2b2c09732ca596331f7ca34ba4e0f03d70093d
a7bd568249f9ec20b69b2a700da6a0648e93a842
c5f2e40e7a8234fe48e08d451d3152ba58a03ac6
c8dadeedd7255814bb282968f2092a1aa71e4ea1
96b43a3d6b731d38b4bc55456f12de7fcca7c3a1
46696f44ed3628ff660ef7c12aaed256a4450d87
3813270dcc2820f98872f061c26c75b36c569534
97fdb4b3a174b011ec1fa45125bf46c2edf4d6df
0b3139a73e03b5a92f2370d9b086d3208fe0b5a0
948e0271b96774552a0b0f69d0ae2d53b34e575e
9d432121e1c60557da3e159252a88885944e5f00
0c838a799ace7673e721bd29f0570097eb8f2925
5ea5c9624eee945ba6bf41e181066343e48272ce
7479b372cd4291d2a51e51dd10690952d9fd7019
30e5713a9b1cd210542aa574cf026c0417c202d9
676401d298098a99f9262c26b8e084628b1e3009
3867ddb393cadb8ecfe87509e922c0679c02947b
9b1882cf4a53c3d293d47a6e6bb6e0ba9b710529
bb3334507c5c9e9d3fd0462cb9366e8ce93eb7ba
6e33d3df3233e66f98a8dd2ae470752b768fcd54
6b57d2a14089735cf1c653a2717d05023a3be441
79b4df582d0035e196d4dc10894778fae58311ce
2bb4bec8391aa03f0e4d3a6f9292630243044726
8fce0fa77cddae14af022b6aacc32eb861fde99b
933796e9330ed5043ad8e76d9fa2cb8b1d3a8e3a
2a915f5872beca562a72a1ded95652f87b5daaa3
b1ee00d701a7bb247bc8f24e226cb8ad7411cb0a
31c0d3a8e94b1016843596acea17a63bed9d4558
e95134229b9066aa2f1d312a53f5a670d271dbfa
699d6f0eca65837501d7ab7a92ae2c614f8e6cbf
fcc6361946b1809771e136af566518320006c01e
703228a3d40881ea52faada723726b05f6d77b8a
593de775be9e5cb9c9a6cbcebe9a40ce80cc4bfd
