15037cc1564da8eb33102f7597623f0f08fb9205 [FaultTracer] Extracted changes: 0 0 5 4 0 0 1 0 0 0 0 0 0 0 1 1 0 0 1 0 0 0 0 0 0 0 1 1
09ab4fbfa7edd07c4b2a973309e1303dd4c9e4a5 [FaultTracer] Extracted changes: 0 0 6 5 0 0 0 0 0 0 0 0 0 0 0 1 0 0 0 0 0 0 0 0 0 0 0 1
ed60109dccce33fd930d7c45b9ff38b29c9e1eef [FaultTracer] Extracted changes: 0 0 5 5 0 0 0 0 0 0 0 0 0 0 0 0 0 0 0 0 0 0 0 0 0 0 0 0
610ea712efa9579407116d1c1ad0323004fe8ddd [FaultTracer] Extracted changes: 0 2 5 5 0 0 0 0 0 0 0 0 0 0 0 0 0 0 0 0 0 0 0 0 0 0 0 0
db989fff2d767fb6580479ef656f9fe81d6139da [FaultTracer] Extracted changes: 2 0 6 5 0 0 0 0 0 0 0 0 0 0 0 1 0 0 0 0 0 0 0 0 0 0 0 1
668315c5de0be1222f08e0da1e3bb361115c51e7 [FaultTracer] Extracted changes: 0 2 4 4 0 0 0 0 0 0 0 0 0 0 0 0 0 0 0 0 0 0 0 0 0 0 0 0
a10034ca433f22ed541c77a5d01c2b6add975d47 [FaultTracer] Extracted changes: 0 0 4 4 0 0 0 0 0 0 0 0 0 0 0 0 0 0 0 0 0 0 0 0 0 0 0 0
b4c358a4c3c003a9ffbb0ecfe7685dd07cbd759f [FaultTracer] Extracted changes: 0 0 3 3 0 0 0 0 0 0 0 0 0 0 0 0 0 0 0 0 0 0 0 0 0 0 0 0
dca9399219f5304d758cb16eb06ef57562fc8ba6 [FaultTracer] Extracted changes: 0 0 5 5 0 0 0 0 0 0 0 0 0 0 0 0 0 0 0 0 0 0 0 0 0 0 0 0
5884c921a2cb3ae4136e0d957298aac96cec2131 [FaultTracer] Extracted changes: 0 0 5 5 0 0 0 0 0 0 0 0 0 0 0 0 0 0 0 0 0 0 0 0 0 0 0 0
0e08531a23f8ce619f27ca0f425d2b5a647ae926 [FaultTracer] Extracted changes: 0 0 4 3 0 0 1 0 0 0 0 0 0 0 0 0 0 0 1 0 0 0 0 0 0 0 0 0
50ce1a1acc3af33c6b5bbaab51fb4036ef7fb5a8 [FaultTracer] Extracted changes: 0 0 5 5 0 0 0 0 0 0 0 0 0 0 0 0 0 0 0 0 0 0 0 0 0 0 0 0
73777265b194670b46b4610cfb82f55ecf76ba17 [FaultTracer] Extracted changes: 0 1 8 3 0 0 0 0 0 1 0 0 0 0 1 2 0 0 0 0 0 1 0 0 0 0 1 2
8dde168adb70b1c3b2f18ae4bb2db7c79d859ecb [FaultTracer] Extracted changes: 0 0 1 0 0 0 0 0 0 0 0 0 0 0 0 1 0 0 0 0 0 0 0 0 0 0 0 1
88e6c7b580404665a41c51707c4a558a7a8e1a40 [FaultTracer] Extracted changes: 0 0 3 3 0 0 0 0 0 0 0 0 0 0 0 0 0 0 0 0 0 0 0 0 0 0 0 0
2b21946a97daabab80e8f076e438a449d01e9da5 [FaultTracer] Extracted changes: 0 0 5 5 0 0 0 0 0 0 0 0 0 0 0 0 0 0 0 0 0 0 0 0 0 0 0 0
5dac71955f4cd7b51a8bf3e4c6b8a44f5614c225 [FaultTracer] Extracted changes: 0 0 5 5 0 0 0 0 0 0 0 0 0 0 0 0 0 0 0 0 0 0 0 0 0 0 0 0
39aa95eef464fc3f16a7953dbc92f0f6b91e666c [FaultTracer] Extracted changes: 0 0 5 5 0 0 0 0 0 0 0 0 0 0 0 0 0 0 0 0 0 0 0 0 0 0 0 0
8339bb0c78d98a401591c7269b29763f5ed552d6 [FaultTracer] Extracted changes: 0 0 2 0 0 0 0 0 0 0 0 0 3 0 0 0 0 0 0 0 0 0 0 0 2 0 0 0
7d1fb2ea3a0fdc50d10cf191acd169189c6f083a [FaultTracer] Extracted changes: 0 5 0 0 0 0 0 0 0 0 0 0 0 0 0 0 0 0 0 0 0 0 0 0 0 0 0 0
76cf343c8b07b235087f54d3cb9f54fe87980eb6 [FaultTracer] Extracted changes: 0 0 3 3 0 0 0 0 0 0 0 0 0 0 0 0 0 0 0 0 0 0 0 0 0 0 0 0
7daa07c58abdb3f8bb26c2d55bf8771662bf46a1 [FaultTracer] Extracted changes: 0 0 5 5 0 0 0 0 0 0 0 0 0 0 0 0 0 0 0 0 0 0 0 0 0 0 0 0
88af60af2cd4bed00dbbe41dbc3ab303c514c7cb [FaultTracer] Extracted changes: 0 0 5 5 0 0 0 0 0 0 0 0 0 0 0 0 0 0 0 0 0 0 0 0 0 0 0 0
6e5d87a173f9bc9b1ce69175aafd33c8cdf8bd1f [FaultTracer] Extracted changes: 0 0 3 3 0 0 0 0 0 0 0 0 0 0 0 0 0 0 0 0 0 0 0 0 0 0 0 0
871e67a639ac46c8cce9db8c4bb7dd21dfce7392 [FaultTracer] Extracted changes: 0 0 4 4 0 0 0 0 0 0 0 0 0 0 0 0 0 0 0 0 0 0 0 0 0 0 0 0
61ae2ddcb67c8f9443451b883126a9c96ce041cf [FaultTracer] Extracted changes: 0 0 4 4 0 0 0 0 0 0 0 0 0 0 0 0 0 0 0 0 0 0 0 0 0 0 0 0
54a4412847697a30efc9571350cc1dc5e0e5359b [FaultTracer] Extracted changes: 0 0 9 5 0 0 0 0 0 0 0 1 1 0 0 4 0 0 0 0 0 0 0 1 1 0 0 2
5cbb9351f83d200ef9fcba7a1d5a6c875654de22 [FaultTracer] Extracted changes: 0 0 3 2 0 0 0 0 0 0 0 0 1 0 0 0 0 0 0 0 0 0 0 0 1 0 0 0
211bcd46573011ed87525272e427ed055df32ab7 [FaultTracer] Extracted changes: 0 0 1 0 0 0 1 0 0 0 0 0 0 0 0 1 0 0 1 0 0 0 0 0 0 0 0 1
21eedd550258f6a33bc0f4b22579366afe7f4e62 [FaultTracer] Extracted changes: 0 0 6 5 0 0 0 0 0 0 0 0 0 0 1 1 0 0 0 0 0 0 0 0 0 0 1 1
dd0c82613ceaa388c739b936b3b80f3d92f4bf2a [FaultTracer] Extracted changes: 0 0 6 5 0 0 1 0 0 0 0 0 0 0 0 0 0 0 1 0 0 0 0 0 0 0 0 0
fb95531f07a0ed4deb85a8d5286414b304f93652 [FaultTracer] Extracted changes: 0 0 5 5 0 0 0 0 0 0 0 0 0 0 0 0 0 0 0 0 0 0 0 0 0 0 0 0
551b1039e9114445dd901749660cdf4441c4b303 [FaultTracer] Extracted changes: 0 0 6 5 0 0 0 0 0 0 0 0 0 0 0 1 0 0 0 0 0 0 0 0 0 0 0 1
eb65b1b2333246d3a5a3722aa2d1be1349694bfd [FaultTracer] Extracted changes: 0 0 5 5 0 0 0 0 0 0 0 0 0 0 0 0 0 0 0 0 0 0 0 0 0 0 0 0
503cb8ec7efaf883b48b2e594bd537947169af12 [FaultTracer] Extracted changes: 0 0 5 5 0 0 0 0 0 0 0 0 0 0 0 0 0 0 0 0 0 0 0 0 0 0 0 0
7d3870dd34089a419df186e94ef76269a01fc6bd [FaultTracer] Extracted changes: 0 0 2 2 0 0 0 0 0 0 0 0 0 0 0 0 0 0 0 0 0 0 0 0 0 0 0 0
a31810b33657c3c183a20af555e594e0e099e451 [FaultTracer] Extracted changes: 0 0 5 5 0 0 0 0 0 0 0 0 0 0 0 0 0 0 0 0 0 0 0 0 0 0 0 0
1f46d5f920b0944d34f845446d6cde6d4de23c49 [FaultTracer] Extracted changes: 0 0 11 5 0 0 0 0 0 1 0 0 0 4 4 11 0 0 0 0 0 1 0 0 0 3 3 5
3716edfa5746fca33552967b8fbfa412f0736ee5 [FaultTracer] Extracted changes: 0 0 5 5 0 0 0 0 0 0 0 0 0 0 0 0 0 0 0 0 0 0 0 0 0 0 0 0
15468fb4bdd4c726a1896d752459ec1d6de1ca6e [FaultTracer] Extracted changes: 0 0 6 0 0 0 0 0 0 1 0 0 0 4 4 11 0 0 0 0 0 1 0 0 0 3 3 5
54c1cbaeaef81b5e7edfaf2357f2731a48450cbd [FaultTracer] Extracted changes: 0 0 10 5 0 0 0 0 0 1 0 0 0 3 3 11 0 0 0 0 0 1 0 0 0 2 2 5
953b0be06d7517e63eebb6ef61c6d734621eae1e [FaultTracer] Extracted changes: 0 0 8 3 0 0 0 0 0 1 0 0 0 3 3 11 0 0 0 0 0 1 0 0 0 2 2 5
3bf8356b8d3ce38757eb561fa8e4649d581dc4d3 [FaultTracer] Extracted changes: 0 0 4 3 0 0 0 0 0 0 0 0 0 0 0 1 0 0 0 0 0 0 0 0 0 0 0 1
ed2cce6eda612558b780122bb33f37e612e00857 [FaultTracer] Extracted changes: 0 0 9 4 0 0 0 0 0 1 0 0 0 3 3 9 0 0 0 0 0 1 0 0 0 2 2 5
e6ece36c3276edd036003c9f21c5ed54179b00f7 [FaultTracer] Extracted changes: 0 0 4 4 0 0 0 0 0 0 0 0 0 0 0 0 0 0 0 0 0 0 0 0 0 0 0 0
ddfe0ab6cbad524f5950415d24f14cbbdda6b80a [FaultTracer] Extracted changes: 0 0 7 5 0 0 0 0 0 0 0 0 0 0 0 2 0 0 0 0 0 0 0 0 0 0 0 2
60224a0399a618325e08f129536855c4da1348cd [FaultTracer] Extracted changes: 0 0 6 5 0 0 0 0 0 0 0 0 0 0 0 1 0 0 0 0 0 0 0 0 0 0 0 1
fa0a3e3b6fe759e924146b86a4f9bba0db3843c5 [FaultTracer] Extracted changes: 0 0 4 3 0 0 0 0 0 0 0 0 0 0 0 1 0 0 0 0 0 0 0 0 0 0 0 1
6f81b02b324ab7f3ca1abe9da4c899c145476686 [FaultTracer] Extracted changes: 0 0 1 0 0 0 0 0 0 0 0 0 0 0 0 1 0 0 0 0 0 0 0 0 0 0 0 1
c295eae96034032b88518451fe3159d88e7435eb [FaultTracer] Extracted changes: 0 0 4 3 0 0 0 0 0 0 0 0 0 0 0 2 0 0 0 0 0 0 0 0 0 0 0 1
97057a1696a0e52f7a25098c9d1dfbd54fedc7b5 [FaultTracer] Extracted changes: 0 0 4 3 0 0 0 0 0 0 0 0 0 1 0 0 0 0 0 0 0 0 0 0 0 1 0 0
6edaa336a6e998e24c828c266ea12ecf70c000f6 [FaultTracer] Extracted changes: 0 0 1 0 0 0 0 0 0 0 0 0 0 0 0 1 0 0 0 0 0 0 0 0 0 0 0 1
03122e85b4501dd356122a776df8130d4c843384 [FaultTracer] Extracted changes: 1 0 8 7 0 0 0 0 0 0 1 0 0 0 0 0 0 0 0 0 0 0 1 0 0 0 0 0
cce7c9133d6cba20ba7f693352c37c31fd8a5067 [FaultTracer] Extracted changes: 0 0 146 146 0 0 0 0 0 0 0 0 0 0 0 0 0 0 0 0 0 0 0 0 0 0 0 0
52d1c9fb525aac602239e65dcfaf78facd50780b [FaultTracer] Extracted changes: 0 0 5 4 0 0 0 0 0 0 0 0 0 0 0 1 0 0 0 0 0 0 0 0 0 0 0 1
6c3957b04bd57dc41138213e9a9d9d4fbb1d5989 [FaultTracer] Extracted changes: 0 0 6 6 0 0 0 0 0 0 0 0 0 0 0 0 0 0 0 0 0 0 0 0 0 0 0 0
5f3c97702facbdd09e91632324d26e952b4cc62c [FaultTracer] Extracted changes: 0 1 6 5 0 0 0 0 0 0 0 0 0 0 0 1 0 0 0 0 0 0 0 0 0 0 0 1
53d479cf039ba42966c1a8cf199798694fe217ab [FaultTracer] Extracted changes: 0 0 5 5 0 0 0 0 0 0 0 0 0 0 0 0 0 0 0 0 0 0 0 0 0 0 0 0
bb86c38ac13a8f785dda9f6188838771ed379045 [FaultTracer] Extracted changes: 0 0 4 3 0 0 0 0 0 0 0 0 0 0 0 1 0 0 0 0 0 0 0 0 0 0 0 1
a8a926be0964ff0fd5cb072805c21e6800f8deba [FaultTracer] Extracted changes: 0 0 5 3 0 0 1 0 0 0 0 0 0 0 0 1 0 0 1 0 0 0 0 0 0 0 0 1
115453a282c8dfd987fcd2476c6b28d2b4f9dd93 [FaultTracer] Extracted changes: 0 0 5 5 0 0 0 0 0 0 0 0 0 0 0 0 0 0 0 0 0 0 0 0 0 0 0 0
3906d003341116600f4bca8891eb0258b63f9134 [FaultTracer] Extracted changes: 0 0 8 5 0 0 0 0 0 0 0 0 0 0 0 5 0 0 0 0 0 0 0 0 0 0 0 2
d16f4eee5b113439958ed78f21fc08dc062d12f1 [FaultTracer] Extracted changes: 0 0 15 3 0 0 0 0 0 0 0 0 1 0 0 24 0 0 0 0 0 0 0 0 1 0 0 11
15ef1bd290466903fb8b35e8c3415bdd89ada67b [FaultTracer] Extracted changes: 0 0 5 5 0 0 0 0 0 0 0 0 0 0 0 0 0 0 0 0 0 0 0 0 0 0 0 0
2097e71828c65122d36f7856eddd6b83b2ecfbdb [FaultTracer] Extracted changes: 0 0 3 3 0 0 0 0 0 0 0 0 0 0 0 0 0 0 0 0 0 0 0 0 0 0 0 0
0483de5fd7d4a435233f56126fda29fc55a899c4 [FaultTracer] Extracted changes: 0 0 5 5 0 0 0 0 0 0 0 0 0 0 0 0 0 0 0 0 0 0 0 0 0 0 0 0
81f91b47e84433a0f506200244e56a54148c66b4 [FaultTracer] Extracted changes: 0 0 5 5 0 0 0 0 0 0 0 0 0 0 0 0 0 0 0 0 0 0 0 0 0 0 0 0
76be0b7bc65bc3cced2dd7764478c1e68e86e2a0 [FaultTracer] Extracted changes: 0 0 4 4 0 0 0 0 0 0 0 0 0 0 0 0 0 0 0 0 0 0 0 0 0 0 0 0
dbd33dedf5e9444e00a306937d5db62bd245aedb [FaultTracer] Extracted changes: 0 0 3 3 0 0 0 0 0 0 0 0 0 0 0 0 0 0 0 0 0 0 0 0 0 0 0 0
0fc6ec5c8ff75ca3618be94c77d849a6f6267851 [FaultTracer] Extracted changes: 0 0 6 5 0 0 0 0 0 0 0 0 0 0 0 1 0 0 0 0 0 0 0 0 0 0 0 1
20e6a5d92345d1b8e50b9fc24122d31a3a4c6af9 [FaultTracer] Extracted changes: 0 0 8 5 0 0 1 0 0 1 0 0 0 2 2 4 0 0 1 0 0 1 0 0 0 2 2 2
6bff2983166aad3820240d278e7aac9f0a4f5c3b [FaultTracer] Extracted changes: 0 0 6 5 0 0 0 0 0 0 0 0 0 0 0 1 0 0 0 0 0 0 0 0 0 0 0 1
5e05adcd27ceeaa4b6b5a23930505f99ff3b0644 [FaultTracer] Extracted changes: 0 0 6 5 0 0 0 0 0 0 0 0 0 0 0 1 0 0 0 0 0 0 0 0 0 0 0 1
135fb0bc5d5d66c075cd0c18ccda30726b2f233f [FaultTracer] Extracted changes: 0 0 6 5 0 0 0 0 0 0 0 0 0 0 0 1 0 0 0 0 0 0 0 0 0 0 0 1
9b7cdb849b454f0985332745997ee327327e7b2a [FaultTracer] Extracted changes: 0 0 4 3 0 0 0 0 0 0 0 0 0 0 0 1 0 0 0 0 0 0 0 0 0 0 0 1
b84f0df071d463f82f5f151960fde4d34ea53cd1 [FaultTracer] Extracted changes: 0 0 5 5 0 0 0 0 0 0 0 0 0 0 0 0 0 0 0 0 0 0 0 0 0 0 0 0
b288fad4bd7a42d14179ca33d643e56297145d39 [FaultTracer] Extracted changes: 0 0 5 5 0 0 0 0 0 0 0 0 0 0 0 0 0 0 0 0 0 0 0 0 0 0 0 0
09661be363f50ce8081ac5c0023f63630e6bd913 [FaultTracer] Extracted changes: 0 0 5 5 0 0 0 0 0 0 0 0 0 0 0 0 0 0 0 0 0 0 0 0 0 0 0 0
d6dfb31f1e4e82d4026b3f13840b64b169ba9a89 [FaultTracer] Extracted changes: 0 0 2 2 0 0 0 0 0 0 0 0 0 0 0 0 0 0 0 0 0 0 0 0 0 0 0 0
7e9357bfe708e5154eadd263b6cc5be3985d8892 [FaultTracer] Extracted changes: 0 0 5 5 0 0 0 0 0 0 0 0 0 0 0 0 0 0 0 0 0 0 0 0 0 0 0 0
fb8896f0aa1d31c73e18aab93b10a34e36a9cc0e [FaultTracer] Extracted changes: 0 0 3 3 0 0 0 0 0 0 0 0 0 0 0 0 0 0 0 0 0 0 0 0 0 0 0 0
99cd37eb17f3c1cea6d16ed6d0a3ad8f45de5c64 [FaultTracer] Extracted changes: 0 0 5 5 0 0 0 0 0 0 0 0 0 0 0 0 0 0 0 0 0 0 0 0 0 0 0 0
166d791f628bfdc4110ff198d3d939d8eb809d1e [FaultTracer] Extracted changes: 0 0 13 4 0 0 0 0 0 1 4 3 0 0 0 21 0 0 0 0 0 1 1 1 0 0 0 9
8361cf5afe436684fc6695df047d60aebcdb7200 [FaultTracer] Extracted changes: 0 0 5 5 0 0 0 0 0 0 0 0 0 0 0 0 0 0 0 0 0 0 0 0 0 0 0 0
4fa75c167b4df6f0fd6c354c9754c17682426c08 [FaultTracer] Extracted changes: 0 1 6 5 0 0 0 0 0 1 0 0 0 0 0 1 0 0 0 0 0 1 0 0 0 0 0 1
1bd23423b94e8b7ba49c363d10281f869197e52e [FaultTracer] Extracted changes: 0 0 5 5 0 0 0 0 0 0 0 0 0 0 0 0 0 0 0 0 0 0 0 0 0 0 0 0
51094618e8e75fd0287a71c5e3d8a07b5f8d2f65 [FaultTracer] Extracted changes: 0 0 4 4 0 0 0 0 0 0 0 0 0 0 0 0 0 0 0 0 0 0 0 0 0 0 0 0
fe4f68a05ac68f594ce124847b8019f4b17c0d48 [FaultTracer] Extracted changes: 0 1 16 6 0 0 0 0 0 0 0 0 1 0 2 22 0 0 0 0 0 0 0 0 1 0 1 9
7bab1a8ccdd3fad2ed9a332e469f68ce9e5c4ec1 [FaultTracer] Extracted changes: 0 4 25 6 0 0 0 0 0 4 0 0 0 0 7 16 0 0 0 0 0 4 0 0 0 0 6 15
346a2f5977513905cce288541a8a6fc56f1a3c29 [FaultTracer] Extracted changes: 1 0 10 6 0 0 0 0 0 1 0 0 0 0 0 4 0 0 0 0 0 1 0 0 0 0 0 4
9cc1fbcfca89b6e0d40b91fa553004162b88fc4a [FaultTracer] Extracted changes: 0 0 5 3 0 0 0 0 0 1 0 0 0 0 0 3 0 0 0 0 0 1 0 0 0 0 0 2
