[INFO] Scanning for projects...
[INFO]                                                                         
[INFO] ------------------------------------------------------------------------
[INFO] Building Apache Commons Pool 2.4.3-SNAPSHOT
[INFO] ------------------------------------------------------------------------
[INFO] 
[INFO] --- maven-enforcer-plugin:1.3.1:enforce (enforce-maven-3) @ commons-pool2 ---
[INFO] 
[INFO] --- maven-antrun-plugin:1.7:run (javadoc.resources) @ commons-pool2 ---
[INFO] Executing tasks

main:
[INFO] Executed tasks
[INFO] 
[INFO] --- maven-remote-resources-plugin:1.5:process (default) @ commons-pool2 ---
[INFO] 
[INFO] --- buildnumber-maven-plugin:1.2:create (default) @ commons-pool2 ---
[INFO] Checking for local modifications: skipped.
[INFO] Updating project files from SCM: skipped.
[INFO] Executing: /bin/sh -c cd /home/lingming/hybrid-rts/subjects/commons-pool/ee5235e84ef92fe0c51d0d115b90350cfbf991e1 && svn --non-interactive info
[INFO] Working directory: /home/lingming/hybrid-rts/subjects/commons-pool/ee5235e84ef92fe0c51d0d115b90350cfbf991e1
[INFO] Storing buildNumber: ?????? at timestamp: 1483574562032
[INFO] Executing: /bin/sh -c cd /home/lingming/hybrid-rts/subjects/commons-pool/ee5235e84ef92fe0c51d0d115b90350cfbf991e1 && svn --non-interactive info
[INFO] Working directory: /home/lingming/hybrid-rts/subjects/commons-pool/ee5235e84ef92fe0c51d0d115b90350cfbf991e1
[INFO] Storing buildScmBranch: UNKNOWN_BRANCH
[INFO] 
[INFO] --- maven-resources-plugin:2.6:resources (default-resources) @ commons-pool2 ---
[INFO] Using 'UTF-8' encoding to copy filtered resources.
[INFO] skip non existing resourceDirectory /home/lingming/hybrid-rts/subjects/commons-pool/ee5235e84ef92fe0c51d0d115b90350cfbf991e1/src/main/resources
[INFO] Copying 2 resources to META-INF
[INFO] 
[INFO] --- maven-compiler-plugin:3.1:compile (default-compile) @ commons-pool2 ---
[INFO] Nothing to compile - all classes are up to date
[INFO] 
[INFO] --- maven-bundle-plugin:2.4.0:manifest (bundle-manifest) @ commons-pool2 ---
[INFO] 
[INFO] --- maven-resources-plugin:2.6:testResources (default-testResources) @ commons-pool2 ---
[INFO] Using 'UTF-8' encoding to copy filtered resources.
[INFO] Copying 2 resources
[INFO] Copying 2 resources to META-INF
[INFO] 
[INFO] --- maven-compiler-plugin:3.1:testCompile (default-testCompile) @ commons-pool2 ---
[INFO] Nothing to compile - all classes are up to date
[INFO] 
[INFO] --- maven-surefire-plugin:2.17:test (default-test) @ commons-pool2 ---
[INFO] Surefire report directory: /home/lingming/hybrid-rts/subjects/commons-pool/ee5235e84ef92fe0c51d0d115b90350cfbf991e1/target/surefire-reports

-------------------------------------------------------
 T E S T S
-------------------------------------------------------
Running org.apache.commons.pool2.TestBaseKeyedPoolableObjectFactory
Tests run: 1, Failures: 0, Errors: 0, Skipped: 0, Time elapsed: 0.03 sec - in org.apache.commons.pool2.TestBaseKeyedPoolableObjectFactory
Running org.apache.commons.pool2.impl.TestGenericObjectPool
Tests run: 73, Failures: 0, Errors: 0, Skipped: 0, Time elapsed: 72.629 sec - in org.apache.commons.pool2.impl.TestGenericObjectPool
Running org.apache.commons.pool2.impl.TestAbandonedObjectPool
Tests run: 6, Failures: 0, Errors: 0, Skipped: 0, Time elapsed: 11.399 sec - in org.apache.commons.pool2.impl.TestAbandonedObjectPool
Running org.apache.commons.pool2.impl.TestPooledSoftReference
Tests run: 2, Failures: 0, Errors: 0, Skipped: 0, Time elapsed: 0.001 sec - in org.apache.commons.pool2.impl.TestPooledSoftReference
Running org.apache.commons.pool2.impl.TestPoolImplUtils
Tests run: 2, Failures: 0, Errors: 0, Skipped: 0, Time elapsed: 0.002 sec - in org.apache.commons.pool2.impl.TestPoolImplUtils
Running org.apache.commons.pool2.impl.TestDefaultPooledObjectInfo
Tests run: 4, Failures: 0, Errors: 0, Skipped: 0, Time elapsed: 0.304 sec - in org.apache.commons.pool2.impl.TestDefaultPooledObjectInfo
Running org.apache.commons.pool2.impl.TestGenericKeyedObjectPool
Tests run: 62, Failures: 0, Errors: 0, Skipped: 0, Time elapsed: 165.59 sec - in org.apache.commons.pool2.impl.TestGenericKeyedObjectPool
Running org.apache.commons.pool2.impl.TestSoftReferenceObjectPool
Tests run: 17, Failures: 0, Errors: 0, Skipped: 0, Time elapsed: 0.256 sec - in org.apache.commons.pool2.impl.TestSoftReferenceObjectPool
Running org.apache.commons.pool2.impl.TestLinkedBlockingDeque
Tests run: 40, Failures: 0, Errors: 0, Skipped: 0, Time elapsed: 0.364 sec - in org.apache.commons.pool2.impl.TestLinkedBlockingDeque
Running org.apache.commons.pool2.impl.TestDefaultPooledObject
Tests run: 1, Failures: 0, Errors: 0, Skipped: 0, Time elapsed: 98.551 sec - in org.apache.commons.pool2.impl.TestDefaultPooledObject
Running org.apache.commons.pool2.impl.TestBaseGenericObjectPool
Tests run: 2, Failures: 0, Errors: 0, Skipped: 0, Time elapsed: 0.002 sec - in org.apache.commons.pool2.impl.TestBaseGenericObjectPool
Running org.apache.commons.pool2.impl.TestGenericObjectPoolClassLoaders
Tests run: 1, Failures: 0, Errors: 0, Skipped: 0, Time elapsed: 0.405 sec - in org.apache.commons.pool2.impl.TestGenericObjectPoolClassLoaders
Running org.apache.commons.pool2.impl.TestEvictionConfig
Tests run: 1, Failures: 0, Errors: 0, Skipped: 0, Time elapsed: 0 sec - in org.apache.commons.pool2.impl.TestEvictionConfig
Running org.apache.commons.pool2.proxy.TestProxiedKeyedObjectPoolWithCglibProxy
Tests run: 5, Failures: 0, Errors: 0, Skipped: 0, Time elapsed: 0.06 sec - in org.apache.commons.pool2.proxy.TestProxiedKeyedObjectPoolWithCglibProxy
Running org.apache.commons.pool2.proxy.TestProxiedKeyedObjectPoolWithJdkProxy
Tests run: 5, Failures: 0, Errors: 0, Skipped: 0, Time elapsed: 0.005 sec - in org.apache.commons.pool2.proxy.TestProxiedKeyedObjectPoolWithJdkProxy
Running org.apache.commons.pool2.proxy.TestProxiedObjectPoolWithCglibProxy
Tests run: 6, Failures: 0, Errors: 0, Skipped: 0, Time elapsed: 5.008 sec - in org.apache.commons.pool2.proxy.TestProxiedObjectPoolWithCglibProxy
Running org.apache.commons.pool2.proxy.TestProxiedObjectPoolWithJdkProxy
Tests run: 6, Failures: 0, Errors: 0, Skipped: 0, Time elapsed: 5.009 sec - in org.apache.commons.pool2.proxy.TestProxiedObjectPoolWithJdkProxy
Running org.apache.commons.pool2.TestBasePoolableObjectFactory
Tests run: 1, Failures: 0, Errors: 0, Skipped: 0, Time elapsed: 0 sec - in org.apache.commons.pool2.TestBasePoolableObjectFactory
Running org.apache.commons.pool2.TestBaseObjectPool
Tests run: 17, Failures: 0, Errors: 0, Skipped: 0, Time elapsed: 0.006 sec - in org.apache.commons.pool2.TestBaseObjectPool
Running org.apache.commons.pool2.TestPoolUtils
Tests run: 18, Failures: 0, Errors: 0, Skipped: 0, Time elapsed: 35.334 sec - in org.apache.commons.pool2.TestPoolUtils

Results :

Tests run: 270, Failures: 0, Errors: 0, Skipped: 0

[INFO] ------------------------------------------------------------------------
[INFO] BUILD SUCCESS
[INFO] ------------------------------------------------------------------------
[INFO] Total time: 06:37 min
[INFO] Finished at: 2017-01-04T18:09:18-06:00
[INFO] Final Memory: 29M/1541M
[INFO] ------------------------------------------------------------------------
